Command,Arg1,Arg2,Arg3,Arg4,Arg5,Arg6,WaitType,Text,PageCtrl,Voice,WindowType
FadeOut,black,,,,,0,,,,,
Bg,背景(リーンボックス：昼),,,,,,,,,,
Wait,,,,,,.3,,,,,
FadeIn,black,,,,,1,,,,,
Bgm,超次元リーンボックスのテーマ,,,,,,,,,,
,天王星うずめ,笑い,キャラ右,,,,Add,,,,
,大人ネプテューヌ,通常,キャラ左,,,,Add,,,,
,クロワール,通常,キャラ中央,,,,,,,,
,天王星うずめ,,,,,,,"ここがリーンボックスか。
他とはまた違った雰囲気で、住みやすそうな国だ",,,
,天王星うずめ,真剣,,,,.2,,ここの守護女神は、確かベールっていったか,,,
,クロワール,真剣,,,,.2,,"その守護女神ベールが姿を見せなくなって、
もうずいぶん経つらしいぜ",,,
,天王星うずめ,目閉じ,,,,.2,,この国もなにかトラブってるってわけか,,,
,クロワール,,,,,,,そう考えるのが自然だな,,,
,大人ネプテューヌ,悲しみ,,,,.2,,"姿を見せなくなったり、ニセモノになってたり、
守護女神ってトラブルメーカーなのかな",,,
,クロワール,悲しみ,,,,.2,,……女神もおまえには言われたくないと思うぞ,Input,,
Selection,*case100901-01,,,,0,300,,「会いに行こう」,,,
*case100901-01,,,,,,,,,,,
,クロワール,真剣,,,,.2,,行くって、どこにいるか分かってるのか？,,,
,天王星うずめ,真剣,,,,.2,,女神に会うなら……教会だな,,,
,大人ネプテューヌ,笑い,,,,.2,,とりあえず行ってみよー！,,,
CharacterOff,,,,,,,,,,,
StopBgm,,,,,,,,,,,
CaptureImage,キャプチャーイメージ,SpriteCamera,キャプチャ画像レイヤー,,,,,,,,
CharacterOff,,,,,,0,,,,,
Bg,背景(黒),,,,,0,,,,,
RuleFadeOut,キャプチャーイメージ,FadeHolizontal,,,,.5,,,,,
Wait,,,,,,.5,,,,,
CaptureImage,キャプチャーイメージ,SpriteCamera,キャプチャ画像レイヤー,,,,,,,,
Bg,背景(教会内部),,,,,0,,,,,
RuleFadeOut,キャプチャーイメージ,FadeHolizontal,,,,.5,,,,,
Bgm,疑惑,,,,,,,,,,
,？？？,<Character=箱崎チカ>真剣,,,,,,ええ……ええ、そうよ。ようやく見つけたわ,,,
CharacterOff,,,,,,,,,,,
,天王星うずめ,真剣,キャラ右,,,,,,,,
,大人ネプテューヌ,通常,キャラ左,,,,,,,,
,クロワール,通常,キャラ中央,,,,,,,,
,天王星うずめ,,,,,,,ん？　誰かいるな,,,
,クロワール,真剣,,,,.2,,あれは箱崎チカ。リーンボックスの教祖だな,,,
,大人ネプテューヌ,,,,,,,誰かと通信してるみたいだけど、相手は誰だろう？,,,
CharacterOff,,,,,,,,,,,
,箱崎チカ,笑い,,,,,,"ありがとうございます、アイエフさん、
これでようやく進展するわね",,,
,アイエフ,<Character=>,,,,,,『毎晩徹夜で探しまくったものね』,,,
CharacterOff,,,,,,,,,,,
,大人ネプテューヌ,通常,キャラ左,,,,,,,,
,クロワール,悲しみ,キャラ右,,,,,,,,
,クロワール,,,,,,,なんだ、相手はアイエフかよ,,,
,大人ネプテューヌ,笑い,,,,.2,,"教会には他に人もいなさそうだし、
声をかけてみよっか",,,
,クロワール,通常,,,,.2,,ああ、そうだな,,,
CharacterOff,,,,,,,,,,,
,箱崎チカ,目閉じ,,,,,,では、通信を切るわね――,,,
Se,通信終了音,,,,,,,,,,
Wait,,,,,,1,,,,,
StopBgm,,,,,,,,,,,
Bgm,コミカル,,,,,,,,,,
,大人ネプテューヌ,笑い,キャラ左,,,1,Add,,,,
Tween,大人ネプテューヌ,MoveFrom,"x=-100 y=0 islocal=true time=1",easeOutQuad,,,,,,,
,大人ネプテューヌ,,,,,,,やっほー、チーカちゃん,,,
Tween,箱崎チカ,MoveTo,"x=0 y=40 islocal=true time=.1",easeOutCirc,pingPong=2,,Add,,,,
,箱崎チカ,固有,,,,.2,,ぎゃああーーっ！,,,
CharacterOff,,,,,,,,,,,
,クロワール,悲しみ,,,,,,なんつー汚い悲鳴だ,,,
,箱崎チカ,固有,,,,,,び、びっくりしたぁ……,Next,,
Wait,,,,,,.3,,,,,
,箱崎チカ,真剣,,,,.2,,"あ、アナタたち！
勝手に入ってくるとは、なんて無礼なの！",,,
CharacterOff,,,,,,,,,,,
,天王星うずめ,悲しみ,キャラ右,,,,,,,,
,クロワール,悲しみ,キャラ左,,,,,,,,
,天王星うずめ,,,,,,,いや、教会って誰でも入っていいもんじゃないのか,,,
,クロワール,真剣,,,,.2,,"シッ、やめとけ。
たぶん、ツッコんだらめんどくさいタイプだぞ",,,
CharacterOff,,,,,,,,,,,
,箱崎チカ,真剣,,,,,,聞こえてますわよ。,Next,,
Wait,,,,,,.3,,,,,
,箱崎チカ,固有,,,,.2,,"……って、あら？
アナタ方、どこかで見たような……",,,
StopBgm,,,,,,,,,,,
Wait,,,,,,1,,,,,
Bgm,ADV通常,,,,,,,,,,
,箱崎チカ,真剣,,,,.2,,"あ！　思い出しましたわ！
あなた方は、ルウィーの事件でテレビに映っていた！",,,
,大人ネプテューヌ,笑い,,,,,,"いやー、もしかしてわたしたち有名人？
ルウィーを救ったヒーローみたいな？",Input,,
Selection,*case100901-02,,,,0,300,,「照れるね」,,,
*case100901-02,,,,,,,,,,,
,クロワール,悲しみ,,,,,,んなことひとつも言ってねーけどな,,,
,箱崎チカ,固有,,,,,,"それにしても、ほんとネプテューヌさんに似てるわね。
イストワールさんはよく似た別人と言ってたけど",,,
CharacterOff,,,,,,,,,,,
,大人ネプテューヌ,通常,キャラ左,,,,,,,,
,クロワール,真剣,キャラ右,,,,,,,,
,クロワール,,,,,,,"イストワールと話したなら、こっちの事情も
知ってんだろ。説明する手間が省けたな",,,
,大人ネプテューヌ,笑い,,,,.2,,わたしたち、ここの女神様に会いに来たの,,,
CharacterOff,,,,,,,,,,,
,箱崎チカ,真剣,,,,,,なぜ、お姉様に……？,,,
CharacterOff,,,,,,,,,,,
,天王星うずめ,悲しみ,キャラ右,,,,,,,,
,クロワール,真剣,キャラ左,,,,,,,,
,天王星うずめ,,,,,,,"俺たちのことは伝わってるんじゃなかったのか？
メチャクチャ不審がられてるぞ",,,
,クロワール,,,,,,,"別に野次馬で来たワケじゃねーぞ。
俺たちなら力になれ――",,,
StopBgm,,,,,,,,,,,
Bgm,疑惑,,,,,,,,,,
CharacterOff,,,,,,,,,,,
,箱崎チカ,目閉じ,,,,,,悪いけど、お姉様に会わせるわけにはいかないわ,,,
,クロワール,固有,,,,,,なにぃ！？,,,
,箱崎チカ,真剣,,,,,,"とにかく、今は事情があって、
ベールお姉様には会わせられませんの",,,
,天王星うずめ,悲しみ,,,,,,特別な事情って……病気か何かか？,,,
,箱崎チカ,,,,,,,さあ、もういいでしょう。アタクシは忙しいのです,,,
Tween,箱崎チカ,MoveAdd,"x=100 y=0 time=1",easeOutQuad,,,Add,,,,
CharacterOff,箱崎チカ,,,,,1,,,,,
Wait,,,,,,.5,,,,,
,天王星うずめ,悲しみ,キャラ右,,,,,,,,
,大人ネプテューヌ,悲しみ,キャラ中央,,,,,,,,
,クロワール,悲しみ,キャラ中央右,,,,,,,,
,箱崎チカ,真剣,キャラ左,,,1,Add,,,,
Tween,箱崎チカ,MoveFrom,"x=-100 y=0 islocal=true time=1",easeOutQuad,,,,,,,
,大人ネプテューヌ,固有,,,,.2,,わわっ,,,
,箱崎チカ,,,,,,,さあさあ、お帰りはあちらですよ！,,,
Tween,大人ネプテューヌ,MoveTo,"x=0 y=40 islocal=true time=.1",easeOutCirc,pingPong=2,,,,,,
,大人ネプテューヌ,,,,,,,わーっ、どうゆうことさー！,,,
CharacterOff,,,,,,0,,,,,
,箱崎チカ,,キャラ左,,,0,,,,,
,天王星うずめ,悲しみ,キャラ右,,,0,,,,,
,大人ネプテューヌ,固有,キャラ中央,,,0,,,,,
,クロワール,悲しみ,キャラ中央右,,,0,,,,,
Se,踏み込み音,,,,,,,,,,
Tween,箱崎チカ,MoveAdd,"x=200 y=0 time=2.5",,,,Add,,,,
Tween,天王星うずめ,MoveAdd,"x=100 y=0 time=1",easeOutQuad,,,Add,,,,
CharacterOff,天王星うずめ,,,,,1,Add,,,,
Tween,大人ネプテューヌ,MoveAdd,"x=100 y=0 time=1",easeOutQuad,,,Add,,,,
CharacterOff,大人ネプテューヌ,,,,,1,Add,,,,
Tween,クロワール,MoveAdd,"x=100 y=0 time=1",easeOutQuad,,,Add,,,,
CharacterOff,クロワール,,,,,1,,,,,
Wait,,,,,,1.5,,,,,
FadeOut,black,,,,,1,,,,,
Wait,,,,,,.3,,,,,
EndScenario,,,,,,,,,,,
