[
    {
        "6": {
            "アイリス": ""
        },
        "7": {
            "シャロン": ""
        },
        "10": {
            "アイリス": "シャロンを助けてくださってありがとうございます"
        },
        "12": {
            "シャロン": "私からもあらためて礼を言わせてほしい。\n姫様を守ってくれたそこの方にも"
        },
        "14": {
            "ヒロ": "お前……人間か"
        },
        "16": {
            "アイリス": "はい、そうですが……"
        },
        "18": {
            "アイリス": "どうかされましたか？"
        },
        "20": {
            "ヒロ": "い、いや、なんでもない……"
        },
        "22": {
            "クロワール": ""
        },
        "23": {
            "シャロン": ""
        },
        "24": {
            "クロワール": "そっちの話が終わったんなら、\nこっちの用件だな"
        },
        "25": {
            "シャロン": "おまえは、クロワール！？"
        },
        "26": {
            "クロワール": "よお、久しぶり"
        },
        "27": {
            "シャロン": "ネプテューヌと共に急に姿を消したと思えば、\nこの次元にいたのか！"
        },
        "28": {
            "クロワール": "おう。まあちょっと野暮用ってとこだ"
        },
        "29": {
            "シャロン": "なにが野暮だ！"
        },
        "30": {
            "シャロン": "あの時、お前たちがいれば<param=player_name>が\n別の次元に飛ばされたりしなかったものを……！"
        },
        "31": {
            "クロワール": "まあ、そう怒るなって。\nその<param=player_name>のためだったんだから"
        },
        "32": {
            "シャロン": "<param=player_name>のため……？"
        },
        "33": {
            "クロワール": "だから、そこにいるだろ"
        },
        "35": {
            "「ううぅ……」": {
                "38": {
                    "アイリス": ""
                },
                "39": {
                    "シャロン": ""
                },
                "40": {
                    "ヒロ": ""
                },
                "41": {
                    "アイリス": "きゃっ！？"
                },
                "44": {
                    "アイリス": "わ、私のお尻の下から変な呻き声が！"
                },
                "45": {
                    "シャロン": "姫様、お気をつけください！\nこれは……地底人かもしれません！"
                },
                "46": {
                    "ヒロ": "なに、地底人だと？\nそれは人間とは異なる種なのか？"
                },
                "48": {
                    "クロワール": "ちげぇよ"
                },
                "49": {
                    "クロワール": "つーか、だいじょぶかー？"
                }
            }
        },
        "51": {
            "「なんとか」": {
                "54": {
                    "クロワール": "……大丈夫そうだな"
                }
            }
        },
        "52": {
            "「白、でした……」": {
                "58": {
                    "クロワール": "なんの色だよ"
                }
            }
        },
        "70": {
            "「君……は……」": {
                "84": {
                    "アイリス": ""
                },
                "85": {
                    "大人ネプテューヌ": ""
                },
                "86": {
                    "クロワール": ""
                },
                "87": {
                    "アイリス": "お城の外が、こんなに素敵な場所だったなんて。\nまるで絵画の世界に来たよう……"
                },
                "89": {
                    "大人ネプテューヌ": "喜んでくれて良かったー"
                },
                "90": {
                    "クロワール": "ていうか、コッソリ抜け出したりして、\nバレたらシャロンが怖ぇぞ"
                },
                "91": {
                    "大人ネプテューヌ": "へいきへいき。\nその時はクロちゃんが窓から逃げちゃったことにするから"
                },
                "92": {
                    "クロワール": "俺は飼ってる虫じゃねぇ！"
                },
                "93": {
                    "アイリス": "シャロンに見つかったら私も謝ります。\nそれより、今はこの夜空をもう少し……"
                },
                "99": {
                    "アイリス": ""
                },
                "100": {
                    "大人ネプテューヌ": ""
                },
                "101": {
                    "クロワール": ""
                },
                "102": {
                    "アイリス": "いつか……"
                },
                "103": {
                    "アイリス": "皆さんのように、この世界を旅してみたいです"
                },
                "104": {
                    "アイリス": "……そんなこと、無理ですよね"
                }
            }
        },
        "106": {
            "「できるよ」": {
                "109": {
                    "アイリス": "え……"
                },
                "110": {
                    "大人ネプテューヌ": "<param=player_name>の言う通りだよ。\n本気で願えばなんでもできる！"
                },
                "111": {
                    "アイリス": "ふふ……ありがとうございます。\nなんだか勇気が湧いてきました"
                },
                "112": {
                    "アイリス": "今夜のこと……"
                },
                "113": {
                    "アイリス": "ううん、今夜だけじゃありません。\n皆さんと出会えたことが私にとって大切な宝物です"
                },
                "114": {
                    "クロワール": "やれやれ、大げさなこった"
                },
                "115": {
                    "大人ネプテューヌ": "もう、クロちゃん空気よめないー"
                },
                "116": {
                    "クロワール": "おまえには言われたくねぇ！"
                },
                "117": {
                    "アイリス": "うふふ……"
                },
                "118": {
                    "シャロン": "こらーっ、また貴様らかーっ！"
                },
                "119": {
                    "クロワール": "うおっ！？　この声は……"
                },
                "120": {
                    "アイリス": "たいへん、シャロンにバレてしまったみたい"
                },
                "121": {
                    "シャロン": "姫様を勝手に連れ出すんじゃないとあれほどーっ"
                }
            }
        },
        "123": {
            "「逃げよう！」": {
                "126": {
                    "大人ネプテューヌ": "りょうかーい！"
                },
                "127": {
                    "クロワール": "結局こうなるのかよー"
                },
                "128": {
                    "アイリス": "うふふ……あははっ"
                }
            }
        }
    }
]