[
    {
        "6": {
            "ジズ": ""
        },
        "7": {
            "キラービー": ""
        },
        "8": {
            "ジズ": "絶望した……"
        },
        "9": {
            "キラービー": "負けた負けたー！　あはははっ"
        },
        "11": {
            "クロワール": "ヒロがいたから、余裕だったな"
        },
        "13": {
            "「ありがとう。ヒロ」": {
                "16": {
                    "ヒロ": "協力したわけではない。\nあいつらが攻撃してきたから対処したまでだ"
                },
                "17": {
                    "ルアンナ": ""
                },
                "18": {
                    "ジズ": ""
                },
                "19": {
                    "キラービー": ""
                },
                "22": {
                    "ルアンナ": "むぉーっ、コイツら強すぎぃー！"
                },
                "23": {
                    "キラービー": "もう諦めて帰ろうやー"
                },
                "24": {
                    "ルアンナ": "そう簡単に諦められるわけないでしょ！"
                },
                "25": {
                    "ジズ": "ブラック労働……絶望した"
                },
                "26": {
                    "クロワール": ""
                },
                "27": {
                    "アイリス": ""
                },
                "28": {
                    "ヒロ": ""
                },
                "29": {
                    "クロワール": "なんか揉めてるみてぇだし、今のうちに逃げるぞ"
                },
                "30": {
                    "アイリス": "よ、良いのでしょうか……"
                },
                "32": {
                    "ヒロ": "いや、そうもいかないようだぞ"
                }
            }
        },
        "38": {
            "敵アイナ": ""
        },
        "39": {
            "ロゼ": ""
        },
        "42": {
            "敵アイナ": ""
        },
        "43": {
            "ロゼ": ""
        },
        "44": {
            "敵アイナ": "まさか気づかれるとは……"
        },
        "45": {
            "ロゼ": "先ほどの戦いぶりといい、\n流石、かつてネバーランド大戦で名を馳せたお方ですね"
        },
        "47": {
            "ヒロ": "誰だ、貴様"
        },
        "49": {
            "ロゼ": "魔皇軍のロゼと申します"
        },
        "51": {
            "ヒロ": "魔皇軍……？"
        },
        "53": {
            "クロワール": ""
        },
        "54": {
            "敵アイナ": ""
        },
        "55": {
            "クロワール": "見逃してくれるんじゃなかったのかよ"
        },
        "56": {
            "敵アイナ": "それは前回の話。\n今回は邪魔が入らない"
        },
        "57": {
            "クロワール": "魔王クラスをいくら召喚したって、\nフュージョンフォースには勝てねぇ"
        },
        "58": {
            "クロワール": "そんなこと、おまえが一番よく分かってるだろ"
        },
        "59": {
            "敵アイナ": "それでも……引き下がれない願いがある"
        },
        "61": {
            "アイリス": "待ってください！"
        },
        "62": {
            "アイリス": "どうしてお二人が戦わなければならないのですか！？\nこんなの、間違っています！"
        },
        "63": {
            "アイリス": "きっと、何か別の方法が……"
        },
        "64": {
            "アイリス": "みなさんで協力し合えば、きっと、\n乗り越えられない壁なんてないと思うんです"
        },
        "66": {
            "ヒロ": "…………"
        },
        "113": {
            "「それはつらい」": {
                "117": {
                    "ジズ": "同情してくれるの？　ありがと……"
                }
            }
        },
        "114": {
            "「分かる」": {
                "121": {
                    "ジズ": "もしかして……なかま……？"
                }
            }
        },
        "130": {
            "アイリス": ""
        },
        "131": {
            "敵アイナ": ""
        },
        "132": {
            "アイリス": "お願いです、アイナさん！"
        },
        "134": {
            "敵アイナ": "あなたの言うことは無意味な理想よ"
        },
        "135": {
            "アイリス": "そんな……"
        },
        "137": {
            "敵アイナ": "想いは、願いは、痛みなくしては成し遂げられない。\nそのことを教えてくれたのは彼よ"
        },
        "138": {
            "敵アイナ": "だから……！"
        },
        "153": {
            "アイリス": "きゃっ！　私の身体が……"
        },
        "156": {
            "シャロン": "姫様！　"
        },
        "159": {
            "ロゼ": ""
        },
        "160": {
            "敵アイナ": ""
        },
        "161": {
            "敵アイナ": "ロゼ……巻き込んでしまって、すまない\n元の次元に帰すと約束したのに……"
        },
        "162": {
            "ロゼ": "気にしないで。あなたへの借りを返すのが先よ"
        },
        "163": {
            "敵アイナ": "……ありがとう"
        },
        "166": {
            "敵アイナ": "――この身が願いの力というのなら。\n我が願いに応えてみせよ……！"
        },
        "168": {
            "敵アイナ": "くっ、うう、う……あああぁああぁぁっ！！"
        },
        "170": {
            "シャロン": ""
        },
        "171": {
            "クロワール": ""
        },
        "172": {
            "シャロン": "これは、魔王クラスを召喚しようというのか！？"
        },
        "173": {
            "クロワール": "違う。これは……！"
        },
        "174": {
            "クロワール": "やめろ！　そいつは命を削るなんてもんじゃねぇ！\nおまえの存在自体を代価にするようなもんだ！"
        },
        "176": {
            "敵アイナ": "そんなこと、分かっている……"
        },
        "177": {
            "敵アイナ": "魔王クラスでもダメなら、方法はこれしかない。\nたとえ何を犠牲にしても……！"
        }
    }
]