Command,Arg1,Arg2,Arg3,Arg4,Arg5,Arg6,WaitType,Text,PageCtrl,Voice,WindowType
FadeOut,black,,,,,0,,,,,
Bg,背景(草原：昼),,,,,,,,,,
Wait,,,,,,.3,,,,,
FadeIn,black,,,,,1,,,,,
Bgm,ADV通常,,,,,,,,,,
Se,魔法陣展開,,,,,,,,,,
Sprite,魔法陣(赤),,スプライトレイヤー,,,2,Add,,,,
Tween,魔法陣(赤),ScaleFrom,"x=0.2 y=0.2 time=2",,,,Add,,,,
Tween,魔法陣(赤),RotateAdd,"z=900 time=2",,,,,,,,
Wait,,,,,,.2,,,,,
Wait,,,,,,.5,,,,,
SpriteOff,魔法陣(赤),,,,,,,,,,
Se,次元転移音,,,,,,,,,,
Particle,白オーラ,,,0,-150,,,,,,
Particle,白チャージ,,スプライトレイヤー,,,,,,,,
Wait,,,,,,2,,,,,
Se,次元転移音,,,,,,,,,,
Se,着地音,,,,,,,,,,
,クロワール,固有,キャラ中央,,,.2,Add,,,,
Tween,クロワール,MoveFrom,"x=0 y=100 islocal=true time=.2",,,,Add,,,,
,クロワール,,,,,,,うおっ！？,,,
Se,倒れる音,,,,,,,,,,
Se,着地音,,,,,,,,,,
,西園寺チヨ制服,固有,キャラ左,,,.2,Add,,,,
Tween,西園寺チヨ制服,MoveFrom,"x=0 y=100 islocal=true time=.2",,,,Add,,,,
,西園寺チヨ制服,,,,,,,きゃっ！,,,
Se,倒れる音,,,,,,,,,,
Se,着地音,,,,,,,,,,
,ネネ,固有,キャラ右,,,.2,Add,,,,
Tween,ネネ,MoveFrom,"x=0 y=100 islocal=true time=.2",,,,Add,,,,
,ネネ,,,,,,,うひゃあ！？,,,
ParticleOff,,,,,,,,,,,
,クロワール,悲しみ,,,,.2,,いてて……いったい、どこに転移したんだ,,,
,西園寺チヨ制服,悲しみ,,,,.2,,……ナツメ？　ナツメはどこにいったの？,,,
CharacterOff,,,,,,,,,,,
,リトル・スノー,真剣,,,,,,神貫ナツメなら、この子がそうよ,,,
,メリン,悲しみ,,,,,,もー、勝手について来ちゃって。困るんだよねー,,,
CharacterOff,,,,,,,,,,,
,西園寺チヨ制服,固有,キャラ左,,,,,,,,
,クロワール,真剣,キャラ右,,,,,,,,
,西園寺チヨ制服,,,,,,,この人が、ナツメ……！？,,,
,クロワール,,,,,,,"正確には、コイツの力でさっきの赤い髪のねーちゃんと
そっちの連れが融合したんだよ",Input,,
Selection,*200803-1,,,,0,300,,「そういうわけです」,,,
*200803-1,,,,,,,,,,,
,西園寺チヨ制服,固有,,,,.2,,融合って、そんなことが……,,,
,クロワール,,,,,,,"つーか、さっきのアレ。<param=player_name>の力を
無理矢理引き出したように見えたぞ",,,
CharacterOff,,,,,,,,,,,
,リトル・スノー,悲しみ,,,,,,ええ、今の彼女ならそのくらいできるでしょうね,,,
,クロワール,悲しみ,,,,,,"くそ、わけ分かんねぇぞ。
いったい何をしようってんだ",,,
,リトル・スノー,真剣,,,,,,それは、あそこの人が関係してるみたいよ,,,
,クロワール,通常,,,,,,ん……？,,,
CaptureImage,キャプチャーイメージ,SpriteCamera,キャプチャ画像レイヤー,,,,,,,,
CharacterOff,,,,,,0,,,,,
Bg,背景(黒),,,,,0,,,,,
RuleFadeOut,キャプチャーイメージ,FadeLeftBottom,,,,.5,,,,,
Wait,,,,,,.5,,,,,
CaptureImage,キャプチャーイメージ,SpriteCamera,キャプチャ画像レイヤー,,,,,,,,
Bg,背景(草原：昼),,,,,0,,,,,
RuleFadeOut,キャプチャーイメージ,FadeLeftBottom,,,,.5,,,,,
StopBgm,,,,,,,,,,,
Bgm,コミカル,,,,,,,,,,
,ティアラ,笑い,キャラ中央,,,,,,,,
,キュイ,通常,キャラ中央左,,,,,,,,
,ティアラ,,,,,,,ティーセットの準備は万端ですわ,,,
,ティアラ,,,,,,,"あとはフューリーに釣られてやってきたフェンサーに
痺れ薬の入ったカモミールティーを飲ませれば……",,,
,キュイ,笑い,,,,.2,,キュイ、キュイ,,,
,ティアラ,照れ,,,,.2,,ええ、他の妖聖武器は全てわたくしの物です,,,
CharacterOff,,,,,,,,,,,
,クロワール,悲しみ,,,,,,ティアラのやつ、相変わらずすげぇ根性してんな,Input,,
Selection,*200803-2,,,,0,300,,「元気そう」,,,
*200803-2,,,,,,,,,,,
,クロワール,,,,,,,とりあえず、声かけてみるか。,Br,,
Wait,,,,,,.3,,,,,
,クロワール,笑い,,,.2,,,おーい、ティアラ,,,
CaptureImage,キャプチャーイメージ,SpriteCamera,キャプチャ画像レイヤー,,,,,,,,
CharacterOff,,,,,,0,,,,,
Bg,背景(黒),,,,,0,,,,,
RuleFadeOut,キャプチャーイメージ,FadeLeftBottom,,,,.5,,,,,
Wait,,,,,,.5,,,,,
CaptureImage,キャプチャーイメージ,SpriteCamera,キャプチャ画像レイヤー,,,,,,,,
Bg,背景(草原：昼),,,,,0,,,,,
RuleFadeOut,キャプチャーイメージ,FadeLeftBottom,,,,.5,,,,,
,ティアラ,通常,キャラ左,,,,,,,,
,クロワール,笑い,キャラ右,,,1,Add,,,,
Tween,クロワール,MoveFrom,"x=100 y=0 islocal=true time=1",easeOutQuad,,,,,,,
,クロワール,,,,,,,また痺れ薬とは、おまえも芸がねぇな,,,
,ティアラ,悲しみ,,,,.2,,……どなたですの？,,,
,クロワール,悲しみ,,,,.2,,"どなたって……俺たちだよ
ほら、エールドラドで――",,,
,ティアラ,,,,,,,わたくし、あなた方とは初対面だと思いますわ,,,
,クロワール,真剣,,,,.2,,"初対面って……
つーか、前にも似たようなことあったような……",,,
,ティアラ,目閉じ,,,,.2,,……なるほど。分かりましたわ,,,
,ティアラ,悲しみ,,,,.2,,"いますわよね……好意を抱くあまり、自分が密接な
関係だと勘違いしてしまうお方",,,
,クロワール,固有,,,,.2,,またストーカー扱いかよ！,,,
CharacterOff,,,,,,,,,,,
,メリン,真剣,,,,,,,,,
Wait,,,,,,.5,,,,,
Tween,メリン,ScaleTo,"x=0.9 y=0.9 time=0.2",,,,,,,,
Wait,,,,,,.2,,,,,
Se,疾走音,,,,,,,,,,
Tween,メリン,ScaleTo,"x=2 y=2 time=0.5",,,,Add,,,,
Tween,メリン,MoveAdd,"x=0 y=-150 time=.5",,,,Add,,,,
CharacterOff,,,,,,,,,,,
Wait,,,,,,.3,,,,,
,メリン,<Character=>,,,,.2,,ていっ,,,
,ティアラ,通常,キャラ中央,,,,,,,,
,キュイ,通常,キャラ中央左,,,,,,,,
Particle,パリィ,,スプライトレイヤー,,,,,,,,
Se,打撃音,,,,,,,,,,
,ティアラ,悲しみ,,,,.2,,はうっ,,,
Se,倒れる音,,,,,,,,,,
Tween,ティアラ,MoveAdd,"x=0 y=-100 time=1",easeOutQuad,,,Add,,,,
CharacterOff,ティアラ,,,,,1,,,,,
ParticleOff,,,,,,,,,,,,,,,,,,,,,,,,,,,,,,,,,,,,,,,,,,,,,,,,,,,,,,,,,,,,,,,,,,,,,,,,,,,,,,,,,,,,,,,,,,,,,,,,,,,,,,,,,,,,,,,,,,,,,,,,,,,,,,,,,,,,,,,,,,,,,,,,,,,,,,,,,,,,,,,,,,,,,,,,,,,,,,,,,,,,,,,,,,,,,,,,,,,,,,,,,,,,,,,,,,,,,,,,,,,,,,,,,,,,,,,,,,,,,,,,,,,,,,,,,,,,,,,
Wait,,,,,,1,,,,,
Particle,パリィ,,スプライトレイヤー,-225,,,,,,,
Se,打撃音,,,,,,,,,,
,キュイ,悲しみ,,,,.2,,キュイ～,,,
Se,倒れる音,,,,,,,,,,
Tween,キュイ,MoveAdd,"x=0 y=-100 time=1",easeOutQuad,,,Add,,,,
CharacterOff,キュイ,,,,,1,,,,,
Wait,,,,,,1,,,,,
StopBgm,,,,,,,,,,,
,メリン,通常,キャラ左,,,,,,,,
,クロワール,通常,キャラ右,,,,,,,,
Bgm,状況説明,,,,,,,,,,
,メリン,,,,,,,これで、よしと,,,
,クロワール,悲しみ,,,,.2,,お、おい、なにしてんだ！？,,,
,メリン,悲しみ,,,,.2,,未来の人間が過去の人間に干渉するのはダメだよー,,,
,メリン,,,,,,,"他の人間はともかく、キミたち２人は、
エールドラドで会うことになってるんだから",,,
,メリン,真剣,,,,.2,,これ以上干渉するとタイムパラドックスが起きちゃう,,,
,クロワール,,,,,,,"……なに言ってんだ？
まるで俺たちが過去に飛んできたみたいじゃねーか",,,
,メリン,通常,,,,.2,,うん、そうだよ。アタシには時を超える力があるの,,,
,メリン,笑い,,,,.2,,そして、この力で、過去に生じた歪みを正しに来たの,,,
,クロワール,真剣,,,,.2,,マジかよ……,,,
CharacterOff,,,,,,,,,,,
,西園寺チヨ制服,悲しみ,キャラ左,,,,,,,,
,ネネ,悲しみ,キャラ右,,,,,,,,
,西園寺チヨ制服,,,,,,,過去の歪み？　タイムパラドックス？,Br,,
Wait,,,,,,.3,,,,,
,西園寺チヨ制服,固有,,,,.2,,話が大きくなりすぎてついていけないわ……,,,
,ネネ,,,,,,,あのぉ、誰か来るみたいですけど……,,,
,リトル・スノー,真剣,キャラ左,,,,,,,,
,クロワール,悲しみ,キャラ右,,,,,,,,
,リトル・スノー,,,,,,,"いずれにしても、この状況を誰かに見られるのは、
マズいと思うわ",,,
,クロワール,,,,,,,"確かに、気絶した少女を取り囲む集団なんて、
ストーカーよりよっぽど犯罪臭がするぜ",,,
,クロワール,真剣,,,,.2,,とりあえず、ティアラたちをどっか物陰に運ぶぞ！,,,
Se,踏み込み音,,,,,,,,,,
,ティアラ,目閉じ,キャラ中央,,,1,Add,,,,
Tween,ティアラ,MoveFrom,"x=0 y=-100 islocal=true time=1",easeOutQuad,,,Add,,,,
,キュイ,目閉じ,キャラ中央左,,,1,Add,,,,
Tween,キュイ,MoveFrom,"x=0 y=-100 islocal=true time=1",easeOutQuad,,,,,,,
CharacterOff,,,,,,0,,,,,
,クロワール,真剣,キャラ右,,,0,,,,,
,ティアラ,目閉じ,キャラ中央,,,0,,,,,
,キュイ,目閉じ,キャラ中央左,,,0,,,,,
,リトル・スノー,真剣,キャラ左,,,0,,,,,
Wait,,,,,,1,,,,,
Se,踏み込み音,,,,,,,,,,
Tween,クロワール,MoveAdd,"x=-100 y=0 time=1",easeOutQuad,,,Add,,,,
CharacterOff,クロワール,,,,,1,Add,,,,
Tween,ティアラ,MoveAdd,"x=-100 y=0 time=1",easeOutQuad,,,Add,,,,
CharacterOff,ティアラ,,,,,1,Add,,,,
Tween,キュイ,MoveAdd,"x=-100 y=0 time=1",easeOutQuad,,,Add,,,,
CharacterOff,キュイ,,,,,1,Add,,,,
Tween,リトル・スノー,MoveAdd,"x=-100 y=0 time=1",easeOutQuad,,,Add,,,,
CharacterOff,リトル・スノー,,,,,1,,,,,
Wait,,,,,,3,,,,,
StopBgm,,,,,,,,,,,
Bgm,コミカル,,,,,,,,,,
Se,踏み込み音,,,,,,,,,,
,ファング,通常,キャラ右,,,1,Add,,,,
Tween,ファング,MoveFrom,"x=100 y=0 islocal=true time=1",easeOutQuad,,,Add,,,,
,アリン,通常,キャラ左,,,1,Add,,,,
Tween,アリン,MoveFrom,"x=100 y=0 islocal=true time=1",easeOutQuad,,,,,,,
,ファング,笑い,,,,.2,,"アリン、こんなところにテーブルがあるぞ。
しかもご丁寧に茶まで用意されてるぜ",,,
,ファング,,,,,,,ちっと、休憩でもしてくか？,,,
,アリン,固有,,,,.2,,いや、どう考えても、怪しすぎるでしょ,,,
,ファング,真剣,,,,.2,,うおっ、妖聖武器じゃねーか！,,,
,アリン,照れ,,,,.2,,ええっ！　ウソ！？,,,
,ファング,笑い,,,,.2,,簡単にゲットできるなんて、ラッキー！,,,
,アリン,悲しみ,,,,.2,,いくらなんでもそんな都合のいいことが……,,,
,ファング,真剣,,,,.2,,疑いすぎだろっ。,Next,,
Tween,ファング,MoveAdd,"x=0 y=-10 time=.3",,,,,,,,
Tween,ファング,MoveAdd,"x=0 y=10 time=.3",,,,Add,,,,
,ファング,笑い,,,,.2,,ゴクゴクゴク……はぁ、うめぇ～,,,
CharacterOff,,,,,,,,,,,
,西園寺チヨ制服,真剣,,,,.2,,……どうやら、ただの旅人のようね,,,
,メリン,悲しみ,,,,.2,,あれぇー、おっかし～なぁ,,,
,メリン,,,,,,,"確かにこの時間のこの場所に、
歪みの予兆を感じたんだけどなー",,,
,リトル・スノー,真剣,,,,.2,,あなたの勘違いだったんじゃない？,,,
,メリン,悲しみ,,,,.2,,うーん、勘違い……勘違いかぁ……,,,
,メリン,笑い,,,,.2,,ま、いいや,,,
,メリン,,,,,,,"見つからないものはしょうがないよね。
んじゃ、次の歪みを探しにまた時を巡るとしよう！",,,
FadeOut,black,,,,,1,,,,,
Wait,,,,,,.3,,,,,
EndScenario,,,,,,,,,,,
