Command,Arg1,Arg2,Arg3,Arg4,Arg5,Arg6,WaitType,Text,PageCtrl,Voice,WindowType
FadeOut,black,,,,,0,,,,,
Bg,背景(プラネテューヌ：昼),,,,,,,,,,
Wait,,,,,,.3,,,,,
FadeIn,black,,,,,1,,,,,
Bgm,ADV通常,,,,,,,,,,
,ネプギア,笑い,,,,,,"たくさん買い物が出来て大満足です。お二人とも、
今日はお付き合いくださってありがとうございました",Input,,
Selection,*201002-01,,,,0,300,,「気にしないで」,,,
*201002-01,,,,,,,,,,,
,クロワール,通常,,,,,,"うちのでっかい子供がそっちで世話になってるからな。
このくらい、どうってことないぜ",,,
,ネプギア,悲しみ,,,,,,"お姉ちゃんとネプテューヌさんたち、
ずーっとゲームで遊んでますね",,,
,クロワール,悲しみ,,,,,,余計なことに首突っ込まなくてありがたい。,Br,,
Wait,,,,,,.3,,,,,
,クロワール,通常,,,,.2,,しばらくは、俺たちものんびりさせてもらうさ,Input,,
Selection,*201002-02,,,,0,350,,「休暇も必要だよね」,,,
Selection,*201002-03,,,,0,200,,「帰ったらゲーム三昧だ！」,,,
*201002-02,,,,,,,,,,,
,クロワール,悲しみ,,,,,,たまにはな。ここのとこ、ドタバタ続きだったからな,,,
Jump,*case201002-01,,,,,,,,,,
*201002-03,,,,,,,,,,,
,クロワール,悲しみ,,,,,,"ほどほどにしとけよ。
あいつらに付き合ってたら身が持たねぇぞ",,,
Jump,*case201002-01,,,,,,,,,,
*case201002-01,,,,,,,,,,,
,クロワール,通常,,,,,,"さてと、買い物も終わったし、
少しその辺をぶらついて……ん？　あいつらは……",,,
CharacterOff,,,,,,,,,,,
Wait,,,,,,.5,,,,,
StopBgm,,,,,,,,,,,
CaptureImage,キャプチャーイメージ,SpriteCamera,キャプチャ画像レイヤー,,,,,,,,
CharacterOff,,,,,,0,,,,,
Bg,背景(黒),,,,,0,,,,,
RuleFadeOut,キャプチャーイメージ,FadeHolizontal,,,,.5,,,,,
Wait,,,,,,.5,,,,,
CaptureImage,キャプチャーイメージ,SpriteCamera,キャプチャ画像レイヤー,,,,,,,,
Bg,背景(プラネテューヌ：昼),,,,,0,,,,,
RuleFadeOut,キャプチャーイメージ,FadeHolizontal,,,,.5,,,,,
Bgm,コミカル,,,,,,,,,,
,リリィ,通常,キャラ右,,,,,,,,
,ユリーナ,通常,キャラ中央,,,,,,,,
,ヨーコ,通常,キャラ左,,,,,,,,
,リリィ,,,,,,,次は、どの依頼を受けましょうか？,,,
,ヨーコ,真剣,,,,.2,,ギルドの依頼一覧をざっと見た限りだと――,,,
,ユリーナ,笑い,,,,.2,,この報酬金額Ｓランクの依頼以外、ありえないわね！,,,
,リリィ,真剣,,,,.2,,出ましたね、ユリーナの貧乏癖,,,
,リリィ,悲しみ,,,,.2,,"個人的には手軽な依頼をこなして、
シイナの手がかりを見つけたいのですが……",,,
,ユリーナ,笑い,,,,.2,,"路銀稼ぎのために依頼を受けるんだから、高額報酬を
選択するべきよ。",Next,,
Wait,,,,,,.3,,,,,
Tween,ユリーナ,MoveTo,"x=0 y=40 islocal=true time=.1",easeOutCirc,pingPong=2,,Add,,,,
,ユリーナ,,,,,,,アイラブ、マネーーーー！！,,,
Tween,リリィ,ShakePosition,"x=10 islocal=true time=.3",,,,Add,,,,
,リリィ,真剣,,,,.2,,"ちょ、ちょっと！
道端で恥ずかしいこと言わないでくださいっ！",,,
Se,踏み込み音,,,,,,,,,,
Tween,ヨーコ,MoveAdd,"x=-100 y=0 time=1",easeOutQuad,,,Add,,,,
CharacterOff,ヨーコ,,,,,1,Add,,,,
Wait,,,,,,.5,,,,,
,リリィ,悲しみ,,,,.2,,"ヨーコからも何か言ってください……って、
いつの間にか私たちと距離を取っている！？",Br,,
Wait,,,,,,.3,,,,,
Tween,リリィ,MoveTo,"x=0 y=40 islocal=true time=.1",easeOutCirc,pingPong=2,,Add,,,,
,リリィ,固有,,,,.2,,いつの間にか私たちと距離を取っている！？,,,
CharacterOff,,,,,,,,,,,
,ヨーコ,悲しみ,,,,.2,,だって、仲間だと思われたくないし,,,
CharacterOff,,,,,,,,,,,
,リリィ,固有,キャラ右,,,,,,,,
,ユリーナ,笑い,キャラ左,,,,,,,,
,リリィ,真剣,,,,.2,,私だって嫌ですわ！,,,
,ユリーナ,悲しみ,,,,.2,,もぅ～、そんなに嫌わないでよ～,,,
,リリィ,,,,,,,あなたはご自分の悪い癖を一刻も早く自覚してください,,,
CharacterOff,,,,,,,,,,,
,ヨーコ,悲しみ,,,,.2,,"まぁ……実際、前に請けた依頼で酷い目に遭ったし、
報酬金額が高めなのは選ばない方がいいわよ",,,
CharacterOff,,,,,,,,,,,
,リリィ,通常,キャラ右,,,,,,,,
,ユリーナ,悲しみ,キャラ左,,,,,,,,
,リリィ,,,,,,,ユリーナ、聞きましたか？,,,
,ユリーナ,悲しみ,,,,.2,,聞いてるけど～,,,
CharacterOff,,,,,,,,,,,
Wait,,,,,,.5,,,,,
StopBgm,,,,,,,,,,,
CaptureImage,キャプチャーイメージ,SpriteCamera,キャプチャ画像レイヤー,,,,,,,,
CharacterOff,,,,,,0,,,,,
Bg,背景(黒),,,,,0,,,,,
RuleFadeOut,キャプチャーイメージ,FadeHolizontal,,,,.5,,,,,
Wait,,,,,,.5,,,,,
CaptureImage,キャプチャーイメージ,SpriteCamera,キャプチャ画像レイヤー,,,,,,,,
Bg,背景(プラネテューヌ：昼),,,,,0,,,,,
RuleFadeOut,キャプチャーイメージ,FadeHolizontal,,,,.5,,,,,
Bgm,ADV通常,,,,,,,,,,
,クロワール,悲しみ,,,,,,相変わらずかしましい奴らだ,Input,,
Selection,*201002-04,,,,0,300,,「声、かける？」,,,
*201002-04,,,,,,,,,,,
CharacterOff,,,,,,,,,,,
,クロワール,通常,,,,,,いや、面倒だし放置だな,,,
CharacterOff,,,,,,,,,,,
,クロワール,通常,キャラ中央左,,,,,,,,
Wait,,,,,,.5,,,,,
Se,踏み込み音,,,,,,,,,,
,ヨーコ,通常,キャラ中央右,,,1,Add,,,,
Tween,ヨーコ,MoveFrom,"x=100 y=0 islocal=true time=1",easeOutQuad,,,Add,,,,
,ヨーコ,,,,,,,あら、クロワールじゃない,,,
,クロワール,悲しみ,,,,.2,,げっ、見つかった,,,
,ヨーコ,真剣,,,,.2,,わらわの顔を見て、げっとは失礼ね,,,
Se,踏み込み音,,,,,,,,,,
Tween,ヨーコ,MoveTo,"time=1 x=75 y=0",,,,,,,,
Se,掴む音,,,,,,,,,,
Tween,ヨーコ,MoveTo,"time=1 x=125 y=0",,,,Add,,,,
Tween,クロワール,MoveTo,"time=1 x=-195 y=0",,,,,,,,
,クロワール,固有,,,,,,いででっ、羽を引っ張るな！,,,
CharacterOff,,,,,,,,,,,
,ネプギア,通常,,,,,,お知り合いなんですか？,,,
,クロワール,悲しみ,,,,,,特別仲がいいって訳じゃねーが……,,,
CharacterOff,,,,,,,,,,,
,クロワール,通常,キャラ左,,,,,,,,
Se,踏み込み音,,,,,,,,,,
,リリィ,真剣,キャラ右,,,1,Add,,,,
Tween,リリィ,MoveFrom,"x=100 y=0 islocal=true time=1",easeOutQuad,,,,,,,
,リリィ,,,,,,,クロワール、シイナはどこですか！,,,
,クロワール,,,,,,,……やっぱり面倒なことになったか,,,
CharacterOff,,,,,,,,,,,
,ヨーコ,悲しみ,,,,,,リリィ、あんたその質問、何回目よ？,,,
,リリィ,,,,,,,"何回でも聞きます！
それが、私にとって一番大事な──",,,
CharacterOff,,,,,,,,,,,
,クロワール,通常,,,,,,シイナなら、プラネテューヌの教会にいるぜ,,,
,リリィ,固有,,,,,,へ……？,,,
,ネプギア,固有,,,,,,あっ、見てください！　空に……！,,,
CharacterOff,,,,,,,,,,,
ZoomCamera,SpriteCamera,3,-100,250,,1,,,,,
Wait,,,,,,.5,,,,,
Particle,流れ星,,キャプチャ画像レイヤー,250,350,,,,,,
Wait,,,,,,.5,,,,,
Se,流れ星,,,,,,,,,,
Wait,,,,,,.2,,,,,
Tween,流れ星,MoveAdd,"x=-550 y=-350 time=1",,,,,,,,
ParticleOff,,,,,,,,,,,
ZoomCamera,SpriteCamera,1,0,0,,0,,,,,
,ヨーコ,通常,キャラ左,,,,,,,,
,ユリーナ,通常,キャラ右,,,,,,,,
,ヨーコ,悲しみ,,,,.2,,流れ星？,,,
StopBgm,,,,,,,,,,,
Bgm,コミカル,,,,,,,,,,
Tween,ユリーナ,MoveTo,"x=0 y=40 islocal=true time=.1",easeOutCirc,pingPong=2,,Add,,,,
,ユリーナ,固有,,,,,,なな、流れ星！？　願い事しなくちゃ！　お金持ち！,Br,,
Wait,,,,,,.3,,,,,
,ユリーナ,目閉じ,,,,.2,,スイーツ食べたい、ガチャ運が良くなりますように！,,,
,ユリーナ,悲しみ,,,,.2,,あとはえっと、えーーっと！,Input,,
Selection,*201002-05,,,,0,350,,「このパターンは……」,,,
Selection,*201002-06,,,,0,200,,「嫌な予感が……」,,,
*201002-05,,,,,,,,,,,
CharacterOff,,,,,,,,,,,
,クロワール,通常,,,,,,ああ、どっかで見たことあるな……,,,
Jump,*case201002-02,,,,,,,,,,
*201002-06,,,,,,,,,,,
CharacterOff,,,,,,,,,,,
,クロワール,真剣,,,,,,慌てるな、まだ決まったわけじゃねぇ,,,
Jump,*case201002-02,,,,,,,,,,
*case201002-02,,,,,,,,,,,
,ネプギア,通常,,,,,,行ってみましょう,,,
,リリィ,悲しみ,,,,,,シイナの方が気になりますけど……仕方ありませんわね,,,
,ユリーナ,通常,キャラ中央,,,,,,,,
Tween,ユリーナ,ScaleTo,"time=0 x=1.5 y=1.5",,,,Add,,,,
Tween,ユリーナ,MoveAdd,"x=0 y=-100 time=0",,,,Add,,,,
Tween,BG,ScaleTo,"time=0 x=1.5 y=1.5",,,,Add,,,,
Tween,BG,MoveAdd,"x=0 y=-100 time=0",,,,Add,,,,
Particle,集中線,,,,,,Add,,,,
Wait,,,,,,.5,,,,,
,ユリーナ,真剣,,,,.2,,兎にも角にも、金運アーーーップ！！,,,
FadeOut,black,,,,,1,,,,,
Wait,,,,,,.3,,,,,
EndScenario,,,,,,,,,,,
