Command,Arg1,Arg2,Arg3,Arg4,Arg5,Arg6,WaitType,Text,PageCtrl,Voice,WindowType,
FadeOut,black,,,,,0,,,,,,
Bg,背景(宿屋内部),,,,,,,,,,,
Wait,,,,,,.3,,,,,,
FadeIn,black,,,,,1,,,,,,
Bgm,不穏,,,,,,,,,,,
Se,扉　開ける2,,,,,,,,,,,
Wait,,,,,,.5,,,,,,
Se,踏み込み音,,,,,,,,,,,
,孤児院の院長,通常,,,,.2,,みなさん、大変です！,,,,
CharacterOff,,,,,,,,,,,,
,クロワール,通常,,,,.2,,院長、こんな夜中にどうしたんだ,,,,
,孤児院の院長,通常,,,,.2,,子どもたちがいないんです！,,,,
,孤児院の院長,通常,,,,.2,,"残った子たちに聞いたら
『お宝を手に入れにいく』と言っていたと……",,,,
CharacterOff,,,,,,,,,,,,
,ネプギア,通常,キャラ右,,,,,,,,,
,シイナ,通常,キャラ左,,,,,,,,,
,シイナ,真剣,,,,.2,,お宝って、まさか……,,,,
,ネプギア,真剣,,,,.2,,きっと、わたしたちの話を聞いてたんです！,,,,
CharacterOff,,,,,,,,,,,,
,ハーラー,通常,,,,,,,,,,
,ハーラー,真剣,,,,.2,,だとしたら、マズいね,,,,
,ハーラー,真剣,,,,.2,,"文献によると、妖聖武器はガーディアンが
守っているそうだ。うかつに近づくと危険だ",,,,
CharacterOff,,,,,,,,,,,,
,孤児院の院長,通常,,,,.2,,そんな……！,,,,
,ネプギア,真剣,,,,,,,,,,
Tween,ネプギア,ShakePosition,"x=10 islocal=true time=.3",,,,Add,,,,,
,ネプギア,真剣,,,,.2,,わたし、捜しに行きます！,,,,
,ハーラー,真剣,,,,,,待て、闇雲に捜していては間に合わない。,Br,,,
Wait,,,,,,.3,,,,,,
,ハーラー,通常,,,,.2,,ある程度、目星をつけてから動くべきだ,,,,
CharacterOff,,,,,,,,,,,,
,エフォール,通常,キャラ右,,,,,,,,,
,果林,通常,キャラ左,,,,,,,,,
Tween,エフォール,MoveTo,"x=0 y=40 islocal=true time=.1",easeOutCirc,pingPong=2,,Add,,,,,
,エフォール,真剣,,,,.2,,殺っ、殺っ、殺っ！,,,,
,果林,通常,,,,.2,,"自分は子どもたちの秘密基地に
連れてってもらったことがある。と申しています",,,,
,果林,真剣,,,,.2,,"基地は洞窟にあって、奥がピカピカと
光っていたと……",,,,
CharacterOff,,,,,,,,,,,,
,ネプギア,真剣,キャラ右,,,,,,,,,
,クロワール,真剣,キャラ左,,,,,,,,,
,ネプギア,真剣,,,,.2,,そこへ連れていってください！,,,,
,クロワール,真剣,,,,.2,,院長は残っていてくれ。俺たちで探してくる,Input,,,
Selection,*101703-01,,,,0,300,,「シイナは残った子どもたちを！」,,,,
*101703-01,,,,,,,,,,,,
CharacterOff,,,,,,,,,,,,
,シイナ,真剣,,,,.2,,"はいっ、お任せください！
みなさんお気をつけて！",,,,
StopBgm,,,,,,,,,,,,
CaptureImage,キャプチャーイメージ,SpriteCamera,キャプチャ画像レイヤー,,,,,,,,,
CharacterOff,,,,,,0,,,,,,
Bg,背景(黒),,,,,0,,,,,,
RuleFadeOut,キャプチャーイメージ,FadeHolizontal,,,,.5,,,,,,
Wait,,,,,,.5,,,,,,
CaptureImage,キャプチャーイメージ,SpriteCamera,キャプチャ画像レイヤー,,,,,,,,,
Bg,背景(洞窟),,,,,0,,,,,,
RuleFadeOut,キャプチャーイメージ,FadeHolizontal,,,,.5,,,,,,
Bgm,疑惑,,,,,,,,,,,
,クロワール,,,,,1,Add,,,,,
Tween,クロワール,MoveFrom,"x=-100 y=0 islocal=true time=1",easeOutQuad,,,,,,,,
,クロワール,真剣,,,,.2,,ここが例の秘密基地か,,,,
CharacterOff,,,,,,,,,,,,
Se,踏み込み音,,,,,,,,,,,
,ハーラー,通常,キャラ左,,,1,Add,,,,,
Tween,ハーラー,MoveFrom,"x=-100 y=0 islocal=true time=1",easeOutQuad,,,Add,,,,,
,バハス,通常,キャラ右,,,1,Add,,,,,
Tween,バハス,MoveFrom,"x=-100 y=0 islocal=true time=1",easeOutQuad,,,,,,,,
,ハーラー,通常,,,,.2,,"まったく、こんなに身近にあったとは。
もう少し探していれば見つけられたな",,,,
,バハス,悲しみ,,,,.2,,今はそんなこと言ってる場合じゃねえだろうが。,Br,,,
Wait,,,,,,.3,,,,,,
,バハス,真剣,,,,.2,,不謹慎だぞ,,,,
CharacterOff,,,,,,,,,,,,
,ネプギア,真剣,,,,,,,,,,
,ネプギア,悲しみ,,,,.2,,あの子たち、無事でしょうか……,,,,
,ハーラー,通常,,,,.2,,まあ、それほど心配することもないと思うよ,,,,
,ハーラー,通常,,,,.2,,"ガーディアンは強力なパワーに反応する。
非力な子どもを外敵と判断する可能性は低い",,,,
,ネプギア,悲しみ,,,,.2,,そうですか……。,Br,,,
Wait,,,,,,.3,,,,,,
,ネプギア,目閉じ,,,,.2,,少し安心しました,,,,
CharacterOff,,,,,,0,,,,,,
StopBgm,,,,,,,,,,,,
Se,爆音,,,,,,,,,,,
Shake,Graphics,,,,,,,,,,,
Wait,,,,,,2,,,,,,
Bgm,緊張感,,,,,,,,,,,
,クロワール,真剣,,,,,,,,,,
Tween,クロワール,ShakePosition,"x=10 islocal=true time=.3",,,,Add,,,,,
,クロワール,固有,,,,.2,,うわっ！？　,Next,,,
Wait,,,,,,.5,,,,,,
,クロワール,真剣,,,,.2,,なんだ今のは！？,,,,
,バハス,真剣,,,,.2,,"この音と振動……。
こいつはおそらく爆弾でも使ったんだ！",,,,
CaptureImage,キャプチャーイメージ,SpriteCamera,キャプチャ画像レイヤー,,,,,,,,,
CharacterOff,,,,,,0,,,,,,
Bg,背景(黒),,,,,0,,,,,,
RuleFadeOut,キャプチャーイメージ,FadeLeftBottom,,,,.5,,,,,,
Wait,,,,,,.5,,,,,,
CaptureImage,キャプチャーイメージ,SpriteCamera,キャプチャ画像レイヤー,,,,,,,,,
Bg,背景(洞窟),,,,,0,,,,,,
RuleFadeOut,キャプチャーイメージ,FadeLeftBottom,,,,.5,,,,,,
Se,踏み込み音,,,,,,,,,,,
,下っ端,通常,,,,1,Add,,,,,
Tween,下っ端,MoveFrom,"x=100 y=0 islocal=true time=1",easeOutQuad,,,,,,,,
Tween,下っ端,MoveTo,"x=0 y=40 islocal=true time=.1",easeOutCirc,pingPong=2,,Add,,,,,
,下っ端,真剣,,,,.2,,うわああっ～！　あっちに行け！！,Br,,,
Wait,,,,,,.3,,,,,,
Tween,下っ端,ShakePosition,"x=10 islocal=true time=.3",,,,Add,,,,,
,下っ端,悲しみ,,,,.2,,追いかけて来るなッス！！,,,,
Se,踏み込み音,,,,,,,,,,,
Tween,下っ端,MoveAdd,"x=-100 y=0 time=1",easeOutQuad,,,Add,,,,,
CharacterOff,下っ端,,,,,1,,,,,,
Wait,,,,,,.5,,,,,,
CharacterOff,,,,,,,,,,,,
CaptureImage,キャプチャーイメージ,SpriteCamera,キャプチャ画像レイヤー,,,,,,,,,
CharacterOff,,,,,,0,,,,,,
Bg,背景(黒),,,,,0,,,,,,
RuleFadeOut,キャプチャーイメージ,FadeLeftBottom,,,,.5,,,,,,
Wait,,,,,,.5,,,,,,
CaptureImage,キャプチャーイメージ,SpriteCamera,キャプチャ画像レイヤー,,,,,,,,,
Bg,背景(洞窟),,,,,0,,,,,,
RuleFadeOut,キャプチャーイメージ,FadeLeftBottom,,,,.5,,,,,,
,クロワール,真剣,,,,.2,,下っ端！？　こっちに走ってくるぞ,,,,
CaptureImage,キャプチャーイメージ,SpriteCamera,キャプチャ画像レイヤー,,,,,,,,,
CharacterOff,,,,,,0,,,,,,
Bg,背景(黒),,,,,0,,,,,,
RuleFadeOut,キャプチャーイメージ,FadeLeftBottom,,,,.5,,,,,,
Wait,,,,,,.5,,,,,,
CaptureImage,キャプチャーイメージ,SpriteCamera,キャプチャ画像レイヤー,,,,,,,,,
Bg,背景(洞窟),,,,,0,,,,,,
RuleFadeOut,キャプチャーイメージ,FadeLeftBottom,,,,.5,,,,,,
,孤児院の子どもたち,通常,,,,.2,,うわああんっ、ごめんなさああい！！,,,,
CaptureImage,キャプチャーイメージ,SpriteCamera,キャプチャ画像レイヤー,,,,,,,,,
CharacterOff,,,,,,0,,,,,,
Bg,背景(黒),,,,,0,,,,,,
RuleFadeOut,キャプチャーイメージ,FadeLeftBottom,,,,.5,,,,,,
Wait,,,,,,.5,,,,,,
CaptureImage,キャプチャーイメージ,SpriteCamera,キャプチャ画像レイヤー,,,,,,,,,
Bg,背景(洞窟),,,,,0,,,,,,
RuleFadeOut,キャプチャーイメージ,FadeLeftBottom,,,,.5,,,,,,
,エフォール,真剣,キャラ右,,,,,,,,,
,果林,真剣,キャラ左,,,,,,,,,
Tween,エフォール,ShakePosition,"x=10 islocal=true time=.3",,,,Add,,,,,
,エフォール,真剣,,,,.2,,殺殺！,,,,
Tween,果林,MoveTo,"x=0 y=40 islocal=true time=.1",easeOutCirc,pingPong=2,,Add,,,,,
,果林,真剣,,,,.2,,子どもたちもいます！,,,,
CharacterOff,,,,,,,,,,,,
Se,トリリオンの雄叫び,,,,,,,,,,,
,ガーディアン,通常,,,,.2,,グオオオッ！！,,,,
,ハーラー,真剣,キャラ左,,,,,,,,,
,バハス,真剣,キャラ右,,,,,,,,,
,ハーラー,真剣,,,,.2,,いけない、ガーディアンが起動している,,,,
,バハス,真剣,,,,.2,,"追い掛けられているってことは
あの下っ端が何かしやがったな",,,,
CharacterOff,,,,,,,,,,,,
,ネプギア,真剣,,,,,,早く助けないと！　,Next,,,
Wait,,,,,,.3,,,,,,
,ネプギア,悲しみ,,,,.2,,"でも、どうすれば……。
こんな時、女神化できればいいのに……",,,,
,ハーラー,通常,,,,,,"責任感が強いのは良いことだけど
何もかも自分で背負うべきじゃない",,,,
,ネプギア,通常,,,,,,ハーラーさん……,,,,
,ハーラー,通常,,,,.2,,できないことを嘆くよりできることを探せばいい。,Br,,,
Wait,,,,,,.3,,,,,,
,ハーラー,笑い,,,,.2,,キミは、一人じゃないんだから,,,,
,ネプギア,通常,,,,,,,,,,
,ネプギア,真剣,,,,.2,,一人じゃ……ない……,,,,
StopBgm,,,,,,,,,,,,
CharacterOff,,,,,,,,,,,
Sprite,背景(黒),,フェードレイヤー,,,1,Add,,,,,
Tween,背景(黒),ColorTo,"alpha=0 time=0",,,,,,,,,
Tween,背景(黒),ColorTo,"alpha=.75 time=.5",,,,Add,,,,,
Sprite,フュージョンフォース,,スプライトレイヤー,,,.5,Add,,,,,
Wait,,,,,,3,,,,,
SpriteOff,フュージョンフォース,,,,,,,,,,
SpriteOff,背景(黒),,,,,,,,,,
,クロワール,真剣,,,,.2,,"この光……！
フュージョンフォースが反応してるぞっ",Input,,,
Selection,*101703-02,,,,0,300,,「ネプギア！　キミの想いを！」,,,,
*101703-02,,,,,,,,,,,,
Bgm,決意,,,,,,,,,,,
,ネプギア,通常,,,,.2,,わたしの想い……,,,,
,ネプギア,真剣,,,,.2,,わたしは、あの子たちを守りたい……！,Input,,,
Selection,*101703-03,,,,0,300,,「なら、受け取って！」,,,,
*101703-03,,,,,,,,,,,,
,ハーラー,通常,キャラ左,,,,,,,,,
,ネプギア,真剣,キャラ右,,,,,,,,,
Se,フュージョン音,,,,,,,,,,
FadeOut,#ac58fa,,,,,2,,,,,
,ネプギア,真剣,,,,.2,,これ、は……！,,,,
,ハーラー,真剣,,,,.2,,この光は……！？,,,,
Wait,,,,,,.5,,,,,
CharacterOff,,,,,,0,,,,,
FadeOut,black,,,,,1,,,,,,
Wait,,,,,,.3,,,,,,
EndScenario,,,,,,,,,,,
