Command,Arg1,Arg2,Arg3,Arg4,Arg5,Arg6,WaitType,Text,PageCtrl,Voice,WindowType
Bgm,ADV通常,,,,,,,,,,
FadeOut,black,,,,,0,,,,,
Bg,背景(遺跡),,,,,,,,,,
Wait,,,,,,.3,,,,,
FadeIn,black,,,,,1,,,,,
,ネプテューヌ,通常,キャラ左,,,,,,,,
,クロワール,通常,キャラ中央,,,,,,,,
,大人ネプテューヌ,通常,キャラ右,,,,,,,,
,ネプテューヌ,笑い,,,,.2,,"緊急クエスト『遺跡のモンスター討伐』完了！
いいことした後は、気分がいいね！",,,
,クロワール,通常,,,,,,"村人の話じゃ凶悪なモンスターってことだったが、
思ったより手応えがなかったな",,,
,ネプテューヌ,笑い,,,,,,わたしが手伝ったおかげだね！,,,
,クロワール,固有,,,,.2,,おまえは勝手についてきただけだろ,,,
,ネプテューヌ,,,,,,,お留守番してるうずめの代わりだよ,,,
,ネプテューヌ,真剣,,,,.2,,"それにほら、デスクワークも大切だけど、
困っている人がいたらそっちが優先でしょ！",,,
,クロワール,通常,,,,.2,,ネプテューヌにしてはまともなことを。,Br,,
Wait,,,,,,.3,,,,,
,クロワール,悲しみ,,,,.2,,とかいって、たんに外に出たかっただけだろ,Input,,
Selection,"*select 200102-1",,,,0,350,,「まあまあ」,,,
Selection,"*select 200102-2",,,,0,200,,「ねぷねぷのおかげです」,,,
"*select 200102-1",,,,,,,,,,,
,クロワール,悲しみ,,,,,,おまえ、なんかネプテューヌに甘いよな,,,
Jump,"*confluence 200102-1",,,,,,,,,,
"*select 200102-2",,,,,,,,,,,
,ネプテューヌ,笑い,,,,.2,,でしょー！,,,
Jump,"*confluence 200102-1",,,,,,,,,,
"*confluence 200102-1",,,,,,,,,,,
,ネプテューヌ(大),<Character=大人ネプテューヌ>笑い,,,,.2,,"うーん、モンスターも討伐したし、
そろそろ休憩にしよっか",,,
,ネプテューヌ,笑い,,,,.2,,うんうん、そうしようそうしよう！,,,
,クロワール,悲しみ,,,,.2,,調子いいな、まったく,,,
,ネプテューヌ(大),<Character=大人ネプテューヌ>笑い,,,,.2,,ふふーん、実はプリンを買っておいたんだぁ,,,
,ネプテューヌ(大),<Character=大人ネプテューヌ>笑い,,,,.2,,じゃじゃーん！,Input,,
Selection,"*select 200102-3",,,,0,350,,「プリンが……」,,,
Selection,"*select 200102-3",,,,0,200,,「大漁だー！」,,,
"*select 200102-3",,,,,,,,,,,
,クロワール,真剣,,,,.2,,"いや、ちょっと待て！
その量をどこに隠してたんだよ！",,,
,ネプテューヌ(大),<Character=大人ネプテューヌ>笑い,,,,,,ねぷのーと,,,
,クロワール,真剣,,,,,,"弁当箱代わりにするんじゃねぇ！
てか中身は大丈夫なのかよ！？",Input,,
Selection,"*select 200102-4",,,,0,300,,「虫とか捕まえてるやつだよね……」,,,
"*select 200102-4",,,,,,,,,,,
,ネプテューヌ(大),<Character=大人ネプテューヌ>通常,,,,.2,,だいじょーぶだよ。<size=18>……たぶん</size>,,,
,クロワール,真剣,,,,,,いま、たぶんって言っただろ！,,,
Se,踏み込み音,,,,,,,,,,
,ヒロ,真剣,キャラ左,,,1,Add,,,,
Tween,ヒロ,MoveFrom,"x=-100 y=0 islocal=true time=1",easeOutQuad,,,,,,,
,ヒロ,,,,,,,おい,,,
Tween,大人ネプテューヌ,ShakePosition,"x=10 islocal=true time=.3",,,,Add,,,,
,ネプテューヌ(大),<Character=大人ネプテューヌ>悲しみ,,,,.2,,クロちゃんの気のせいだってば～,,,
,ヒロ,真剣,,,,,,おい、おまえたち……,,,
Tween,クロワール,MoveTo,"x=0 y=40 islocal=true time=.1",easeOutCirc,pingPong=2,,Add,,,,
,クロワール,真剣,,,,,,ほんとか？　なんか目が泳いでいるぞ,,,
,ネプテューヌ(大),<Character=大人ネプテューヌ>真剣,,,,.2,,もう、そんなに言うならクロちゃんの分なしだからね？,,,
,クロワール,真剣,,,,,,うっ！　ぐっ……ず、ずるいぞ！,,,
,ヒロ,真剣,,,,,,おい、聞こえてないわけじゃないだろう！,,,
Tween,クロワール,MoveTo,"x=0 y=40 islocal=true time=.1",easeOutCirc,pingPong=2,,Add,,,,
,クロワール,固有,,,,.2,,うおっ！？　い、いつの間に！？,Input,,
Selection,"*select 200102-5",,,,0,300,,「ちょっと前からいたけどね」,,,
"*select 200102-5",,,,,,,,,,,
,クロワール,通常,,,,.2,,で、誰だアンタ？,,,
,ネプテューヌ,通常,キャラ右,,,,,もしかしてあなたも依頼を受けた冒険者？,,,
,ネプテューヌ,通常,,,,,,"残念だったね。わたしたちが一足先に、
モンスターを退治しちゃったよ",,,
,ヒロ,真剣,,,,,,特異点はどいつだ,,,
,クロワール,真剣,,,,,,なっ……！？,,,
,ネプテューヌ,悲しみ,,,,.2,,"え、とくいてん、って？
なにその主人公属性にありそうな単語",,,
,ヒロ,真剣,,,,,,"私はフォースを持つ者を探している。
おまえたちの中にいるはずだ",,,
,ネプテューヌ,真剣,,,,.2,,フォース！？,Input,,
Selection,"*select 200102-6",,,,0,350,,「でーでーででー」,,,
Selection,"*select 200102-7",,,,0,200,,「フォースを信じるのじゃ……」,,,
"*select 200102-6",,,,,,,,,,,
Bgm,コミカル,,,,,,,,,,
,ネプテューヌ,笑い,,,,.2,,でーででーでーででーん,,,
,ネプテューヌ(大),<Character=大人ネプテューヌ>笑い,キャラ左,,,,,こーほー（呼吸音）,,,
,クロワール,固有,,,,.2,,なんだそれ……,,,
Jump,"*confluence 200102-2",,,,,,,,,,
"*select 200102-7",,,,,,,,,,,
Bgm,コミカル,,,,,,,,,,
,ネプテューヌ,通常,,,,.2,,マスター・<param=player_name>！,,,
,クロワール,固有,,,,.2,,意味分からん,,,
Jump,"*confluence 200102-2",,,,,,,,,,
"*confluence 200102-2",,,,,,,,,,,
,ネプテューヌ,通常,,,,.2,,"もしかしてお姉さん、銀河を守るために戦ってる人か
何かなの？　その凄い左腕で光線剣を持ったりするの？",,,
,ネプテューヌ(大),<Character=大人ネプテューヌ>通常,キャラ左,,,.2,,"でも、残念だけどわたしたちフォースなんて
超常的な力は持ってないよ",,,
,ネプテューヌ,,,,,,,"そもそも騎士でもないもんねー。
オンラインゲームでの聖騎士は経験はあるけど",Input,,
Selection,"*select 200102-8",,,,0,300,,「ミディクロリアン値は正常です」,,,
"*select 200102-8",,,,,,,,,,,
,ヒロ,笑い,キャラ左,,,,,フ、フフフ……,,,
,クロワール,悲しみ,,,,.2,,なんか笑いだしたぞ,,,
,ネプテューヌ(大),<Character=大人ネプテューヌ>通常,キャラ中央,,,,,わたしたちのおしゃべりがそんなに面白かったのかな,,,
,ネプテューヌ,笑い,,,,.2,,笑いの才能が目覚めちゃった？,,,
,ヒロ,笑い,,,,,,笑えるよお前たち……殺すのが惜しいくらいだ,,,
,ネプテューヌ,通常,,,,,,あ、キレた,,,
Bgm,冒険者たちの軌跡,,,,,,,,,,
,ヒロ,真剣,,,,.2,,魔界粧・轟炎！,,,
CharacterOff,,,,,,,,,,,
Wait,,,,,,.5,,,,,
Particle,炎攻撃,,,,,,,,,,
Se,火炎,,,,,,,,,,
Wait,,,,,,1,,,,,
ParticleOff,,,,,,,,,,,
Selection,"*select 200102-9",,,,0,300,,「あちちち！」,,,
"*select 200102-9",,,,,,,,,,,
,大人ネプテューヌ,通常,キャラ左,,,,,,,,
,ネプテューヌ,通常,キャラ右,,,,,,,,
,クロワール,真剣,キャラ中央,,,,,いきなり攻撃してきやがった！,,,
,ネプテューヌ(大),<Character=大人ネプテューヌ>真剣,,,,.2,,"ちょ、ちょっと待って！　もしかしてお姉さん、
おこなの？　ムカ着火ファイヤー！？",,,
,ネプテューヌ,真剣,,,,.2,,今の技、ま、まさかソレは……！,,,
,クロワール,真剣,,,,.2,,知ってるのか！？　ネプテューヌ！,,,
Bgm,コミカル,,,,,,,,,,
,ネプテューヌ,笑顔,,,,.2,,"ううん、まったく！
今の一度言ってみたかっただけ！",,,
,クロワール,真剣,,,,,,はったおすぞ！,,,
,ネプテューヌ,通常,,,,.2,,"あのー、つかぬ事をお聞きしますが、
あなたはもしや冥界住人のお方ですか？",,,
,ヒロ,真剣,キャラ左,,,,,"冥界住人？　なんのことだ？
私は大魔王ジャネスの娘、ヒロだ！",,,
,ネプテューヌ,悲しみ,,,,.2,,"あっ……察し……
これは戻れなくなっている人だ……",Input,,
Selection,"*select 200102-10",,,,0,300,,「中二病……」,,,
"*select 200102-10",,,,,,,,,,,
,ネプテューヌ(大),<Character=大人ネプテューヌ>通常,キャラ左,,,,,ねえねえ、冥界住人ってなに？,,,
,クロワール,通常,,,,.2,,アイエフのことだろ？,,,
,ネプテューヌ(大),<Character=大人ネプテューヌ>悲しみ,,,,,,え、なんで冥界住人なの？,,,
,ヒロ,真剣,,,,,,"よく喋る奴らめ……まあいい。そこまで冥界冥界
言うのなら、お前の魂、冥界送りにしてやるよ！",,,
FadeOut,black,,,,,1,,,,,
Wait,,,,,,.3,,,,,
EndScenario,,,,,,,,,,,
