Command,Arg1,Arg2,Arg3,Arg4,Arg5,Arg6,WaitType,Text,PageCtrl,Voice,WindowType
FadeOut,black,,,,,0,,,,,
Bg,背景(スタジアム：通路),,,,,,,,,,
Wait,,,,,,.3,,,,,
FadeIn,black,,,,,1,,,,,
Bgm,ADV通常,,,,,,,,,,
,天王星うずめ,悲しみ,キャラ右,,,,,,,,
,大人ネプテューヌ,悲しみ,キャラ左,,,,,,,,
,クロワール,真剣,キャラ中央,,,,,,,,
,天王星うずめ,,,,,,,"最近、マッチングが減ってないか？
こっちは戦いたくてウズウズしてるってのに",,,
,大人ネプテューヌ,,,,,,,エントリーはしてるんだけどね,,,
,クロワール,,,,,,,"ぜんぶマユラってやつのせいだな。
休みなくひたすら戦い続けてやがる",,,
CharacterOff,,,,,,,,,,,
,クリス,悲しみ,キャラ中央,,,1,Add,,,,
Tween,クリス,MoveFrom,"x=-100 y=0 islocal=true time=1",easeOutQuad,,,,,,,
,クリス,,,,,,,そうなんだよ～、すまんねぇ,,,
,クロワール,真剣,,,,,,おいこら、突然会話に混ざってくんな,Input,,
Selection,*500203-1,,,,0,300,,「お菓子がなくなってる……だと……」,,,
*500203-1,,,,,,,,,,,
,大人ネプテューヌ,悲しみ,,,,,,あー、最後に食べようと思ってたのに！,,,
,クリス,通常,,,,,,もぐ……むしゃ……ごくん。,Br,,
Wait,,,,,,.3,,,,,
,クリス,照れ,,,,.2,,ごちそーさま。んで、話の続きなんだけど,,,
,クロワール,固有,,,,,,こいつ……ネプテューヌ並のマイペースか,,,
,クリス,笑い,,,,,,"この間シーシャを倒してから、休むことなく
戦い続けていて、今のところ全戦全勝で～",,,
,クリス,悲しみ,,,,.2,,"しかも一度負けた相手はマユラとのマッチングを恐れて
いるのか、エントリーを躊躇っちゃっててさぁ",,,
,クリス,,,,,,,ほーんのちょっとばかり参加者が減ってるんだよねぇ,,,
,クロワール,真剣,,,,,,"ほんのちょっとじゃねぇだろ。
だいたい、マユラを招待したのはお前じゃねぇか",,,
,クリス,笑い,,,,.2,,いやー、見つけるのに苦労したんだわ～,,,
,クリス,,,,,,,"おかげで期待通り、バンバン暴れてデザイアメダルを
獲得してくれてるんだけど……",Next,,
Wait,,,,,,.3,,,,,
,クリス,悲しみ,,,,.2,,ちょっとやり過ぎかな,,,
,クロワール,悲しみ,,,,,,"テメーにとっては、マユラの働きは期待通りだが、
困ったことも出てきてるってワケか",,,
,クリス,悲しみ,,,,,,"まー、そうなるのかねぇ……
だからチケットを渡す相手は慎重に選んでるんだけど",,,
,クリス,固有,,,,.2,,そういえば、あんたら誰にチケットもらったの？,,,
,クリス,,,,,,,"あたいのデータベースには、
あんたらにチケット渡した記録が――",,,
Bgm,疑惑,,,,,,,,,,
Se,踏み込み音,,,,,,,,,,
,マユラ,,キャラ中央,,,1,Add,,,,
Tween,マユラ,MoveFrom,"x=-100 y=0 islocal=true time=1",easeOutQuad,,,,,,,
,マユラ,,,,,,,クリス,,,
,天王星うずめ,,,,,,,おっと、噂をすればだ,,,
CharacterOff,,,,,,,,,,,
,マユラ,目閉じ,キャラ右,,,,,,,,
,クリス,通常,キャラ左,,,,,,,,
,マユラ,目閉じ,,,,,,"デザイアメダルをもっと稼ぎたい。
対戦相手に困らないところまでクラスを上げてくれ",,,
,クリス,悲しみ,,,,.2,,あら。でも残念、上げてあげたいけど無理無理んよ。,Br,,
Wait,,,,,,.3,,,,,
,クリス,笑い,,,,.2,,だってアンタが今いるクラスが、最上位なんだもの,,,
,マユラ,悲しみ,,,,.2,,"だが、ほとんどの相手が、１～２撃で倒れるか、
降参を訴える者ばかりじゃないか",,,
,クリス,悲しみ,,,,.2,,格下ばかりで手応えがなくて飽きてきたかい？,,,
,マユラ,真剣,,,,.2,,手応え、か。メダル収集にそんなものは不要だな,,,
,マユラ,目閉じ,,,,.2,,"ただし最近は戦力差がつき過ぎて、一戦交えるだけでも
対戦相手の選定だけでずいぶんと時間を要する",,,
,マユラ,真剣,,,,.2,,貴様は支配人なのであろう？　もっと参加者を募れ,,,
,クリス,目閉じ,,,,.2,,へいへーい,,,
Tween,クリス,MoveAdd,"x=-100 y=0 time=1",easeOutQuad,,,Add,,,,
CharacterOff,クリス,,,,,1,,,,,
Wait,,,,,,1,,,,,
,大人ネプテューヌ,通常,キャラ左,,,,,ねえ、キミはデザイアメダルを集めてどうするの？,,,
CharacterOff,,,,,,0,,,,,
,大人ネプテューヌ,通常,キャラ左,,,0,,,,,
,マユラ,真剣,キャラ右,,,0,,,,,
Wait,,,,,,1,,,,,
,マユラ,目閉じ,キャラ右,,,.2,,,,,
,マユラ,,,,,,,,,,
Wait,,,,,,.5,,,,,
Se,踏み込み音,,,,,,,,,,
Tween,マユラ,MoveAdd,"x=100 y=0 time=1",easeOutQuad,,,Add,,,,
CharacterOff,マユラ,,,,,1,,,,,
Wait,,,,,,1,,,,,
,クリス,通常,,,,1,Add,,,,
Tween,クリス,MoveFrom,"x=-100 y=0 islocal=true time=1",easeOutQuad,,,,,,,
,クリス,,,,,,,"メダルを集めて、願いを１つ叶える権利あるじゃん？
それ使って人間になりたいんだってよ",,,
,大人ネプテューヌ,通常,,,,.2,,人間に？,,,
Se,踏み込み音,,,,,,,,,,
,マユラ,真剣,キャラ右,,,1,Add,,,,
Tween,マユラ,MoveFrom,"x=100 y=0 islocal=true time=1",easeOutQuad,,,,,,,
,マユラ,,,,,,,おまえはプライベートという言葉を知らぬようだな,,,
Tween,クリス,MoveAdd,"x=-400 y=-200 time=.5",,,,Add,,,,
,クリス,目閉じ,,,,,,いやーん、そんな怖い顔しないでー,,,
,マユラ,真剣,,,,,,"エールドラドへ招待されたことに感謝しているが、
余計なことを口にすれば、支配人といえど容赦しない",,,
Se,踏み込み音,,,,,,,,,,
Tween,マユラ,MoveAdd,"x=100 y=0 time=1",easeOutQuad,,,Add,,,,
CharacterOff,マユラ,,,,,1,,,,,
Wait,,,,,,1,,,,,
CharacterOff,,,,,,,,,,,
,天王星うずめ,悲しみ,キャラ右,,,,,,,,
,クロワール,通常,キャラ左,,,,,,,,
,クロワール,,,,,,,人間になりたい……か,,,
,天王星うずめ,,,,,,,なんで、そこまでして人間になりたいんだろうな,,,
FadeOut,black,,,,,1,,,,,
Wait,,,,,,.3,,,,,
EndScenario,,,,,,,,,,,
