Command,Arg1,Arg2,Arg3,Arg4,Arg5,Arg6,WaitType,Text,PageCtrl,Voice,WindowType
FadeOut,black,,,,,0,,,,,
Bg,背景(アンとの異空間),,,,,,,,,,
Wait,,,,,,.3,,,,,
FadeIn,black,,,,,1,,,,,
,アン,笑い,キャラ中央,,,,,ふんふんふふ～ん♪,Input,,
HideMenuButton,,,,,,,,,,,
Selection,*case07-01-1,,,,0,300,,「ん……」,,,
*case07-01-1,,,,,,,,,,,
ShowMenuButton,,,,,,,,,,,
,アン,笑い,キャラ中央,,,,,おーし、あとは尻尾切ったら捕縛してと……,Input,,
HideMenuButton,,,,,,,,,,,
Selection,*case07-01-2,,,,0,300,,「ここは……？」,,,
*case07-01-2,,,,,,,,,,,
ShowMenuButton,,,,,,,,,,,
Bgm,コミカル,,,,,.5,,,,,
,アン,悲しみ,キャラ中央,,,.2,,"ちょっ、毒ヤバイ！　毒！
ああーっ！　しぬしぬ！　あ、あああああーっ！？",,,
,アン,目閉じ,キャラ中央,,,.2,,ダメージでかいのにおまけに毒とかないって……ん？,Br,,
Wait,,,,,,.3,,,,,
,アン,通常,キャラ中央,,,.2,,よっ、久しぶりだな,Input,,
HideMenuButton,,,,,,,,,,,
Selection,*case07-01-3,,,,0,300,,「こんにちは」,,,
*case07-01-3,,,,,,,,,,,
ShowMenuButton,,,,,,,,,,,
,アン,笑い,キャラ中央,,,.2,,"なんだかんだ頑張ってるみたいじゃ～ん。
あ、適当に座って座って",,,
,アン,笑い,キャラ中央,,,,,"うんうん、無事に偽ブランも倒したみたいだし、
イクスの持つカオス・アニマも一つ潰したか",,,
,アン,通常,キャラ中央,,,.2,,それで、次はリーンボックスに向かうんだっけ？,Br,,
Wait,,,,,,.3,,,,,
,アン,悲しみ,キャラ中央,,,.2,,……って、んだよその目は,Input,,
HideMenuButton,,,,,,,,,,,
Selection,*case07-01-4,,,,0,300,,「なんか前と性格違くないですか？」,,,
*case07-01-4,,,,,,,,,,,
ShowMenuButton,,,,,,,,,,,
,アン,固有,キャラ中央,,,.2,,"あぁ、アレ？　あれはほら、キャラ作りっつーか、
いわゆるサービスってやつ？",,,
,アン,通常,キャラ中央,,,.2,,"あんたが、あたしを神様として崇め奉りやすいように、
神様風に振る舞ってやったわけよ",,,
,アン,笑い,キャラ中央,,,.2,,あ、無理。思い出したら笑けてきた……ぶふふっ,,,
,アン,固有,キャラ中央,,,.2,,"まぁ、なんだ。お互い初対面だったわけだし、
上下関係はしっかり認識させておくべきだろ？",,,
,アン,笑い,キャラ中央,,,.2,,"ふふん、まぁ、このスーパー神様アンちゃんの助言を
しっかり聞いておけば、おまえの記憶も――",Input,,
HideMenuButton,,,,,,,,,,,
Selection,*case07-01-5,,,,0,350,,「なでなで」,,,
Selection,*case07-01-6,,,,0,200,,「いいこいいこ」,,,
*case07-01-5,,,,,,,,,,,
ShowMenuButton,,,,,,,,,,,
Jump,*合流07-01-1,,,,,,,,,,
*case07-01-6,,,,,,,,,,,
ShowMenuButton,,,,,,,,,,,
Jump,*合流07-01-1,,,,,,,,,,
*合流07-01-1,,,,,,,,,,,
,アン,真剣,キャラ中央,,,.2,,って、おい。この手はなんだ？,Input,,
HideMenuButton,,,,,,,,,,,
Selection,*case07-01-7,,,,0,350,,「可愛かったので」,,,
Selection,*case07-01-8,,,,0,200,,「ちょうどいいところに頭があったので」,,,
*case07-01-7,,,,,,,,,,,
ShowMenuButton,,,,,,,,,,,
Jump,*合流07-01-2,,,,,,,,,,
*case07-01-8,,,,,,,,,,,
ShowMenuButton,,,,,,,,,,,
Jump,*合流07-01-2,,,,,,,,,,
*合流07-01-2,,,,,,,,,,,
,アン,真剣,キャラ中央,,,,,次やったら、手、噛み千切るぞ,,,
,アン,通常,キャラ中央,,,.2,,"……こほん。今回は大目に見てやる。時間も惜しいし、
あんたが次にこっちに来られるかも分からんからな",,,
,アン,笑い,キャラ中央,,,.2,,というわけで、なにか聞きたいことある？,Input,,
HideMenuButton,,,,,,,,,,,
Selection,*case07-01-9,,,,0,350,,「なんでブランたちは女神化できない？」,,,
Selection,*case07-01-10,,,,0,200,,「ルウィーで戦った敵は何者？」,,,
*case07-01-9,,,,,,,,,,,
ShowMenuButton,,,,,,,,,,,
,アン,固有,キャラ中央,,,.2,,ぶっははははははっ！　教えるわけないだろ！,,,
,,<Character=>,,,,,,むかっ,,,
Tween,アン,ShakePosition,"x=5 islocal=true time=.3",,,,Add,,,,
,,<Character=>,,,,,,わしゃわしゃわしゃわしゃ！,,,
,アン,悲しみ,キャラ中央,,,.2,,"あっ、やめて。髪わしゃわしゃしないで！？
これ以上癖っ毛ヤバくなるから！　すんませんマジで！",,,
Jump,*合流07-01-3,,,,,,,,,,
*case07-01-10,,,,,,,,,,,
ShowMenuButton,,,,,,,,,,,
,アン,真剣,キャラ中央,,,.2,,"あん？　なんだよ、ネプテューヌとクロワールのやつ、
まだなにも教えてないのかよ",,,
Jump,*合流07-01-3,,,,,,,,,,
*合流07-01-3,,,,,,,,,,,
StopBgm,,,,,,.5,,,,,
Bgm,決意,,,,,.5,,,,,
,アン,通常,キャラ中央,,,.2,,……こほん。それでは、あなたにお話しましょう,,,
,アン,真剣,キャラ中央,,,.2,,"あなたは、あなたが思っている以上に、
特別な力を持っています",,,
,アン,真剣,キャラ中央,,,,,その力とは……力とは……,Br,,
Wait,,,,,,.3,,,,,
,アン,悲しみ,キャラ中央,,,.2,,あー、えーと……,,,
,アン,目閉じ,キャラ中央,,,.2,,"まあそれは、おまえが特異点ってやつだからで、
ルウィーで会ったリーリアやイクスの狙いもそれだ",,,
,アン,通常,キャラ中央,,,.2,,"ブランたちが女神化できない理由にも、
ちょっとだけ関係があるかな？",,,
,アン,通常,キャラ中央,,,,,"ま、そっちはマジェコンヌってやつを追ってれば、
いずれ分かるだろうよ",,,
,アン,固有,キャラ中央,,,.2,,こんなとこかな。他に聞きたいことは？,Input,,
HideMenuButton,,,,,,,,,,,
Selection,*case07-01-11,,,,0,300,,「神様っぽいの最初だけでしたね」,,,
*case07-01-11,,,,,,,,,,,
ShowMenuButton,,,,,,,,,,,
,アン,真剣,キャラ中央,,,.2,,うっさいな。疲れるんだよ,,,
ImageEffect,SpriteCamera,Blur,,Arg5,Arg6,1,,,,,
,アン,真剣,キャラ中央,,,,,っと、んなこと言ってたら時間切れみたいだ,,,
,アン,笑い,キャラ中央,,,.2,,頑張って生き続けろよ。特異点,,,
FadeOut,black,,,,,1,,,,,
Wait,,,,,,.3,,,,,
EndScenario,,,,,,,,,,,
