[
    {
        "7": {
            "天王星うずめ": ""
        },
        "10": {
            "天王星うずめ": "ねぷっち、待ってくれー！"
        },
        "12": {
            "天王星うずめ": "ねぷっち！"
        },
        "13": {
            "「置いてかないで〜」": {
                "16": {
                    "大人ネプテューヌ": ""
                },
                "19": {
                    "大人ネプテューヌ": "ゴーーール！　ネプテューヌ選手、\n目的地のルウィーに一番乗りです！"
                },
                "20": {
                    "大人ネプテューヌ": "街の様子をご覧ください！　"
                },
                "22": {
                    "大人ネプテューヌ": "彼女の勝利を祝って、\n人々は飲めや歌えやの大騒ぎでありますっ"
                },
                "23": {
                    "ブランハロウィン": "いや、違うから"
                },
                "25": {
                    "ブランハロウィン": "国をあげてのハロウィンイベントをやってるからよ"
                },
                "26": {
                    "大人ネプテューヌ": "ハロウィンイベント？"
                },
                "28": {
                    "ロム": ""
                },
                "29": {
                    "ラム": ""
                },
                "30": {
                    "ラム": "みんなで仮装して、街を歩くのよ。"
                },
                "32": {
                    "ラム": "街もぜーんぶ飾り付けしたんだから"
                },
                "33": {
                    "ラム": "どう？ "
                },
                "36": {
                    "ラム": "すごいでしょ！"
                },
                "37": {
                    "ロム": "絵本の中に入ったみたいで楽しい"
                },
                "39": {
                    "クロワール": "お前のとこにしちゃ、ずいぶん浮かれたイベントだな"
                },
                "40": {
                    "ブランハロウィン": "例の偽物事件で、動揺した国民も少なくないわ。"
                },
                "42": {
                    "ブランハロウィン": "だから、少しでも気晴らしになればと思ったの"
                },
                "44": {
                    "天王星うずめ": ""
                },
                "45": {
                    "クロワール": ""
                },
                "46": {
                    "天王星うずめ": "なるほどねぇ。\n結構ちゃんと考えてるんだな"
                },
                "47": {
                    "クロワール": "俺はてっきり、例の恥ずかしい事件を\nさっさと忘れさせようって腹かと思ってたが"
                }
            }
        },
        "48": {
            "「それは禁句！」": {
                "52": {
                    "ブランハロウィン": "あぁ？　"
                },
                "58": {
                    "クロワール": ""
                },
                "61": {
                    "ブランハロウィン": ""
                },
                "63": {
                    "ブランハロウィン": "恥ずかしい事件ってなんのことだ？"
                },
                "65": {
                    "クロワール": "……いえ、何でもないです"
                },
                "68": {
                    "ブランハロウィン": ""
                },
                "69": {
                    "ブランハロウィン": "それじゃ、全員揃ったようだし、\nイベントの視察に行くわよ。ついてきなさい"
                },
                "74": {
                    "クロワール": ""
                },
                "75": {
                    "天王星うずめ": ""
                },
                "77": {
                    "クロワール": "はー、びびった。"
                },
                "79": {
                    "クロワール": "美味しい菓子にありつく前に、\n国から追い出されるところだったぜ"
                },
                "80": {
                    "天王星うずめ": "せっかくのイベントだもんな。"
                },
                "82": {
                    "天王星うずめ": "素通りしちまうのは勿体ないぜ"
                },
                "84": {
                    "大人ネプテューヌ": "うんうん、"
                },
                "87": {
                    "大人ネプテューヌ": "今日はとことん楽しもう！"
                },
                "98": {
                    "天王星うずめ": ""
                },
                "99": {
                    "大人ネプテューヌハロウィン": ""
                },
                "100": {
                    "天王星うずめ": "トリックオアトリート！"
                },
                "101": {
                    "大人ネプテューヌハロウィン": "おかしくれなきゃ悪戯するぞー！"
                },
                "103": {
                    "ロム": ""
                },
                "104": {
                    "ラム": ""
                },
                "106": {
                    "ロム": "わぁー、こんなにたくさん！？"
                },
                "108": {
                    "ロム": "あ、あの、いっこでだいじょうぶ……"
                },
                "109": {
                    "ラム": "ロムちゃん、ぜんぶもらっちゃおうよ。"
                },
                "111": {
                    "ラム": "きょうはとくべつな日。ハロウィンでしょ！"
                },
                "112": {
                    "ロム": "じゃ、じゃあ、ラムちゃんと半分こする。"
                },
                "115": {
                    "ロム": "お姉さん、ありがとうございます！"
                },
                "124": {
                    "ブランハロウィン": ""
                },
                "125": {
                    "クロワール": ""
                },
                "127": {
                    "ブランハロウィン": "ふふ……。みんな楽しそうね"
                },
                "128": {
                    "クロワール": "いい笑顔してるよな。"
                },
                "131": {
                    "クロワール": "もぐもぐ……！"
                },
                "133": {
                    "クロワール": "うーん、このカボチャパイうまっ！"
                },
                "134": {
                    "クロワール": "おーい、そこのウェイトレスさーん！\n追加の注文いいかー？"
                },
                "137": {
                    "ユリーナ": ""
                },
                "139": {
                    "ユリーナ": "はーい！　"
                },
                "141": {
                    "ユリーナ": "テラス席のお客様、ご注文をどうぞーっ。"
                },
                "143": {
                    "ユリーナ": "……って、"
                },
                "147": {
                    "ユリーナ": "<param=player_name>さんたちだ！！"
                },
                "149": {
                    "クロワール": ""
                },
                "151": {
                    "クロワール": "ユリーナ！"
                }
            }
        },
        "152": {
            "「こんなところで何してるの？」": {
                "155": {
                    "クロワール": ""
                },
                "156": {
                    "ユリーナ": ""
                },
                "157": {
                    "ユリーナ": "見ての通り、ウェイトレスのバイトよ。"
                },
                "159": {
                    "ユリーナ": "ヨーコとリリィも同じ店で路銀を稼いでるんだ"
                },
                "160": {
                    "ユリーナ": "そっちは？\nまたなんか厄介なことに首突っ込んでんの？"
                },
                "162": {
                    "クロワール": "ひとをトラブルメーカーみたいに言うな"
                },
                "164": {
                    "大人ネプテューヌハロウィン": "今日はイベントを楽しんでるだけだよ！"
                },
                "166": {
                    "クロワール": ""
                },
                "167": {
                    "ユリーナ": ""
                },
                "168": {
                    "ユリーナ": "だからその格好なわけね"
                },
                "170": {
                    "ユリーナ": "あー羨ましい。わたしも遊びたい！　"
                },
                "173": {
                    "ユリーナ": "お金ほしい！"
                },
                "174": {
                    "クロワール": "バイト中に生々しいこと叫ぶなよ……"
                },
                "175": {
                    "ユリーナ": "だって本当のこと──"
                },
                "179": {
                    "ルウィーのおじさん": "うわあぁっ！？　みんな、来てくれ～～！！"
                },
                "181": {
                    "クロワール": ""
                },
                "182": {
                    "ユリーナ": ""
                },
                "184": {
                    "クロワール": "ど、どうした？"
                },
                "185": {
                    "ユリーナ": "今の叫び声は、私じゃないわよ？"
                },
                "186": {
                    "クロワール": "分かってるって！"
                },
                "188": {
                    "ブランハロウィン": "近くで騒ぎが起きているみたいね。\n行ってみましょう"
                }
            }
        }
    }
]