[
    {
        "6": {
            "リーリア": ""
        },
        "8": {
            "リーリア": "おー、やってるやってる。\nやっぱし、数的有利は覆せないよねー"
        },
        "9": {
            "リーリア": "はー、でもやーっと見つけた。\nここまで遠回りしちゃったよ"
        },
        "10": {
            "リーリア": "けど、この次元に来てるとはね。\nよく見ると、服装も変わってるし……"
        },
        "11": {
            "ホッペル": ""
        },
        "13": {
            "ホッペル": "リーリア先輩！\n対象を発見したというのは本当ですか！"
        },
        "14": {
            "リーリア": "ホッペル……うん、でも今はまだ様子見――"
        },
        "15": {
            "ホッペル": "おぉ！　あれが敵ですね！\n発射ヨーイ！　カネヒラくん、一発ぶちかますよー！"
        },
        "16": {
            "リーリア": "ちょい待てーーー！！"
        },
        "17": {
            "ホッペル": "ほぇ？　なんですか？"
        },
        "18": {
            "リーリア": "ぎょわ！　おばか！　こっちに杖向けるな！"
        },
        "19": {
            "ホッペル": "え？"
        },
        "24": {
            "ホッペル": ""
        },
        "25": {
            "リーリア": "にゃぎゃあああああーーーー！！"
        },
        "26": {
            "ホッペル": "ひやああああっーーーー！？"
        },
        "35": {
            "イクス": ""
        },
        "37": {
            "イクス": "……なにやってんだ、あいつら"
        },
        "38": {
            "イクス": "にしても、ネプテューヌのやつ……"
        },
        "39": {
            "イクス": "特異点をこの次元に送るとは……\nなにが目的だ……？"
        }
    }
]