[
    {
        "6": {
            "クロワール": ""
        },
        "7": {
            "大人ネプテューヌ": ""
        },
        "8": {
            "大人ネプテューヌ": "ねぇ、クロちゃん。\nルウィーってどんな国？"
        },
        "9": {
            "クロワール": "ルウィーは大陸の北方にある魔法国家だ\nすげー寒くて国全体が白い雪に覆われてる"
        },
        "10": {
            "大人ネプテューヌ": "寒いのかー、この恰好で大丈夫かなぁ？"
        },
        "11": {
            "クロワール": "首都周辺は守護女神のホワイトハートの加護で\nわりと温かいらしいから、大丈夫だろ"
        },
        "12": {
            "大人ネプテューヌ": "すごーい！　女神ってそんなことまで出来ちゃうんだ！"
        },
        "13": {
            "クロワール": "それよりブランに渡すリミテッドクリスタルは、\nちゃんと持ってるか？　吹雪に飛ばされんなよ"
        },
        "14": {
            "大人ネプテューヌ": "リミテッドクリスタルなら、\n<param=player_name>に預けてるよ～"
        },
        "15": {
            "クロワール": "<param=player_name>に？\n……ま、その方が安全か"
        },
        "17": {
            "「任せて」": {
                "20": {
                    "クロワール": "お前の標本に入れちまってリミテッドクリスタルの力を\n根こそぎ奪われたら、シャレにならねぇからな"
                },
                "21": {
                    "大人ネプテューヌ": "ねぷのーとのこと？\nもうそんなミスするわけないでしょう？"
                },
                "22": {
                    "クロワール": "ハァ……やりそうだから、念のために聞いたんだよ"
                },
                "23": {
                    "クロワール": "今でもあの標本に閉じ込められたときのことを\n思い出すと寒気がするぜ"
                },
                "24": {
                    "クロワール": "閉じ込められるだけでもひでぇのに、\n延々と何かを吸い取られ続けちまう代物だからな"
                },
                "25": {
                    "大人ネプテューヌ": "なんでも取り込める不思議な本だから、\n珍しい昆虫を保管するのに便利なんだよね！"
                },
                "26": {
                    "クロワール": "<param=player_name>も、気をつけろよ？"
                },
                "27": {
                    "大人ネプテューヌ": "クロちゃんならともかく、\n<param=player_name>にそんなことしないよー"
                },
                "28": {
                    "クロワール": "俺はともかくって！"
                },
                "38": {
                    "エフォール": ""
                },
                "39": {
                    "？？？": "ターゲット、発見"
                },
                "40": {
                    "？？？": "殺……"
                }
            }
        }
    }
]