[
    {
        "6": {
            "エフォール": ""
        },
        "8": {
            "果林": ""
        },
        "10": {
            "？？？": "そちらの御一行さま、\nちょっと止まってもらえますか？"
        },
        "11": {
            "クロワール": "誰だ？　おまえ"
        },
        "12": {
            "？？？": "こんにちは。こちらはエフォール。"
        },
        "13": {
            "エフォール": "殺……"
        },
        "14": {
            "果林": "そして私は妖聖の果林と申します"
        },
        "15": {
            "果林": "あ、妖聖というのはですね、妖聖武器（フューリー）に\n宿る種族のことです"
        },
        "16": {
            "果林": "妖聖武器を扱える人間をフェンサーといいます。\nつまり、私たちはお互いパートナーということですね"
        },
        "18": {
            "「丁寧なご説明ありがとうございます」": {
                "21": {
                    "果林": "いえいえ、自己紹介は大事ですから"
                },
                "22": {
                    "クロワール": "で、その妖聖とパートナーがなんの用だ？"
                },
                "23": {
                    "エフォール": "殺、殺殺殺、殺殺"
                },
                "24": {
                    "クロワール": "……あ？　なんて？"
                },
                "25": {
                    "エフォール": "殺、殺殺殺、殺殺"
                },
                "26": {
                    "クロワール": "あからさまにヤベー奴だな\n関わらないで通り過ぎた方がいいんじゃないか？"
                }
            }
        },
        "28": {
            "「では、さようなら」": {
                "31": {
                    "果林": "すみません、エフォールの通訳しますね～"
                },
                "32": {
                    "果林": "よぉ、テメーらが依頼人の言ってた奴らだな"
                },
                "33": {
                    "果林": "私の目的は左手に刻印のあるソイツだ。\n素直に引き渡すか、この場でお陀仏になるか選びな"
                },
                "34": {
                    "果林": "……と、エフォールは申しております"
                },
                "35": {
                    "クロワール": "なっ、<param=player_name>を知ってるだと！？\nバカな、そんなはずは……！"
                },
                "36": {
                    "大人ネプテューヌ": "驚いたよ。あのサツって単語に、\nあれほどの意味が込められていたなんて！"
                },
                "37": {
                    "クロワール": "そういうことじゃねーだろ！"
                },
                "39": {
                    "大人ネプテューヌ": "とりあえず、写真でも撮りたいのかな？\n撮撮って言ってるからね"
                },
                "40": {
                    "エフォール": "殺殺。殺殺殺殺、殺殺！"
                },
                "41": {
                    "果林": "違う、撮じゃない。必殺の殺だ！\nと、申しております"
                },
                "42": {
                    "クロワール": "<param=player_name>を知ってるのもヤベーが、\nあんな痛々しい喋り方をする奴も絶対ヤベー"
                },
                "43": {
                    "クロワール": "これから何があるかも分からねぇし、\nおい、とっとと逃げようぜ"
                },
                "44": {
                    "大人ネプテューヌ": "やめてあげなよクロちゃん。\nきっとなにか深い事情があるんだよ"
                },
                "45": {
                    "大人ネプテューヌ": "そうじゃないと、こんな恥ずかしい喋り方しないよ"
                },
                "46": {
                    "エフォール": ""
                },
                "49": {
                    "エフォール": "っ！！"
                },
                "50": {
                    "スカーレット": ""
                },
                "52": {
                    "スカーレット": "ちょ、ちょちょちょっと！"
                },
                "53": {
                    "スカーレット": "あんたたち、そうじゃないでしょ。\n作戦通りにやってくれないと困るじゃない"
                },
                "54": {
                    "果林": "すみません、エフォールの強い気持ちを通訳しないと\nいけない雰囲気でしたので、ついー"
                },
                "55": {
                    "エフォール": "……殺っ！"
                },
                "58": {
                    "果林": "あっ、待ってください！"
                },
                "61": {
                    "スカーレット": "ちょっと！　なんなのよもうー！"
                },
                "65": {
                    "大人ネプテューヌ": "あれー、三人とも行っちゃったねー"
                },
                "66": {
                    "クロワール": "……何しに来たんだよ、あいつら"
                }
            }
        }
    }
]