[
    {
        "6": {
            "アン": ""
        },
        "8": {
            "アン": "あら……お客人とは珍しいことですね"
        },
        "10": {
            "アン": "お初にお目にかかります。私はアンノウン。\nアン、と呼んでくださってかまいません"
        },
        "11": {
            "アン": "ええ、あなたが不安を感じるのは当然です。\nここは現実とは異なる空間ですから"
        },
        "12": {
            "アン": "どうして、自分の考えていることが分かるのか？"
        },
        "13": {
            "アン": "それはあなたの意識だけが、この場所にいるから。\n現実のあなたは深い眠りの中にあります"
        },
        "14": {
            "アン": "その左手にある契約の証――。\nそれが、あなたをここへ導きました"
        },
        "15": {
            "アン": "そしてあなたは因果を断ち切る運命にある。\nいずれ、時が来れば私の力も必要になるでしょう"
        },
        "16": {
            "アン": "そう……そういう“運命”なのです……"
        },
        "17": {
            "アン": "貴方の失った記憶にある真実。\nその先にある因果の戦いからは逃れられない"
        },
        "18": {
            "アン": "私にできることは、これから苦難に立ち向かう\n貴方への助言と……"
        }
    }
]