[
    {
        "6": {
            "ベール": "さあ！　クエストですわよ！"
        },
        "7": {
            "ネプテューヌ聖騎士剣装備": ""
        },
        "9": {
            "ネプテューヌ": "おおー！"
        },
        "10": {
            "「おおー」": {
                "13": {
                    "ナツメ": ""
                },
                "14": {
                    "ブラン司祭": ""
                },
                "15": {
                    "ブラン": "なにが、クエストよ。\nこっちは執筆活動中だったのに"
                },
                "16": {
                    "ナツメ": "わたしだって、チンさんたちのお世話があるのにー"
                },
                "18": {
                    "ベール": "つべこべ言わないでくださいませ"
                },
                "19": {
                    "ベール": "確かにあれこれしていただけるのも結構ですが\nオンラインの醍醐味はパーティプレイですわ！"
                },
                "20": {
                    "ベール": "みなでクエストをこなしてはじめて\nテストプレイになるというもの"
                },
                "21": {
                    "アイリス": "が、がんばります！"
                },
                "22": {
                    "ブラン司祭": ""
                },
                "23": {
                    "ネプテューヌ聖騎士": ""
                },
                "24": {
                    "ナツメ": ""
                },
                "25": {
                    "ブラン": "意気込むのはいいけど、あなた『村長』でしょ"
                },
                "26": {
                    "ネプテューヌ": "『村長』はふつう、クエストに出たりしないよねー"
                },
                "27": {
                    "ナツメ": "そんなこと言ったらわたしだって『牧場主』だよ。\n戦闘なんてぜんぜんできないんだから"
                }
            }
        },
        "28": {
            "「自分も『運送業』なんですが……」": {
                "31": {
                    "ベール": "大丈夫です。\n一人一人の力は弱くても皆で力を合わせれば！"
                },
                "32": {
                    "ブラン": "だからって、前衛がネプテューヌ一人なのは\n致命的でしょ"
                },
                "34": {
                    "ベール": ""
                },
                "35": {
                    "ネプテューヌ聖騎士剣装備": ""
                },
                "36": {
                    "ベール": "そんなことありませんわ。ちゃんとバランスを考えて\n四女神オンラインからコンバートした……"
                },
                "38": {
                    "ベール": "はず……"
                },
                "39": {
                    "ベール": "そういえば、何か忘れているような……"
                },
                "40": {
                    "ネプテューヌ": "だいじょーぶだって！"
                },
                "41": {
                    "ネプテューヌ": "パーティの前衛は聖騎士のわたしに任せてよ！\n予備の剣だっていっぱい持って来てあるから！"
                },
                "42": {
                    "ベール": "そうですわね。武器はダメでも聖騎士は\nトップクラスの戦闘職ですわ"
                },
                "43": {
                    "ベール": "きっと、なんとかなりますわ"
                }
            }
        },
        "44": {
            "「嫌な予感……」": {
                "50": {
                    "スライヌA": ""
                },
                "51": {
                    "スライヌB": ""
                },
                "52": {
                    "スライヌC": ""
                },
                "58": {
                    "": "『スライヌが　出現した！』"
                }
            }
        },
        "45": {
            "「盛大なフラグが立ってしまった……」": {
                "50": {
                    "スライヌA": ""
                },
                "51": {
                    "スライヌB": ""
                },
                "52": {
                    "スライヌC": ""
                },
                "58": {
                    "": "『スライヌが　出現した！』"
                }
            }
        },
        "59": {
            "「さっそく出たー！」": {
                "63": {
                    "ベール": "安心してくださいませ！\nこれはスライヌ！　雑魚中の雑魚モンスターですわ！"
                }
            }
        },
        "60": {
            "「いま、テロップが……」": {
                "67": {
                    "ベール": "古き良きＲＰＧ演出もこのゲームの\n売りの一つですわ"
                }
            }
        },
        "180": {
            "「了解！」": {
                "192": {
                    "ベール": ""
                },
                "194": {
                    "ベール": "はぁっ……はぁっ……\nたった三匹のスライヌにここまで苦戦するなんて……"
                },
                "195": {
                    "アイリス": "うう……ベトベトします……"
                },
                "197": {
                    "ブラン司祭": ""
                },
                "198": {
                    "ナツメ": ""
                },
                "199": {
                    "ブラン": "わたしもかなりＭＰを消費してしまったわ"
                },
                "200": {
                    "ナツメ": "チンさんも満足して穴のなかに引っ込んじゃった"
                },
                "202": {
                    "ネプテューヌ聖騎士剣装備": ""
                },
                "203": {
                    "ベール": ""
                },
                "204": {
                    "ネプテューヌ": "やっぱり、前衛一人だときついんじゃない？"
                },
                "205": {
                    "ベール": "だ、大丈夫、ボスのいる洞窟はすぐそこ。\nきっとなんとかなりますわ"
                }
            }
        },
        "206": {
            "「あ……また……」": {
                "211": {
                    "スライヌA": ""
                },
                "212": {
                    "スライヌB": ""
                },
                "213": {
                    "スライヌC": ""
                },
                "219": {
                    "": "『スライヌが　出現した！』"
                },
                "221": {
                    "ネプテューヌ聖騎士剣装備": ""
                },
                "222": {
                    "ナツメ": ""
                },
                "223": {
                    "ブラン司祭": ""
                },
                "225": {
                    "ネプテューヌ": "でたー！"
                },
                "227": {
                    "ナツメ": "どどど、どうするのー！？"
                },
                "229": {
                    "ブラン": "逃げるわよ"
                },
                "233": {
                    "スライヌA": ""
                },
                "235": {
                    "スライヌB": ""
                },
                "237": {
                    "スライヌC": ""
                },
                "239": {
                    "": "『だが　まわりこまれてしまった！』"
                },
                "241": {
                    "ブラン": "まだコマンドも選んでねーぞ！？"
                },
                "242": {
                    "ベール": "もう戦うしかありませんわ！"
                },
                "243": {
                    "ネプテューヌ": "もうやけくそだー！"
                },
                "262": {
                    "ベール": ""
                },
                "264": {
                    "ベール": "はぁ……はぁ……\nな、なぜこんなに苦戦を……"
                },
                "265": {
                    "ベール": "ですが、なんとかボスのいる洞窟まで辿り着きましたわ"
                },
                "267": {
                    "ブラン司祭": ""
                },
                "268": {
                    "ナツメ": ""
                },
                "269": {
                    "ネプテューヌ聖騎士": ""
                },
                "270": {
                    "ブラン": "勝てるの？　こんなパーティで"
                },
                "271": {
                    "ネプテューヌ": "まあまあ、やるだけやってみよーよ"
                },
                "272": {
                    "ナツメ": "そうだね。せっかくここまで来たんだもん\nどうせならクリアしたいよね！"
                },
                "274": {
                    "アイリス": ""
                },
                "276": {
                    "アイリス": "ふふっ……大変でしたけど\nなんとかパーティらしくなってきましたね"
                },
                "277": {
                    "ベール": "そうですわね……"
                },
                "278": {
                    "ベール": "さあ、みなさん！　ボスは目の前ですわ！"
                },
                "280": {
                    "全員": "おー！"
                },
                "282": {
                    "ノワール黒騎士": ""
                },
                "284": {
                    "ノワール黒騎士": "待っていたわよ……"
                },
                "285": {
                    "ネプテューヌ聖騎士": ""
                },
                "287": {
                    "ネプテューヌ聖騎士": "って、ノワール！？"
                }
            }
        }
    }
]