[
    {
        "6": {
            "アン": ""
        },
        "8": {
            "アン": "あ〜〜〜……"
        },
        "9": {
            "アン": "めっっっちゃ暇"
        },
        "10": {
            "アン": "暇すぎるからイタズラとかしようかな"
        },
        "11": {
            "アン": "下っ端が割り箸わろうとすると必ず途中で折れる\nようにしてみるとか"
        },
        "12": {
            "アン": "ネプテューヌがアイス持ってると必ずクシャミが出て\nアイス落っことすとか"
        },
        "13": {
            "「やめたげてよぉ！」": {
                "19": {
                    "アン": "ぬお！？　な、なんだおまえいたなら言えよ！"
                }
            }
        },
        "20": {
            "「ひさしぶりー」": {
                "25": {
                    "アン": "軽いなー。ここはそんなコンビニ感覚で来ていい\n場所じゃねーんだぞ"
                },
                "26": {
                    "アン": "ま、こっちも暇してたからいいけど\nんで？　最近どうよ"
                }
            }
        },
        "21": {
            "「来ちゃった」": {
                "25": {
                    "アン": "軽いなー。ここはそんなコンビニ感覚で来ていい\n場所じゃねーんだぞ"
                },
                "26": {
                    "アン": "ま、こっちも暇してたからいいけど\nんで？　最近どうよ"
                }
            }
        },
        "27": {
            "「ボチボチです」": {
                "30": {
                    "アン": "もっと景気のよいこと言えよー。年末だぞー"
                }
            }
        },
        "28": {
            "「もっとジェムください」": {
                "33": {
                    "アン": "この欲張りさんめ！　"
                }
            }
        },
        "42": {
            "「そうかもしれない」": {
                "45": {
                    "アン": "だろ？　アタシに感謝しろよなー"
                }
            }
        },
        "43": {
            "「そうでもないかもしれない」": {
                "48": {
                    "アン": "ま、何をどう感じるかは人それぞれか"
                }
            }
        },
        "59": {
            "「（意識が飛びそう……）」": []
        },
        "61": {
            "「良いお年を」": {
                "68": {
                    "アン": ""
                },
                "70": {
                    "アン": "ほれ見ろこれ、最新のゲーム機！　協力プレイが……！"
                },
                "72": {
                    "アン": "って、居ねええぇええええぇッ！？"
                },
                "90": {
                    "天王星うずめ": ""
                },
                "91": {
                    "ベール": ""
                },
                "92": {
                    "天王星うずめ": "誰か部屋を出るついでに、アイス買ってきてくれ。\nこたつから出られない～"
                },
                "95": {
                    "天王星うずめ": "……ぐう"
                },
                "96": {
                    "ベール": "むにゃ……では、わたくしはみかんを……"
                },
                "98": {
                    "アイエフ": "まったく、だらしないわね。\n私も人のこと言えないけど……"
                },
                "99": {
                    "クロワール": ""
                },
                "101": {
                    "クロワール": "……おっと、うたた寝しちまってたか"
                },
                "102": {
                    "クロワール": "ん？　どうした<param=player_name>"
                }
            }
        },
        "62": {
            "「ごめんねアンちゃん……」": {
                "68": {
                    "アン": ""
                },
                "70": {
                    "アン": "ほれ見ろこれ、最新のゲーム機！　協力プレイが……！"
                },
                "72": {
                    "アン": "って、居ねええぇええええぇッ！？"
                },
                "90": {
                    "天王星うずめ": ""
                },
                "91": {
                    "ベール": ""
                },
                "92": {
                    "天王星うずめ": "誰か部屋を出るついでに、アイス買ってきてくれ。\nこたつから出られない～"
                },
                "95": {
                    "天王星うずめ": "……ぐう"
                },
                "96": {
                    "ベール": "むにゃ……では、わたくしはみかんを……"
                },
                "98": {
                    "アイエフ": "まったく、だらしないわね。\n私も人のこと言えないけど……"
                },
                "99": {
                    "クロワール": ""
                },
                "101": {
                    "クロワール": "……おっと、うたた寝しちまってたか"
                },
                "102": {
                    "クロワール": "ん？　どうした<param=player_name>"
                }
            }
        },
        "103": {
            "「ねぷねぷがいない」": {
                "105": {
                    "クロワール": "ん……ほんとだ。"
                },
                "107": {
                    "クロワール": "まーたふらっと出掛けたのか\nなんだ？　探しに行くのか？"
                },
                "108": {
                    "クロワール": "だったら、なんか飲み物買ってきてくれ"
                },
                "109": {
                    "箱崎チカ": "ついでにみかんとアイス、飲み物をお願いね。\nアタクシは眠気が"
                },
                "112": {
                    "箱崎チカ": "……すぅ、すぅ……"
                },
                "123": {
                    "大人ネプテューヌ": "……………………"
                },
                "125": {
                    "大人ネプテューヌ": "きゃっ！？"
                },
                "126": {
                    "大人ネプテューヌ": "<param=player_name>……！　"
                },
                "128": {
                    "大人ネプテューヌ": "全く気が付かなかったよ"
                }
            }
        },
        "129": {
            "「驚かせて、ごめん」": {
                "131": {
                    "大人ネプテューヌ": "あはは、いいっていいってー"
                },
                "132": {
                    "大人ネプテューヌ": "それより、"
                },
                "140": {
                    "大人ネプテューヌ": "こっちきて座ろうよ"
                },
                "142": {
                    "大人ネプテューヌ": ""
                },
                "145": {
                    "大人ネプテューヌ": "今ね、これまでに起きたことを、\nちょっと思い出してたんだー"
                },
                "146": {
                    "大人ネプテューヌ": "長いような、あっという間だったような……\nなんだか不思議な気持ちだよ"
                },
                "147": {
                    "大人ネプテューヌ": "だけど……いつかはこの旅にも終わりが来る\nそれだけは避けられないんだろうね"
                },
                "149": {
                    "大人ネプテューヌ": "あはは、そんな顔しないでよ！"
                },
                "150": {
                    "大人ネプテューヌ": "旅の終わりがぜんぶの終わりってわけじゃないんだから！"
                },
                "151": {
                    "大人ネプテューヌ": "それに、わたしはまだまだ<param=player_name>と\nいろんなものを見たいって思ってるよ！"
                },
                "154": {
                    "大人ネプテューヌ": "だから、これからも一緒に……ね？"
                },
                "155": {
                    "大人ネプテューヌ": "<param=player_name>、明けましておめでとう。"
                },
                "157": {
                    "大人ネプテューヌ": "そして、改めてよろしく！"
                },
                "166": {
                    "": "『年の瀬来たりなば春遠からじ』\n　　　　　　　　　　　　　　　　　　　　　　END"
                }
            }
        }
    }
]