Command,Arg1,Arg2,Arg3,Arg4,Arg5,Arg6,WaitType,Text,PageCtrl,Voice,WindowType
FadeOut,black,,,,,0,,,,,
Bg,背景(ビーチ),,,,,,,,,,
Wait,,,,,,.3,,,,,
FadeIn,black,,,,,1,,,,,
Bgm,ADV通常,,,,,,,,,,
,ブランサマー,目閉じ,,,,,,,,,
Wait,,,,,,.5,,,,,
Tween,ブランサマー,MoveAdd,"x=0 y=-10 time=.3",,,,,,,,
Tween,ブランサマー,MoveAdd,"x=0 y=10 time=.3",,,,Add,,,,
,ブランサマー,目閉じ,,,,,,"ハァ……疲れた。
ロムやラムのペースに合わせていたら身が持たないわ",,,
CharacterOff,,,,,,,,,,,
Wait,,,,,,.5,,,,,
Se,踏み込み音,,,,,,,,,,
,グリーンハートサマー,通常,,,,1,Add,,,,
Tween,グリーンハートサマー,MoveFrom,"x=-100 y=0 islocal=true time=1",easeOutQuad,,,Add,,,,
,グリーンハートサマー,,,,,,,あら、お疲れのようですわね,,,
CharacterOff,,,,,,,,,,,
Wait,,,,,,.5,,,,,
,グリーンハートサマー,通常,キャラ左,,,,,,,,
,ブランサマー,悲しみ,キャラ右,,,,,,,,
,ブランサマー,,,,,,,"ベール……
あなた、どうして女神化しているの？",,,
,グリーンハートサマー,照れ,,,,.2,,"ひとことで言えば、気分ですわ。
暑いビーチは、クールに行こうと決めましたの",,,
,グリーンハートサマー,笑い,,,,.2,,"それに、この女性らしさの極みともいえる水着が
一番映えるのは、この姿だと思いません？",,,
,ブランサマー,真剣,,,,.2,,ドヤ顔で言わないでくれるかしら,,,
,グリーンハートサマー,,,,,,,あら、あなたこそ今日は冷静ですのね,,,
,ブランサマー,悲しみ,,,,.2,,何度もそう煽られてツッコむのにも疲れたわ,,,
,ブランサマー,通常,,,,.2,,"それに、今回は大きい方のネプテューヌもいるから
見慣れたわ",,,
,グリーンハートサマー,笑い,,,,.2,,ブランも成長しましたわね。胸は相変わらずですが,,,
Tween,ブランサマー,MoveTo,"x=0 y=40 islocal=true time=.1",easeOutCirc,pingPong=2,,Add,,,,
,ブランサマー,固有,,,,.2,,その一言が余計だっつってんだろ！！,,,
,グリーンハートサマー,,,,,,,うふふ、その怒鳴り方こそブランですわ,,,
,ブランサマー,,,,,,,妙なところで感心するな！,,,
,グリーンハートサマー,悲しみ,,,,.2,,そういえば、ヒロさんが見当たらないようですが……,,,
,ブランサマー,悲しみ,,,,.2,,彼女なら向こうで潮干狩りをしてるわ,,,
CaptureImage,キャプチャーイメージ,SpriteCamera,キャプチャ画像レイヤー,,,,,,,,
CharacterOff,,,,,,0,,,,,
Bg,背景(黒),,,,,0,,,,,
RuleFadeOut,キャプチャーイメージ,FadeLeftBottom,,,,.5,,,,,
Wait,,,,,,.5,,,,,
CaptureImage,キャプチャーイメージ,SpriteCamera,キャプチャ画像レイヤー,,,,,,,,
Bg,背景(ビーチ),,,,,0,,,,,
RuleFadeOut,キャプチャーイメージ,FadeLeftBottom,,,,.5,,,,,
,ラム・ロムサマー,笑い,キャラ左,,,,,,,,
,ヒロ,通常,キャラ右,,,,,,,,
,ラム・ロムサマー,,,,,,,潮干狩り、たのしーねー、ヒロちゃん,,,
,ロム,<Character=ラム・ロムサマー>照れ,,,,.2,,何もしてないより、楽しいでしょ、ヒロちゃん,,,
,ヒロ,目閉じ,,,,.2,,う、うむ……,,,
,ラム・ロムサマー,悲しみ,,,,.2,,ヒロちゃんは、なんで水着じゃないの？　暑くないの？,,,
,ロム,<Character=ラム・ロムサマー>悲しみ,,,,,,ヒロちゃん、汗いっぱいかいてるよ？,,,
,ヒロ,通常,,,,.2,,私は気にならん。,Br,,
Wait,,,,,,.3,,,,,
Se,踏み込み音,,,,,,,,,,
Tween,ヒロ,ScaleTo,"x=1.1 y=1.1 time=0.5",,,,Add,,,,
Tween,ヒロ,MoveAdd,"x=-50 y=-50 time=.5",,,,,,,,
,ヒロ,真剣,,,,,,……む、砂の中に何か見えたぞ,,,
,ロム,<Character=ラム・ロムサマー>笑い,,,,.2,,わあ、貝だ－！,,,
,ラム・ロムサマー,照れ,,,,.2,,ヒロちゃんのとこ、貝がいっぱーい！,,,
,ロム,<Character=ラム・ロムサマー>笑い,,,,.2,,すごーい！　ヒロちゃん、潮干狩り上手だね,,,
,ヒロ,照れ,,,,.2,,"こんなことで感心されても……反応に困る
あと、ちゃん付けはやめろ",,,
CharacterOff,,,,,,,,,,,
Wait,,,,,,.5,,,,,
,クロワールサマー,笑い,,,,1,Add,,,,
Tween,クロワールサマー,MoveFrom,"x=-100 y=0 islocal=true time=1",easeOutQuad,,,Add,,,,
,クロワールサマー,,,,,,,よお、ヒロ。大漁じゃねーか,Input,,
Selection,*200706-1,,,,0,300,,「楽しそう」,,,
*200706-1,,,,,,,,,,,
CharacterOff,,,,,,,,,,,
,ラム・ロムサマー,笑い,キャラ左,,,,,,,,
,ヒロ,照れ,キャラ右,,,,,,,,
Wait,,,,,,.5,,,,,
Tween,ヒロ,MoveTo,"x=0 y=40 islocal=true time=.1",easeOutCirc,pingPong=2,,Add,,,,
,ヒロ,照れ,,,,,,た、楽しんではいない！,,,
,ラム・ロムサマー,悲しみ,,,,.2,,えっ……ヒロちゃん、楽しくないの？,,,
,ロム,<Character=ラム・ロムサマー>悲しみ,,,,,,わたしたちが潮干狩りに誘ったの、迷惑だった？,,,
,ヒロ,照れ,,,,,,う……い、いや、そういう意味では……,Br,,
Wait,,,,,,.3,,,,,
,ヒロ,真剣,,,,.2,,おまえたちと遊ぶのは楽しい。本当だぞ,,,
,ラム・ロムサマー,笑い,,,,.2,,ほんとー！？　良かったぁ,,,
,ロム,<Character=ラム・ロムサマー>照れ,,,,.2,,ねぇ次は、砂のお城を作りたいな,,,
,ラム・ロムサマー,笑い,,,,.2,,"すてき！　お姫様が住んでるみたいな、
素敵なお城を３人で作ろうよー！",,,
,ヒロ,固有,,,,.2,,お姫様が住んでいるような城だと……？,Br,,
Wait,,,,,,.3,,,,,
,ヒロ,照れ,,,,.2,,この私が、そのような真似……くっ,,,
CharacterOff,,,,,,,,,,,
,ブランサマー,笑い,キャラ右,,,,,,,,
,グリーンハートサマー,笑い,キャラ左,,,,,,,,
,ブランサマー,,,,,,,ふふっ……,,,
,グリーンハートサマー,,,,,,,ヒロさんも大変ですわね,,,
FadeOut,black,,,,,1,,,,,
Wait,,,,,,.3,,,,,
EndScenario,,,,,,,,,,,
