Command,Arg1,Arg2,Arg3,Arg4,Arg5,Arg6,WaitType,Text,PageCtrl,Voice,WindowType
FadeOut,black,,,,,0,,,,,
Bg,背景(教会内部),,,,,,,,,,
Wait,,,,,,.3,,,,,
FadeIn,black,,,,,1,,,,,
Bgm,ADV通常,,,,,,,,,,,
,ラム,通常,キャラ右,,,,,,,,,
,ロム,通常,キャラ左,,,,,,,,,
,ラム,笑い,,,,.2,,"次はロムちゃんの番よ。
もうそろそろ崩れそうだから気をつけてね？",,,,
Tween,ロム,ShakePosition,"x=10 islocal=true time=.3",,,,Add,,,,
,ロム,真剣,,,,.2,,う、うん……,Next,,,
Wait,,,,,,.3,,,,,,
Tween,ロム,MoveTo,"x=15 time=0.5 islocal=true",,,,Add,,,,,
,ロム,,,,,,,じゃあこれにする,,,,
Tween,ラム,MoveTo,"x=0 y=40 islocal=true time=.1",easeOutCirc,pingPong=2,,Add,,,,
,ラム,通常,,,,.2,,そ、それはいちばん分厚い百科事典！,Br,,,
Wait,,,,,,.3,,,,,,
,ラム,真剣,,,,.2,,そんな大物をいくなんて……！,,,,
CharacterOff,,,,,,,,,,,,
,ブラン,通常,,,,,,,,,,
,ブラン,真剣,,,,.2,,"あの子たちはまた本でジェンガなんてして……。
大切にしろって叱ったばかりなのに……",,,,
,ブラン,通常,,,,.2,,"まあでもいつも通りが過ごせているなら、
それが一番なのよね",,,,
,ブラン,目閉じ,,,,.2,,もう少しでこんな日常も失われるところだった……,Br,,,
Wait,,,,,,.3,,,,,,
,ブラン,笑い,,,,.2,,それを思えば、今日くらいは多目に見てもいいわね,,,,
,ブラン,通常,,,,.2,,"さて、仕事も溜まってるし、
さっさと終わらせて――",,,,
Se,紙をめくる音,,,,,,,,,,,
Tween,ブラン,MoveTo,"y=-20 time=0.5 islocal=true",,pingPong=2,,,,,,,
Wait,,,,,,.6,,,,,,
,ブラン,通常,,,,,,,,,,
Tween,ブラン,MoveTo,"x=0 y=40 islocal=true time=.1",easeOutCirc,pingPong=2,,Add,,,,
,ブラン,真剣,,,,.2,,これは……,,,,
Se,紙をめくる音,,,,,,,,,,,
Wait,,,,,,.3,,,,,,
Se,紙をめくる音,,,,,,,,,,,
Wait,,,,,,.8,,,,,,
Se,紙をめくる音,,,,,,,,,,,
Wait,,,,,,.3,,,,,,
,ブラン,真剣,,,,.2,,これも、こっちも落書き……,Br,,,
Wait,,,,,,.3,,,,,,
,ブラン,固有,,,,.2,,この書類なんて替えがきかないのに……,,,,
CharacterOff,,,,,,,,,,,,
Se,踏み込み音,,,,,,,,,,,
,ラム,笑い,,,,1,Add,,,,
Tween,ラム,MoveFrom,"x=-100 y=0 islocal=true time=1",easeOutQuad,,,,,,,
,ラム,,,,,,,ねえねえ、お姉ちゃんも一緒に遊ぼ……,Br,,,
Wait,,,,,,.3,,,,,,
Tween,ラム,MoveTo,"x=0 y=40 islocal=true time=.1",easeOutCirc,pingPong=2,,Add,,,,
,ラム,真剣,,,,.2,,うわ、やっば……！,,,,
CharacterOff,,,,,,,,,,,,
,ブラン,悲しみ,,,,,,,,,,
,ブラン,真剣,,,,.2,,ロム、ラム……,Next,,,
Wait,,,,,,.3,,,,,,
,ブラン,,,,,,,あなたたち……,,,,
ParticleOff,,,,,,,,,,,,
CharacterOff,,,,,,,,,,,,
,ラム,真剣,キャラ右,,,,,,,,,
Se,踏み込み音,,,,,,,,,,,
,ロム,通常,キャラ左,,,1,Add,,,,
Tween,ロム,MoveFrom,"x=-100 y=0 islocal=true time=1",easeOutQuad,,,,,,,
,ロム,,,,,,,"ラムちゃんどうしたの？
お姉ちゃん遊びに誘うんじゃ……",,,,
Tween,ラム,ShakePosition,"x=10 islocal=true time=.3",,,,Add,,,,
,ラム,,,,,,,ロムちゃん、いいから逃げるよ！,,,,
Tween,ロム,MoveTo,"x=0 y=40 islocal=true time=.1",easeOutCirc,pingPong=2,,Add,,,,
,ロム,,,,,,,ええっ……！？,,,,
CharacterOff,,,,,,,,,,,,
StopBgm,,,,,,,,,,,,
Bgm,コミカル,,,,,,,,,,,
,ブラン,真剣,,,,.2,,逃がすかぁ！,Br,,,
Wait,,,,,,.3,,,,,,
Se,落雷音,,,,,,,,,,,
ZoomCamera,SpriteCamera,1.5,,100,,0,Add,,,,,
Shake,Camera,,,,,.5,Add,,,,,
,ブラン,,,,,,,待ちなさい２人とも～！！,,,,
CharacterOff,,,,,,0,Add,,,,,
ZoomCamera,SpriteCamera,1,,0,,0,,,,,,
,ラム,真剣,キャラ右,,,,,,,,,
,ロム,通常,キャラ左,,,,,,,,,
,ラム,真剣,,,,.2,,ごご、ごめんなさい～！,,,,
,ロム,固有,,,,.2,,お姉ちゃん怖い～！,,,,
Se,踏み込み音,,,,,,,,,,,
Tween,ラム,MoveAdd,"x=-100 y=0 time=.5",easeOutQuad,,,Add,,,,
CharacterOff,ラム,,,,,.5,,,,,
Tween,ロム,MoveAdd,"x=-100 y=0 time=.5",easeOutQuad,,,Add,,,,
CharacterOff,ロム,,,,,.5,,,,,
Wait,,,,,,1,,,,,,
StopBgm,,,,,,,,,,,,
CaptureImage,キャプチャーイメージ,SpriteCamera,キャプチャ画像レイヤー,,,,,,,,
CharacterOff,,,,,,0,,,,,
Bg,背景(黒),,,,,0,,,,,
RuleFadeOut,キャプチャーイメージ,FadeLeftBottom,,,,.5,,,,,
Wait,,,,,,.5,,,,,
CaptureImage,キャプチャーイメージ,SpriteCamera,キャプチャ画像レイヤー,,,,,,,,
Bg,背景(草原：昼),,,,,0,,,,,
RuleFadeOut,キャプチャーイメージ,FadeLeftBottom,,,,.5,,,,,
Bgm,休息,,,,,,,,,,,
,フェゴール,通常,,,,,,,,,
,フェゴール,固有,,,,.2,,"ふぁ……ねむ……
あー今はなにもしたくない……",,,,
,フェゴール,,,,,,,もっかい寝よっかな……,,,,
CharacterOff,,,,,,,,,,,,
,フェゴール,固有,キャラ右,,,,,,,,,
Se,踏み込み音,,,,,,,,,,,
,アシュメディア,通常,キャラ左,,,1,Add,,,,
Tween,アシュメディア,MoveFrom,"x=-100 y=0 islocal=true time=1",easeOutQuad,,,,,,,
,アシュメディア,,,,,,,やーっと見つけたわ,,,,
Tween,フェゴール,MoveTo,"x=0 y=40 islocal=true time=.1",easeOutCirc,pingPong=2,,Add,,,,
,フェゴール,通常,,,,.2,,"あーアシュたんだー。
どこ行ってたのー？",,,,
,アシュメディア,真剣,,,,,,それはこっちのセリフよぉ。,Br,,,
Wait,,,,,,.3,,,,,,
,アシュメディア,悲しみ,,,,.2,,いつの間にかはぐれちゃうんだから,,,,
,アシュメディア,通常,,,,,,で、その様子だと目的は果たせていないみたいね,,,,
,フェゴール,固有,,,,.2,,,,,,
Tween,フェゴール,ShakePosition,"x=10 islocal=true time=.3",,,,Add,,,,
,フェゴール,,,,,,,ふあぁ～。,Next,,,
Wait,,,,,,.3,,,,,,
,フェゴール,通常,,,,.2,,そうなんだよなー……,Br,,,
Wait,,,,,,.3,,,,,,
,フェゴール,悲しみ,,,,.2,,しかたない、起きるか,,,,
,アシュメディア,通常,,,,.2,,あらちょっとやる気？　,Next,,,
Wait,,,,,,.3,,,,,,
,アシュメディア,笑い,,,,.2,,めずらしいわね,,,,
,フェゴール,通常,,,,,,そうだなー、ファーたんも探さないとな……,,,,
StopBgm,,,,,,,,,,,,
CaptureImage,キャプチャーイメージ,SpriteCamera,キャプチャ画像レイヤー,,,,,,,,
CharacterOff,,,,,,0,,,,,
Bg,背景(黒),,,,,0,,,,,
Sprite,回想パーツ,,スプライトレイヤー,,,0,,,,,
RuleFadeOut,キャプチャーイメージ,FadeCircle,,,,.5,,,,,
Wait,,,,,,.5,,,,,
CaptureImage,キャプチャーイメージ,SpriteCamera,キャプチャ画像レイヤー,,,,,,,,
Bg,背景(草原：昼),,,,,0,,,,,
RuleFadeOut,キャプチャーイメージ,FadeCircle,,,,.5,,,,,
Bgm,ADV通常,,,,,,,,,,,
,クロワール,通常,キャラ左,,,,,,,,,
,フェゴール,通常,キャラ右,,,,,,,,,
,クロワール,通常,,,,,,"……つーわけで、俺たちはそのファウストとは
何度か会ってるってわけだ",,,,
,クロワール,,,,,,,ついでに言うと、とある組織に加わってるみたいだな。,Br,,,
Wait,,,,,,.3,,,,,,
,クロワール,真剣,,,,.2,,俺たちにとっちゃ因縁のある連中だよ,,,,
,フェゴール,通常,,,,,,そっかー、,Next,,,
Wait,,,,,,.3,,,,,,
,フェゴール,真剣,,,,.2,,やっぱりこっちにいたかー,,,,
,クロワール,真剣,,,,,,,,,,
,クロワール,悲しみ,,,,.2,,"さすがに居場所までは分かんねーぜ。
こっちも、やつらから逃げてるようなもんだし",,,,
,フェゴール,笑い,,,,,,ん、じゅうぶんだー。その組織を追ってれば、,Br,,
Wait,,,,,,.3,,,,,
,フェゴール,真剣,,,,.2,,いつか会えそうだからなー,Input,,
Selection,*201608-1,,,,0,300,,「会えたら、どうするの？」,,,
*201608-1,,,,,,,,,,,
,フェゴール,通常,,,,.2,,それは……,,,
StopBgm,,,,,,,,,,,
CaptureImage,キャプチャーイメージ,SpriteCamera,キャプチャ画像レイヤー,,,,,,,,
CharacterOff,,,,,,0,,,,,
Bg,背景(黒),,,,,0,,,,,
SpriteOff,回想パーツ,,スプライトレイヤー,,,0,,,,,
RuleFadeOut,キャプチャーイメージ,FadeCircle,,,,.5,,,,,
Wait,,,,,,.5,,,,,
CaptureImage,キャプチャーイメージ,SpriteCamera,キャプチャ画像レイヤー,,,,,,,,
Bg,背景(草原：昼),,,,,0,,,,,
RuleFadeOut,キャプチャーイメージ,FadeCircle,,,,.5,,,,,
Bgm,休息,,,,,,,,,,
,フェゴール,通常,キャラ右,,,,,,,,
,アシュメディア,通常,キャラ左,,,,,,,,
Tween,フェゴール,ShakePosition,"x=10 islocal=true time=.3",,,,Add,,,,
,フェゴール,笑い,,,,.2,,ふふ……,,,
,アシュメディア,通常,,,,,,どうしたのよフェゴール。,Br,,
Wait,,,,,,.3,,,,,
,アシュメディア,笑い,,,,.2,,なーんかいいことでもあったの～？,,,
,フェゴール,通常,,,,.2,,ちょっとな～。,Br,,
Wait,,,,,,.3,,,,,
,フェゴール,笑い,,,,.2,,誰かに心配されるの久しぶりだなーと思って,,,
,アシュメディア,悲しみ,,,,.2,,何よそれ、気になるじゃないのぉ～,,,
,フェゴール,通常,,,,.2,,じゃ、出発するぞー,,,
Se,踏み込み音,,,,,,,,,,
Tween,フェゴール,MoveAdd,"x=100 y=0 time=1",easeOutQuad,,,Add,,,,
CharacterOff,フェゴール,,,,,1,,,,,
Tween,アシュメディア,MoveTo,"x=0 y=40 islocal=true time=.1",easeOutCirc,pingPong=2,,Add,,,,
,アシュメディア,,,,,,,あぁんもう、待ってってばぁ！,,,
CharacterOff,,,,,,,,,,,
Se,踏み込み音,,,,,,,,,,
,フェゴール,通常,,,,1,Add,,,,
Tween,フェゴール,MoveFrom,"x=-100 y=0 islocal=true time=1",easeOutQuad,,,,,,,
,フェゴール,通常,,,,,,家族か……ワタシも負けずに,Br,,
Wait,,,,,,.3,,,,,
,フェゴール,真剣,,,,.2,,もうちょっとがんばるぞ、ゼボちん,,,
,フェゴール,,,,,,,……ブランにロムにラムかー。,Br,,
Wait,,,,,,.3,,,,,
,フェゴール,笑い,,,,.2,,ウチの家族だって、負けないんだからなー,,,
FadeOut,black,,,,,2,,,,,
Wait,,,,,,.1,,,,,
CharacterOff,,,,,,0,,,,,
Bg,背景(黒),,,,,0,,,,,
FadeIn,black,,,,,,,,,,
Wait,,,,,,2,,,,,
HideMenuButton,,,,,,,,,,,
Sprite,ブラールイベントロゴ,,,0,50,1,,,,,
,,,,,,,,"『断罪の魔王と失われた絆』
　　　　　　　　　　　　　　　　　　　　　　END",,,
FadeOut,black,,,,,1,,,,,
Wait,,,,,,.3,,,,,
EndScenario,,,,,,,,,,,
