Command,Arg1,Arg2,Arg3,Arg4,Arg5,Arg6,WaitType,Text,PageCtrl,Voice,WindowType
FadeOut,black,,,,,0,,,,,
Bg,背景(森：昼),,,,,,,,,,
Wait,,,,,,.3,,,,,
FadeIn,black,,,,,1,,,,,
Bgm,疑惑,,,,,,,,,,
,天王星うずめ,固有,,,,,,<param=player_name>が、お前らの元リーダーだって！？,,,
,メリー,,,,,,,イグザクトリー！,,,
,メリー,,,,,,,"あらゆる次元を旅して仲間を集め、
やがて巨大な組織を作り上げたのさ！",,,
,メリー,,,,,,,,,,
,メリー,,,,,,,そして騙され、裏切られ——,,,
,大人ネプテューヌ,真剣,,,,,,,,,
Wait,,,,,,.5,,,,,
Tween,大人ネプテューヌ,ScaleTo,"x=0.9 y=0.9 time=0.2",,,,,,,,
Wait,,,,,,.2,,,,,
Se,疾走音,,,,,,,,,,
Tween,大人ネプテューヌ,ScaleTo,"x=2 y=2 time=0.5",,,,Add,,,,
Tween,大人ネプテューヌ,MoveAdd,"x=0 y=-150 time=.5",,,,Add,,,,
CharacterOff,,,,,,,,,,,
Wait,,,,,,.3,,,,,
,ネプテューヌ,<Character=>,,,,,,たぁっ！,,,
,メリー,,,,,,,おお、こわいこわい,,,
Se,風切り音,,,,,,,,,,
Tween,メリー,MoveAdd,"x=-100 y=0 time=.3",easeOutQuad,,,Add,,,,
CharacterOff,メリー,,,,,.3,,,,,
Wait,,,,,,.5,,,,,
Se,斬撃1,,,,,,,,,,
Particle,袈裟斬り,,フェードレイヤー,,,,,,,,
Wait,,,,,,1,,,,,
StopBgm,,,,,,,,,,,
,大人ネプテューヌ,真剣,,,,,,…………,,,
,メリー,,,,,,,"ククク……いいねぇ、その目。
怒ってるのかな？　それとも焦り？　後悔？",,,
Bgm,冒険者たちの軌跡,,,,,,,,,,
,大人ネプテューヌ,真剣,,,,,,どれでもないよ！,,,
Tween,大人ネプテューヌ,ScaleTo,"x=0.9 y=0.9 time=0.2",,,,,,,,
Wait,,,,,,.2,,,,,
Se,疾走音,,,,,,,,,,
Tween,大人ネプテューヌ,ScaleTo,"x=2 y=2 time=0.5",,,,Add,,,,
Tween,大人ネプテューヌ,MoveAdd,"x=0 y=-150 time=.5",,,,Add,,,,
CharacterOff,,,,,,,,,,,
Wait,,,,,,.3,,,,,
Wait,,,,,,.5,,,,,
,アイエフ,真剣,キャラ右,,,,,,,,
,ベール,真剣,キャラ左,,,,,,,,
,アイエフ,,,,,,,追撃するわ！,,,
CharacterOff,,,,,,0,,,,,
,アイエフ,真剣,キャラ右,,,0,,,,,
,ベール,真剣,キャラ左,,,0,,,,,
Wait,,,,,,.5,,,,,
Se,風切り音,,,,,,,,,,
Tween,ベール,MoveAdd,"x=0 y=-15 time=.2",,,,Add,,,,
Wait,,,,,,.16,,,,,
Tween,ベール,MoveAdd,"x=0 y=15 time=.2",,,,Add,,,,
Wait,,,,,,.16,,,,,
Se,タイピング音,,,,,,,,,,
Wait,,,,,,.5,,,,,
StopSe,,,,,,,,,,,
,ベール,,,,,,,カセイ、シマスワ(｀・ω・´),,,
Se,風切り音,,,,,,,,,,
Tween,ベール,MoveAdd,"x=0 y=-10 time=.2",,,,Add,,,,
Wait,,,,,,.16,,,,,
Tween,ベール,MoveAdd,"x=0 y=10 time=.2",,,,Add,,,,
Wait,,,,,,.16,,,,,
Se,風切り音,,,,,,,,,,
Tween,ベール,MoveAdd,"x=0 y=-10 time=.2",,,,Add,,,,
Wait,,,,,,.16,,,,,
Tween,ベール,MoveAdd,"x=0 y=10 time=.2",,,,Add,,,,
Wait,,,,,,.16,,,,,
CharacterOff,,,,,,,,,,,
,箱崎チカ,固有,,,,,,"ベール様、読み上げソフト片手に、
槍を振り回さないでくださいっ！",,,
CharacterOff,,,,,,,,,,,
,アイエフ,真剣,キャラ右,,,,,,,,
,ベール,真剣,キャラ左,0,-50,,,,,,
Wait,,,,,,.5,,,,,
Tween,アイエフ,ScaleTo,"x=0.9 y=0.9 time=0.2",,,,Add,,,,
Tween,ベール,ScaleTo,"x=0.9 y=0.9 time=0.2",,,,,,,,
Wait,,,,,,.2,,,,,
Se,疾走音,,,,,,,,,,
Tween,アイエフ,ScaleTo,"x=2 y=2 time=0.5",,,,Add,,,,
Tween,アイエフ,MoveAdd,"x=0 y=-150 time=.5",,,,Add,,,,
Tween,ベール,ScaleTo,"x=2 y=2 time=0.5",,,,Add,,,,
Tween,ベール,MoveAdd,"x=0 y=-150 time=.5",,,,,,,,
CharacterOff,,,,,,,,,,,
Wait,,,,,,.3,,,,,
Wait,,,,,,.5,,,,,
Se,風切り音,,,,,,,,,,
,メリー,,,,,.3,Add,,,,
Tween,メリー,MoveFrom,"x=100 y=0 islocal=true time=.3",easeOutQuad,,,,,,,
Wait,,,,,,.5,,,,,
Se,風切り音,,,,,,,,,,
Tween,メリー,MoveAdd,"x=200 y=0 time=.3",,,,,,,,
Se,風切り音,,,,,,,,,,
Tween,メリー,MoveAdd,"x=-100 y=0 time=.3",easeOutQuad,,,Add,,,,
CharacterOff,メリー,,,,,.3,,,,,
,メリー・エニー・メリー,<Character=>,,,,,,ひょいひょいっと,,,
,アイエフ,悲しみ,キャラ左,,,,,,,,
,クロワール,真剣,キャラ右,,,,,,,,
,アイエフ,,,,,,,素早い……！,,,
Tween,クロワール,MoveTo,"x=0 y=40 islocal=true time=.1",easeOutCirc,pingPong=2,,Add,,,,
,クロワール,,,,,,,攻撃し続けろ！　あいつに隙を与えるな！,,,
CharacterOff,,,,,,,,,,,
Se,風切り音,,,,,,,,,,
,メリー,,,,,.3,Add,,,,
Tween,メリー,MoveFrom,"x=100 y=0 islocal=true time=.3",easeOutQuad,,,,,,,
Wait,,,,,,.5,,,,,
,メリー,,,,,,,ひどいなぁ、ミーにおしゃべりさせないつもり？,,,
,リーリア,真剣,,,,,,"ちょっとぉ、なんなのよぉ！
話してたのはあたしでしょー",,,
,大人ネプテューヌ,悲しみ,,,,,,"リーリアちゃん、だっけ？　その過去の話は、
できればもうちょっとだけ待って欲しいな",,,
,リーリア,真剣,,,,,,"はぁ？　なんであたしが、
あんたの言うこと聞かなきゃならないわけ？",,,
,大人ネプテューヌ,悲しみ,,,,,,お願い……,,,
Jump,"*case 101101-01",is_heroine,,,,,,,,,
Jump,"*case 101101-02",,,,,,,,,,
"*case 101101-01",,,,,,,,,,,
,リーリア,通常,,,,,,…………ふん。意味わかんない,Input,,
StopBgm,,,,,,,,,,,
Selection,*101101-1,,,,0,300,,「わたしは、いったい……」,,,
*101101-1,,,,,,,,,,,
Bgm,悲しい,,,,,,,,,,
,大人ネプテューヌ,真剣,,,,,,"<param=player_name>、キミは悪人じゃない。
それはわたしが保証する",,,
,大人ネプテューヌ,笑い,,,,.2,,"ずっとキミを見てきた、ずっと傍にいた。
そんなわたしが保証するんだから、間違いないよ",,,
,大人ネプテューヌ,悲しみ,,,,.2,,"記憶喪失になってから、キミが見て、聞いたこと、
何を信じてどう思うかは、キミ次第だけど……",,,
,大人ネプテューヌ,笑い,,,,.2,,"これだけは信じて。
どんなことがあっても、わたしはキミの味方だよ",,,
,大人ネプテューヌ,真剣,,,,.2,,そして、キミの記憶を絶対に取り戻すから,,,
,大人ネプテューヌ,悲しみ,,,,.2,,"……それまで、キミの中にある真実を語るのは、
保留ってことじゃ、ダメかな？",,,
StopBgm,,,,,,,,,,,
Bgm,未来へ,,,,,,,,,,
,天王星うずめ,笑い,,,,,,"<param=player_name>が羨ましいぜ。俺も記憶喪失だけど
そこまで想ってくれる人はいないからな",,,
,天王星うずめ,真剣,,,,.2,,"俺はお前のことを何も知らないが、
ねぷっちが信じるお前を信じる。今、そう決めた",,,
,天王星うずめ,笑い,,,,.2,,お前は……誰を信じるんだ？,Input,,
Selection,*101101-2,,,,0,300,,「わたしは――みんなを信じる」,,,
*101101-2,,,,,,,,,,,
,天王星うずめ,笑い,,,,,,そっか,,,
,クロワール,笑い,,,,,,……オレの出番はなかったみてえだな,,,
,大人ネプテューヌ,真剣,,,,,,それじゃ、行っくよーっ！,,,
Tween,大人ネプテューヌ,ScaleTo,"x=0.9 y=0.9 time=0.2",,,,,,,,
Wait,,,,,,.2,,,,,
Se,疾走音,,,,,,,,,,
Tween,大人ネプテューヌ,ScaleTo,"x=2 y=2 time=0.5",,,,Add,,,,
Tween,大人ネプテューヌ,MoveAdd,"x=0 y=-150 time=.5",,,,Add,,,,
CharacterOff,,,,,,,,,,,
Wait,,,,,,.3,,,,,
Wait,,,,,,1,,,,,
FadeOut,black,,,,,1,,,,,
Wait,,,,,,.3,,,,,
EndScenario,,,,,,,,,,,
"*case 101101-02",,,,,,,,,,,
,リーリア,通常,,,,,,…………ふん。意味わかんない,Input,,
StopBgm,,,,,,,,,,,
Selection,*101101-3,,,,0,300,,「僕は、いったい……」,,,
*101101-3,,,,,,,,,,,
Bgm,悲しい,,,,,,,,,,
,大人ネプテューヌ,真剣,,,,,,"<param=player_name>、キミは悪人じゃない。
それはわたしが保証する",,,
,大人ネプテューヌ,笑い,,,,.2,,"ずっとキミを見てきた、ずっと傍にいた。
そんなわたしが保証するんだから、間違いないよ",,,
,大人ネプテューヌ,悲しみ,,,,.2,,"記憶喪失になってから、キミが見て、聞いたこと、
何を信じてどう思うかは、キミ次第だけど……",,,
,大人ネプテューヌ,笑い,,,,.2,,"これだけは信じて。
どんなことがあっても、わたしはキミの味方だよ",,,
,大人ネプテューヌ,真剣,,,,.2,,そして、キミの記憶を絶対に取り戻すから,,,
,大人ネプテューヌ,悲しみ,,,,.2,,"……それまで、キミの中にある真実を語るのは、
保留ってことじゃ、ダメかな？",,,
StopBgm,,,,,,,,,,,
Bgm,未来へ,,,,,,,,,,
,天王星うずめ,笑い,,,,,,"<param=player_name>が羨ましいぜ。俺も記憶喪失だけど
そこまで想ってくれる人はいないからな",,,
,天王星うずめ,真剣,,,,.2,,"俺はお前のことを何も知らないが、
ねぷっちが信じるお前を信じる。今、そう決めた",,,
,天王星うずめ,笑い,,,,.2,,お前は……誰を信じるんだ？,Input,,
Selection,*101101-4,,,,0,300,,「僕は――みんなを信じる」,,,
*101101-4,,,,,,,,,,,
,天王星うずめ,笑い,,,,,,そっか,,,
,クロワール,笑い,,,,,,……オレの出番はなかったみてえだな,,,
,大人ネプテューヌ,真剣,,,,,,それじゃ、行っくよーっ！,,,
Tween,大人ネプテューヌ,ScaleTo,"x=0.9 y=0.9 time=0.2",,,,,,,,
Wait,,,,,,.2,,,,,
Se,疾走音,,,,,,,,,,
Tween,大人ネプテューヌ,ScaleTo,"x=2 y=2 time=0.5",,,,Add,,,,
Tween,大人ネプテューヌ,MoveAdd,"x=0 y=-150 time=.5",,,,Add,,,,
CharacterOff,,,,,,,,,,,
Wait,,,,,,.3,,,,,
Wait,,,,,,1,,,,,
FadeOut,black,,,,,1,,,,,
Wait,,,,,,.3,,,,,
EndScenario,,,,,,,,,,,
