Command,Arg1,Arg2,Arg3,Arg4,Arg5,Arg6,WaitType,Text,PageCtrl,Voice,WindowType
FadeOut,black,,,,,0,,,,,
Bg,背景(宿の部屋),,,,,,,,,,
,天王星うずめ,通常,キャラ右,,,0,,,,,
,クロワール,通常,キャラ中央,,,0,,,,,
,大人ネプテューヌ,通常,キャラ左,,,0,,,,,
SendMessageByName,AdvEngine,ChangeNoGrayOutCharacter,"天王星うずめ,クロワール,大人ネプテューヌ",,,,,,,,
Wait,,,,,,.3,,,,,
FadeIn,black,,,,,1,,,,,
Bgm,ADV通常,,,,,,,,,,
Selection,*201301-01,,,,0,300,,「新年あけましてー」,,,
*201301-01,,,,,,,,,,,
,天王星うずめ,笑い,,,,.2,Add,,,,
,クロワール,笑い,,,,.2,Add,,,,
,大人ネプテューヌ,笑い,,,,.2,Add,,,,
,全員,,,,,,,おめでとうございまーす！,,,
CharacterOff,,,,,,,,,,,
,天王星うずめ,笑い,,,,,,いやー、一年なんてあっという間だなー。,Br,,
Wait,,,,,,.3,,,,,
,天王星うずめ,目閉じ,,,,.2,,ねぷっちたちに出会ったのが昨日のことみたいだ,,,
CharacterOff,,,,,,,,,,,
,天王星うずめ,通常,キャラ右,,,,,,,,
,クロワール,笑い,キャラ左,,,,,,,,
,クロワール,悲しみ,,,,.2,,なんかその発言、年寄りくさいぞ,,,
Tween,天王星うずめ,ShakePosition,"x=10 islocal=true time=.3",,,,Add,,,,
,天王星うずめ,固有,,,,.2,,と、年寄りくさいとか言うなよ！,,,
,天王星うずめ,悲しみ,,,,.2,,俺はまだピチピチの十代……たぶん！,Br,,
Wait,,,,,,.3,,,,,
,天王星うずめ,真剣,,,,.2,,覚えてないけどたぶん若い！　はず！,,,
,クロワール,通常,,,,.2,,そういや、お前も過去の記憶がないんだったな,,,
,天王星うずめ,固有,,,,.2,,覚えててくれよ……,Next,,
Wait,,,,,,.3,,,,,
,天王星うずめ,悲しみ,,,,.2,,いや、俺も最近忘れがちだけど,,,
,クロワール,悲しみ,,,,.2,,本人が忘れてどーする,,,
,天王星うずめ,,,,,,,そうなんだけどなぁ……,,,
,天王星うずめ,笑い,,,,.2,,"みんなとの旅が楽しいから
あんまり気にならなくなってきたのかも",,,
CharacterOff,,,,,,,,,,,
,大人ネプテューヌ,笑い,,,,.2,,うずめは大雑把だなー,,,
,天王星うずめ,悲しみ,,,,,,ねぷっちには言われたくないよ……,,,
,天王星うずめ,笑い,,,,.2,,"でも、まあ、年も変わったことだし、
今年からは記憶探しをがんばってみるかな",,,
,天王星うずめ,通常,,,,.2,,"みんなはどうだ？
今年の目標とかあるのか？",,,
,大人ネプテューヌ,通常,,,,,,わたしはそうだなー……,,,
,大人ネプテューヌ,目閉じ,,,,.2,,"色んなとこにいって、色んなもの見て、
色んなもの食べて……",Next,,
,大人ネプテューヌ,通常,,,,.2,,そんな感じかなー,,,
,大人ネプテューヌ,笑い,,,,.2,,"でも、一番はやっぱり<param=player_name>の
記憶を取り戻すことかな",,,
CharacterOff,,,,,,,,,,,
,天王星うずめ,通常,キャラ右,,,,,,,,
,クロワール,悲しみ,キャラ左,,,,,,,,
,天王星うずめ,笑い,,,,.2,,ある意味、俺とねぷっちの目標は同じだな,,,
,天王星うずめ,通常,,,,.2,,クロっちはどうだ？,,,
,クロワール,通常,,,,.2,,"俺は特に目標なんてねーよ。
ま、退屈しないってくらいかな",,,
,天王星うずめ,悲しみ,,,,.2,,なんだよ、面白味がないなあ,,,
,クロワール,,,,,,,"面白いことは大歓迎だけど、
俺自身は面白くなくていいんだよ",,,
,クロワール,笑い,,,,.2,,"そういう意味じゃ、うずめの記憶には
ちょっと期待してるぜ",,,
StopBgm,,,,,,,,,,,
CharacterOff,,,,,,,,,,,
Bgm,コミカル,,,,,,,,,,
,天王星うずめ,固有,,,,,,,,,
Tween,天王星うずめ,ShakePosition,"x=10 islocal=true time=.3",,,,Add,,,,
,天王星うずめ,,,,,,,うっ……その顔やめろよな！,,,
,天王星うずめ,真剣,,,,.2,,俺は波瀾万丈とかそういうのいらないから！,,,
,天王星うずめ,照れ,,,,.2,,"なんていうかこう、お城みたいなところで
執事やメイドに囲まれて暮らしてたとか",,,
,天王星うずめ,妄想笑い,,,,.2,,"キレイな森の奥で動物たちや
かわいい妖精と一緒に育ったとか",,,
Tween,天王星うずめ,MoveTo,"x=0 y=40 islocal=true time=.1",easeOutCirc,pingPong=2,,Add,,,,
,天王星うずめ,真剣,,,,.2,,うずめ的にはそういうのがいいの！,,,
CharacterOff,,,,,,,,,,,
,クロワール,固有,キャラ右,,,,,,,,
,大人ネプテューヌ,固有,キャラ左,,,,,,,,
SendMessageByName,AdvEngine,ChangeNoGrayOutCharacter,"クロワール,大人ネプテューヌ",,,,,,,,
,クロワール,,,,,,,…………,,,
SendMessageByName,AdvEngine,ChangeNoGrayOutCharacter,"クロワール,大人ネプテューヌ",,,,,,,,
,大人ネプテューヌ,,,,,,,…………,Input,,
Selection,*201301-02,,,,0,300,,「うずめ、かわいー」,,,
*201301-02,,,,,,,,,,,
CharacterOff,,,,,,,,,,,
,天王星うずめ,固有,キャラ中央,,,.2,Add,,,,
Tween,天王星うずめ,ScaleTo,"time=0 x=1.5 y=1.5",,,,Add,,,,
Tween,天王星うずめ,MoveAdd,"x=0 y=-100 time=0",,,,Add,,,,
Tween,BG,ScaleTo,"time=0 x=1.5 y=1.5",,,,Add,,,,
Tween,BG,MoveAdd,"x=0 y=-50 time=0",,,,Add,,,,
Particle,集中線,,,,,,Add,,,,
,天王星うずめ,,,,,,,あわわっ！　なしなし！　今のなし！,,,
ParticleOff,,,,,,,Add,,,,
Tween,BG,ScaleTo,"time=0 x=1 y=1",,,,Add,,,,
Tween,BG,MoveAdd,"x=0 y=50 time=0",,,,,,,,
CharacterOff,,,,,,,,,,,
,クロワール,固有,キャラ右,,,,,,,,
,大人ネプテューヌ,固有,キャラ左,,,,,,,,
,クロワール,通常,,,,.2,,"久しぶりに出たな。
うずめの乙女ちっく妄想",,,
,大人ネプテューヌ,笑い,,,,.2,,新年の一発目だしね,,,
CharacterOff,,,,,,,,,,,
,天王星うずめ,固有,,,,,,,,,
Tween,天王星うずめ,MoveTo,"x=0 y=40 islocal=true time=.1",easeOutCirc,pingPong=2,,Add,,,,
,天王星うずめ,,,,,,,ああ、もう！　,Next,,
Wait,,,,,,.5,,,,,
,天王星うずめ,目閉じ,,,,.2,,この話終わり！,Br,,
Wait,,,,,,.5,,,,,
,天王星うずめ,真剣,,,,.2,,さっさと初詣行くぞ！,,,
Se,踏み込み音,,,,,,,,,,
Tween,天王星うずめ,MoveAdd,"x=100 y=0 time=1",easeOutQuad,,,Add,,,,
CharacterOff,天王星うずめ,,,,,1,,,,,
Wait,,,,,,.5,,,,,
FadeOut,black,,,,,1,,,,,
Wait,,,,,,.3,,,,,
EndScenario,,,,,,,,,,,
