Command,Arg1,Arg2,Arg3,Arg4,Arg5,Arg6,WaitType,Text,PageCtrl,Voice,WindowType
FadeOut,black,,,,,0,,,,,
Bg,背景(神社),,,,,,,,,,
Wait,,,,,,.3,,,,,
FadeIn,black,,,,,1,,,,,
Bgm,明るいテーマ,,,,,,,,,,
,おばあちゃん,,,,,,,巫女さんや、お参りはどこから入ればいいんかのう,,,
,男の子,,,,,,,巫女のおねえちゃん、トイレどこー,,,
,ヨーコ,真剣,,,,,,わらわはこの神社の巫女じゃないんだってば。,Br,,
Wait,,,,,,.3,,,,,
,ヨーコ,悲しみ,,,,.2,,聞かれても分かんないから！,,,
,ヨーコ,,,,,.2,,ていうか、もうこれで何回目よー,,,
CharacterOff,,,,,,,,,,,
SendMessageByName,AdvEngine,ChangeNoGrayOutCharacter,"ユリーナ,リリィ",,,,,,,,
Se,踏み込み音,,,,,,,,,,
,ユリーナ,通常,キャラ左,,,1,Add,,,,
Tween,ユリーナ,MoveFrom,"x=100 y=0 islocal=true time=1",easeOutQuad,,,Add,,,,
,リリィ,通常,キャラ右,,,1,Add,,,,
Tween,リリィ,MoveFrom,"x=100 y=0 islocal=true time=1",easeOutQuad,,,Add,,,,
,ユリーナ,笑い,,,,.2,,やっほー、お待たせヨーコ,,,
CharacterOff,,,,,,,,,,,
,ヨーコ,悲しみ,,,,,,,,,
Tween,ヨーコ,MoveTo,"x=0 y=40 islocal=true time=.1",easeOutCirc,pingPong=2,,Add,,,,
,ヨーコ,真剣,,,,.2,,ちょっと、わらわを置いてどこに行ってたのよ！,,,
,リリィ,通常,,,,,,おみくじを買いに行ってました。,Br,,
Wait,,,,,,.3,,,,,
,リリィ,笑い,,,,.2,,あなたの分も買ってきましたよ,,,
,ヨーコ,真剣,,,,,,そういう問題じゃないでしょ。,Br,,
Wait,,,,,,.3,,,,,
Tween,ヨーコ,MoveTo,"x=0 y=-10 islocal=true time=0.2",easeOutCirc,pingPong=2,,Add,,,,,,,,,,,,,,,,,,,,,,,,,,,,,,,,,,,,,,,,,,,,,,,,,,,,,,,,,,,,,,,,,,,,,,,,,,,,,,,,,,,,,,,,,,,,,,,,,,,,,,,,,,,,,,,,,,,,,,,,,,,,,,,,,,,,,,,,,,,,,,,,,,,,,,,,,,,,,,,,,,,,,,,,,,,,,,,,,,,,,,,,,,,,,,,,,,,,,,,,,,,,,,,,,,,,,,,,,,,,,,,,,,,,,,,,,,,,,,,,,,,,,,,,
,ヨーコ,悲しみ,,,,.2,,……ハァ、もういいわ,,,
,ユリーナ,笑い,,,,,,そんなことより、おみくじ見てみようよ！,,,
CharacterOff,,,,,,,,,,,
,リリィ,通常,キャラ右,,,,,,,,
,ヨーコ,通常,キャラ左,,,,,,,,
,リリィ,笑い,,,,.2,,"そうですね。せっかくですから
みんなで見せ合いましょうか",,,
,ヨーコ,悲しみ,,,,.2,,"自分で買ったのじゃなくても
御利益があるのかしら……？",,,
Se,紙をめくる音,,,,,,,,,,
,ヨーコ,悲しみ,,,,.2,,末吉……ねえ。なんだか中途半端,,,
,リリィ,通常,,,,.2,,"でも、末吉は起こるのが先になる分
大吉くらいの御利益があるそうですよ",,,
,ヨーコ,通常,,,,.2,,"へえ……確かに『金運、恐れず使え。見返り多し』
だって。",Next,,
Wait,,,,,,.3,,,,,
,ヨーコ,笑い,,,,.2,,今年は良いことありそうね,,,
Tween,ヨーコ,MoveTo,"x=50 y=0 islocal=true time=0.5",easeOutCirc,,,Add,,,,
,ヨーコ,,,,,,,リリィはどうだったの？,,,
Se,紙をめくる音,,,,,,,,,,
,リリィ,通常,,,,.2,,私は……中吉ですね,,,
Tween,リリィ,MoveTo,"x=0 y=40 islocal=true time=.1",easeOutCirc,pingPong=2,,Add,,,,
,リリィ,笑い,,,,.2,,"あ！　『待人、来る』って！
今年こそシイナに会えそうです！",,,
,ヨーコ,真剣,,,,.2,,いや、最後までよく読んだ方がいいわよ,,,
,リリィ,固有,,,,.2,,へ？,,,
Tween,ヨーコ,MoveTo,"x=70 y=0 islocal=true time=0.5",easeOutCirc,,,Add,,,,
,ヨーコ,通常,,,,.2,,ほら、その後に小さく何か書いてる,,,
,リリィ,通常,,,,.2,,"ええと……
『待人、来る……ようなそうでもないような？』",,,
,リリィ,真剣,,,,.2,,どっちなんですか！,,,
,ヨーコ,固有,,,,.2,,"わらわのも続きがあるわ。
『女神の御利益があるお守り販売中！』だって",,,
Tween,リリィ,ShakePosition,"x=10 islocal=true time=.3",,,,Add,,,,
,リリィ,真剣,,,,.2,,なんなんですかこれは！,,,
,ヨーコ,通常,,,,.2,,"なんだか作った人の想像がつきそうな内容ね。
……そうだ、ユリーナはどうだったの？",,,
CharacterOff,,,,,,,,,,,
,ユリーナ,悲しみ,,,,,,う……,Next,,
Wait,,,,,,.5,,,,,
Tween,ユリーナ,ShakePosition,"x=10 islocal=true time=.3",,,,Add,,,,
,ユリーナ,,,,,,,うう……,,,
,ヨーコ,悲しみ,,,,,,ええと……,Next,,
Wait,,,,,,.5,,,,,
,ヨーコ,固有,,,,,,『ナス』ってなにこれ？,,,
Bgm,コミカル,,,,,,,,,,
,リリィ,笑い,,,,,,縁起が良さそうな気がします,,,
,ユリーナ,真剣,,,,,,なんなのこれえ！,,,
,ユリーナ,悲しみ,,,,.2,,『待人、来ません』『金運、最悪です』,Br,,
Wait,,,,,,.3,,,,,
Tween,ユリーナ,ShakePosition,"x=10 islocal=true time=.3",,,,Add,,,,
,ユリーナ,固有,,,,.2,,『願事、自分でなんとかしましょう』って！,,,
,リリィ,悲しみ,,,,,,み、身もふたもないですね,,,
,ヨーコ,悲しみ,,,,,,そもそも『ナス』ってどんな運勢なのよ,,,
,ユリーナ,固有,,,,,,,,,
Tween,ユリーナ,MoveTo,"x=0 y=40 islocal=true time=.1",easeOutCirc,pingPong=2,,Add,,,,
,ユリーナ,真剣,,,,.2,,ありえない！　,Next,,
Wait,,,,,,.3,,,,,
,ユリーナ,,,,,,,"ありえなさすぎ！
こうなったらもう一回引き直してくる！",,,
Se,踏み込み音,,,,,,,,,,
Tween,ユリーナ,MoveAdd,"x=100 y=0 time=1",easeOutQuad,,,Add,,,,
CharacterOff,ユリーナ,,,,,1,,,,,
Wait,,,,,,.5,,,,,
,リリィ,真剣,,,,,,"あ、ちょっとユリーナさん！
それはルール違反なのでは！？",,,
CharacterOff,,,,,,,,,,,
Se,踏み込み音,,,,,,,,,,
,ユリーナ,真剣,,,,1,Add,,,,
Tween,ユリーナ,MoveFrom,"x=-100 y=0 islocal=true time=1",easeOutQuad,,,,,,,
Wait,,,,,,.3,,,,,
,ユリーナ,,,,,,,そんなの知らない！　おみくじ１つちょーだい！,,,
Se,紙をめくる音,,,,,,,,,,
,ユリーナ,笑い,,,,.2,,今度こそ……,Next,,
Wait,,,,,,.5,,,,,
,ユリーナ,真剣,,,,.2,,って、また『ナス』！？,,,
,ヨーコ,真剣,,,,,,よく見て……ナスの前になにかついてる,,,
,ユリーナ,真剣,,,,,,ええと……『大』ナスって、なにそれ！,Br,,
Wait,,,,,,.3,,,,,
,ユリーナ,悲しみ,,,,.2,,余計悪くなってる！？,,,
,リリィ,真剣,,,,,,"さっきのが『凶』で、今度は『大凶』と
いうことでしょうか",,,
,ユリーナ,固有,,,,,,『願事、大ナスです』,Br,,
Wait,,,,,,.3,,,,,
,ユリーナ,真剣,,,,.2,,ダジャレじゃん！　しかも微妙！,,,
,ユリーナ,,,,,,,"ありえない！
こうなったら良いのが出るまでひいてやる！",,,
Se,紙をめくる音,,,,,,,,,,
Wait,,,,,,.3,,,,,
Se,紙をめくる音,,,,,,,,,,
Wait,,,,,,.3,,,,,
Se,紙をめくる音,,,,,,,,,,
Wait,,,,,,.3,,,,,
Se,紙をめくる音,,,,,,,,,,
Wait,,,,,,.3,,,,,
Tween,ユリーナ,ShakePosition,"x=10 islocal=true time=.3",,,,Add,,,,
,ユリーナ,悲しみ,,,,.2,,あ……ああ……ああああ……ありえ、ない……,,,
Wait,,,,,,.3,,,,,
Se,倒れる音,,,,,,,,,,
Tween,ユリーナ,MoveAdd,"x=0 y=-100 time=1",easeOutQuad,,,Add,,,,
CharacterOff,ユリーナ,,,,,1,,,,,
Wait,,,,,,1,,,,,
CharacterOff,,,,,,,,,,,
,ヨーコ,通常,キャラ左,,,,,,,,
,リリィ,通常,キャラ右,,,,,,,,
,ヨーコ,,,,,,,『大ナス』『魔ナス』,Next,,
Wait,,,,,,.3,,,,,
,ヨーコ,悲しみ,,,,.2,,『絶ナス』『虚ナス』,,,
,リリィ,悲しみ,,,,.2,,"すごいですね。
ここまで悪い結果ばかりひくなんて",,,
,ヨーコ,通常,,,,.2,,"それにしてもよくもまあ、ナスをここまで悪者に
できるわね。",Next,,
Wait,,,,,,.3,,,,,
,ヨーコ,悲しみ,,,,.2,,なにか恨みでもあるのかしら,,,
CharacterOff,,,,,,,,,,,
,ユリーナ,悲しみ,,,,,Add,,,,
Tween,ユリーナ,ScaleTo,"time=0 x=1.5 y=1.5",,,,Add,,,,
Tween,ユリーナ,MoveAdd,"x=0 y=-100 time=0",,,,Add,,,,
Tween,BG,ScaleTo,"time=0 x=1.5 y=1.5",,,,Add,,,,
Tween,BG,MoveAdd,"x=0 y=-50 time=0",,,,Add,,,,
Particle,集中線,,,,,,Add,,,,
,ユリーナ,悲しみ,,,,,,もうこの国イヤーーーーー！,,,
CaptureImage,キャプチャーイメージ,SpriteCamera,キャプチャ画像レイヤー,,,,,,,,
CharacterOff,,,,,,0,,,,,
ParticleOff,,,,,,0,,,,,
Bg,背景(黒),,,,,0,,,,,
RuleFadeOut,キャプチャーイメージ,FadeLeftBottom,,,,.5,,,,,
Wait,,,,,,.5,,,,,
CaptureImage,キャプチャーイメージ,SpriteCamera,キャプチャ画像レイヤー,,,,,,,,
Bg,背景(神社),,,,,0,,,,,
Tween,BG,ScaleTo,"time=0 x=1 y=1",,,,,,,,
Tween,BG,MoveAdd,"x=0 y=50 time=0",,,,,,,,
RuleFadeOut,キャプチャーイメージ,FadeLeftBottom,,,,.5,,,,,
StopBgm,,,,,,,,,,,
Bgm,明るいテーマ,,,,,,,,,,
,クロワール,通常,,,,,,ん？　なんか聞き覚えのある声がしなかったか？,,,
,パープルハート新春,笑い,,,,,,きっと、おみくじで良い結果でも出たのよ,Input,,
Selection,*201303-01,,,,0,300,,「そうかなあ……」,,,
*201303-01,,,,,,,,,,,
FadeOut,black,,,,,1,,,,,
Wait,,,,,,.3,,,,,
EndScenario,,,,,,,,,,,
