Command,Arg1,Arg2,Arg3,Arg4,Arg5,Arg6,WaitType,Text,PageCtrl,Voice,WindowType
FadeOut,black,,,,,0,,,,,
Bg,背景(リーンボックス街中：昼),,,,,,,,,,
Wait,,,,,,.3,,,,,
FadeIn,black,,,,,1,,,,,
Bgm,ADV通常,,,,,,,,,,
,ロロ,笑い,,,,,,んー、いい天気！,Br,,
Wait,,,,,,.3,,,,,
,ロロ,固有,,,,.2,,やっぱり早起きは３ゴールドの得だよね,,,
,ロロ,照れ,,,,.2,,今日もがっぽり稼ぐぞー。待っててね、お金ちゃん,,,
CaptureImage,キャプチャーイメージ,SpriteCamera,キャプチャ画像レイヤー,,,,,,,,
CharacterOff,,,,,,0,,,,,
Bg,背景(黒),,,,,0,,,,,
RuleFadeOut,キャプチャーイメージ,FadeHolizontal,,,,.5,,,,,
Wait,,,,,,.5,,,,,
CaptureImage,キャプチャーイメージ,SpriteCamera,キャプチャ画像レイヤー,,,,,,,,
Bg,背景(ベールの部屋：昼),,,,,0,,,,,
RuleFadeOut,キャプチャーイメージ,FadeHolizontal,,,,.5,,,,,
Wait,,,,,,.5,,,,,
Se,ドアノック音,,,,,,,,,,
Wait,,,,,,1,,,,,
,ベール,通常,,,,,,,,,
,ベール,笑い,,,,.2,,はーい、どうぞ。入っていらして,,,
CharacterOff,,,,,,,,,,,
Se,扉開ける音1,,,,,,,,,,
Wait,,,,,,.5,,,,,
,箱崎チカ,目閉じ,,,,1,Add,,,,
Tween,箱崎チカ,MoveFrom,"x=-100 y=0 islocal=true time=1",easeOutQuad,,,,,,,
,箱崎チカ,,,,,,,失礼します。,Next,,
Wait,,,,,,.3,,,,,
,箱崎チカ,真剣,,,,.2,,お姉様、またあの訪問販売が来ました。,Br,,
Wait,,,,,,.3,,,,,
,箱崎チカ,通常,,,,.2,,追い返しますか？,Next,,
Wait,,,,,,.3,,,,,
,箱崎チカ,真剣,,,,.2,,追い返しましょう。追い返します,,,
Se,踏み込み音,,,,,,,,,,
,ロロ,笑い,,,,1,Add,,,,
Tween,ロロ,MoveFrom,"x=100 y=0 islocal=true time=1",easeOutQuad,,,,,,,
,ロロ,,,,,,,そう来ると思ったから勝手に入っちゃった,,,
,箱崎チカ,固有,,,,,,アナタ、いったいどうやってここまで！？,,,
,ロロ,通常,,,,,,ベールお姉ちゃんに秘密の裏口を教えてもらったの,,,
CharacterOff,,,,,,,,,,,
,箱崎チカ,真剣,キャラ左,,,,,,,,
,ベール,通常,キャラ右,,,,,,,,
,箱崎チカ,,,,,,,"お姉様！　そんな重大なことを、
あっさり教えないでください！",,,
,ベール,笑い,,,,.2,,"いいではありませんか。ロロちゃん可愛いですし。
出歩く手間が省けて、わたくしも業務に集中できます",,,
,箱崎チカ,固有,,,,.2,,業務というか、単なるひきこもりですが……,,,
CharacterOff,,,,,,,,,,,
,ロロ,笑い,,,,,,わーい、,Next,,
Wait,,,,,,.3,,,,,
,ロロ,固有,,,,.2,,お金ちゃ…,Next,,
Wait,,,,,,.3,,,,,
,ロロ,笑い,,,,.2,,"…じゃなかった。
ベールお姉ちゃん大好きー♪",,,
,箱崎チカ,真剣,,,,,,"お姉ちゃん、などと慣れ慣れしい……
アナタの前にいるのは一応、女神様だというのに",,,
,ロロ,通常,,,,,,"だって、ベールお姉ちゃんがそう呼んでくれって。
顧客の要望に応えるのは当然でしょう？",,,
,ロロ,笑い,,,,.2,,というわけで、今日も選りすぐりの商品を持って来たよ,,,
,ロロ,照れ,,,,.2,,今日のお薦めはねー……（ごそごそ）,,,
,ロロ,笑い,,,,.2,,"携帯ゲーム機用の超大型バッテリー！
なんと、電池の保ちが通常の３倍！　重さは５倍！",,,
,ロロ,通常,,,,.2,,それからそれから……（ごそごそ）,,,
,ロロ,笑い,,,,.2,,"モニター付き据え置き機運搬ケース！
これでコンセントさえあればどこでもゲームができるよ",,,
,箱崎チカ,真剣,,,,,,"使えそうで使えなさそうな物ばかり押しつけようと
しないでくださる！？",,,
,ロロ,悲しみ,,,,,,"えー、文句が多いなー。
それじゃベールお姉ちゃんの欲しいものは？",,,
CharacterOff,,,,,,,,,,,
,箱崎チカ,通常,キャラ左,,,,,,,,
,ベール,笑い,キャラ右,,,,,,,,
,ベール,,,,,,,わたくしは、ロロちゃんが欲しいですわ,,,
,箱崎チカ,真剣,,,,.2,,ダメです、お姉様！,,,
,ベール,悲しみ,,,,.2,,えー,,,
,ベール,目閉じ,,,,,,でしたら、そうですわねぇ……,Br,,
Wait,,,,,,.3,,,,,
,ベール,悲しみ,,,,.2,,実は最近、肩こりと睡眠不足で悩んでいますの,,,
,箱崎チカ,真剣,,,,,,完全に毎日徹夜でゲームをしているのが原因ですわ,,,
,ベール,悲しみ,,,,,,う……ハッキリ言わなくても分かってますわよ。,Br,,
Wait,,,,,,.3,,,,,
,ベール,笑い,,,,.2,,ともかく、良い健康グッズがあれば嬉しいですわ,,,
CharacterOff,,,,,,,,,,,
,ロロ,通常,,,,,,だったらこの、ドルファ製安眠グッズはどう？,,,
,ロロ,笑い,,,,.2,,"この銅像を枕元に置いておくだけで、
コロリと眠りに落ちるし素敵な夢も見られるんだよ",,,
,箱崎チカ,固有,,,,,,すさまじく胡散臭いわね,,,
,ロロ,笑い,,,,,,じゃあ同じくドルファ製高級マッサージチェア！,,,
,ロロ,照れ,,,,.2,,"座るだけで相手の体型を把握して全身くまなく
マッサージしてくれる優れものだよ！",,,
,ロロ,固有,,,,.2,,"しかも、これだけの機能がありながら
電源不要で電気代はゼロの良いことずくめ！",,,
,ロロ,笑い,,,,.2,,"たまに、中から「家に帰りたい」とか、
「サービス残業つらい」とか聞こえてくるけど",,,
CharacterOff,,,,,,,,,,,
,箱崎チカ,固有,キャラ左,,,,,,,,
,ベール,悲しみ,キャラ右,,,,,,,,
,箱崎チカ,,,,,,,それ絶対、中に社員が入ってるわよね！？,,,
,ベール,,,,,,,わたくしも、そういう禍々しいのはちょっと……,,,
CharacterOff,,,,,,,,,,,
,ロロ,悲しみ,,,,,,"そんな……ダメ？
ベールお姉ちゃんのために持って来たのに……",,,
CharacterOff,,,,,,,,,,,
,箱崎チカ,固有,キャラ左,,,,,,,,
,ベール,悲しみ,キャラ右,,,,,,,,
,ベール,真剣,,,,.2,,全部買いますわ（真顔）,,,
,箱崎チカ,真剣,,,,.2,,"お姉様！　またそうやって衝動買いをして！
だからお部屋にガラクタばかり増えてしまうのですわ！",,,
,ベール,悲しみ,,,,.2,,チカ、小さな女の子を悲しませてはいけませんわ,,,
,ベール,笑い,,,,.2,,"わたくしが買えば、ロロちゃんは喜ぶのです。
それで良いではありませんの",,,
,ベール,悲しみ,,,,.2,,"それに、ロロちゃんはわたくしの生き別れの妹かも
しれませんのよ？",,,
CharacterOff,,,,,,,,,,,
,ロロ,悲しみ,,,,,,それはないかな,,,
CharacterOff,,,,,,,,,,,
,箱崎チカ,,キャラ左,,,,,,,,
,ベール,悲しみ,キャラ右,,,,,,,,
,ベール,悲しみ,,,,,,"ねぇ、いいでしょう？
これを買ったらきっとわたくし元気になりますわ",,,
,箱崎チカ,目閉じ,,,,.2,,"ぐっ……仕方ありませんわね。
今回だけですよ、お姉様",,,
,ベール,笑い,,,,.2,,"チカの許可が下りましたわ。
ロロちゃん、お薦めの商品、全部下さいな",,,
CharacterOff,,,,,,,,,,,
Se,支払い音,,,,,,,,,,
,ロロ,固有,,,,.2,,毎度あり－！　ベールお姉ちゃん大好きー♪,,,
CharacterOff,,,,,,,,,,,
,箱崎チカ,固有,キャラ左,,,,,,,,
,ベール,笑い,キャラ右,,,,,,,,
,ベール,鼻血,,,,.2,,あぁ……その言葉を聞くだけで……,,,
,箱崎チカ,悲しみ,,,,.2,,ハァ……結局、毎回こうなるのよねぇ,,,
CharacterOff,,,,,,,,,,,
,ロロ,固有,,,,,,おっかねー♪　おかねー♪,,,
CharacterOff,,,,,,,,,,,
,箱崎チカ,固有,,,,,,"なんだか最近、この子の手の平で、
踊らされてるだけのような気がするわ……",,,
FadeOut,black,,,,,1,,,,,
Wait,,,,,,.3,,,,,
EndScenario,,,,,,,,,,,
