[
    {
        "7": {
            "クロワール": ""
        },
        "9": {
            "天王星うずめ": ""
        },
        "11": {
            "大人ネプテューヌ": ""
        },
        "13": {
            "大人ネプテューヌ": "新しい街に到着ー！\nレアな昆虫はいるかなー？"
        },
        "14": {
            "天王星うずめ": "そいつはまだ分からないけど、\n美味い食いものはあるみたいだな"
        },
        "15": {
            "天王星うずめ": "あっちの屋台から香ばしい匂いが\nぷんぷんしてくるぜ"
        },
        "17": {
            "大人ネプテューヌ": "くんくん……"
        },
        "20": {
            "大人ネプテューヌ": "本当だ！"
        },
        "21": {
            "クロワール": "『出来立てアツアツ、ヒヨコムシフライ』って、\nのぼりに書いてあるぞ"
        },
        "22": {
            "天王星うずめ": "ある意味、ビジュアルは難ありだが、"
        },
        "24": {
            "天王星うずめ": "エビフライみたいで美味いんだよなぁ"
        },
        "25": {
            "天王星うずめ": "十香も目をキラキラさせながら食ってたし"
        },
        "26": {
            "大人ネプテューヌ": "あはは、そうだったね。クロちゃんは覚えてる？\n異世界から来たみんなのこと"
        },
        "27": {
            "クロワール": "まあ、な。"
        },
        "29": {
            "クロワール": "十香、琴里、四糸乃。\nそれから、狂三……"
        },
        "30": {
            "クロワール": "あいつらは、蓮の悪意に引きずり込まれそうになった\n俺を助けてくれた。感謝してる"
        },
        "31": {
            "「クロワールが素直だ」": {
                "33": {
                    "クロワール": "うるさいな。俺だって命の恩人くらいは\n大事にするよ"
                },
                "34": {
                    "大人ネプテューヌ": "十香たち、元の世界に無事に帰ってるといいけど"
                },
                "35": {
                    "天王星うずめ": "大丈夫だって。\n元の世界に帰るところをちゃんと見届けただろ"
                },
                "36": {
                    "大人ネプテューヌ": "だね。"
                },
                "38": {
                    "大人ネプテューヌ": "きっと今頃は元の世界でのんびりと──"
                },
                "54": {
                    "大人ネプテューヌ": "うわわわわっ！？\n空から何か落っこちてきたよ！？"
                },
                "57": {
                    "五河琴里": ""
                },
                "59": {
                    "四糸乃": ""
                },
                "61": {
                    "五河琴里": "いたた……"
                },
                "62": {
                    "四糸乃": "うぅ……"
                },
                "64": {
                    "クロワール": "おいおい、琴里と四糸乃じゃねーか！？"
                },
                "66": {
                    "五河琴里": ""
                },
                "67": {
                    "四糸乃": ""
                },
                "68": {
                    "五河琴里": "あなた……クロワール？"
                },
                "70": {
                    "五河琴里": "他のみんなもいる……"
                },
                "71": {
                    "四糸乃": "ここは……もしかして……\nネプテューヌさんたちの……世界？"
                }
            }
        },
        "72": {
            "「帰ったんじゃなかったの！？」": {
                "74": {
                    "五河琴里": ""
                },
                "76": {
                    "五河琴里": "それはこっちの台詞よ！"
                },
                "78": {
                    "五河琴里": "たしかに天宮市に戻ったはずなのに……"
                },
                "79": {
                    "四糸乃": "お家に帰ってきたところまでは覚えてます"
                },
                "80": {
                    "五河琴里": "私もよ。玄関を開けて、士道の声がして……"
                },
                "82": {
                    "よしのん": "フシギだよねー。\nよしのんも、何がなんだかサッパリだよ"
                },
                "86": {
                    "天王星うずめ": "そういえば、十香と狂三はどうした？\nあいつらは一緒じゃないのか？"
                },
                "88": {
                    "五河琴里": ""
                },
                "89": {
                    "四糸乃": ""
                },
                "90": {
                    "五河琴里": "そういえば……。"
                },
                "92": {
                    "五河琴里": "途中で別れた狂三はともかく、\nどうして十香はいないのかしら"
                },
                "93": {
                    "四糸乃": "一緒に、帰りました。ちゃんと覚えてます"
                },
                "95": {
                    "大人ネプテューヌ": ""
                },
                "96": {
                    "クロワール": ""
                },
                "97": {
                    "大人ネプテューヌ": "うーん、謎だねぇ……。"
                },
                "99": {
                    "大人ネプテューヌ": "でも大丈夫だよ。またあのゲートで帰ればいいんだから"
                },
                "100": {
                    "クロワール": "いや、そのゲートはとっくに消えちまったんだが"
                },
                "101": {
                    "大人ネプテューヌ": "そういえばそうだった！？"
                },
                "104": {
                    "大人ネプテューヌ": "どどど、どうしよう！？"
                }
            }
        },
        "105": {
            "「みんなで考えよう」": {
                "107": {
                    "クロワール": "だな。お前らには、助けてもらった借りがある。"
                },
                "109": {
                    "クロワール": "いくらでも力を貸すぜ"
                },
                "110": {
                    "大人ネプテューヌ": "クロちゃん素直〜"
                },
                "111": {
                    "クロワール": ""
                },
                "113": {
                    "クロワール": "うるせっ、茶化すなっ"
                },
                "115": {
                    "天王星うずめ": ""
                },
                "116": {
                    "天王星うずめ": "借りはともかく、友達を助けるのは当然のことだよな"
                },
                "118": {
                    "天王星うずめ": "俺たちにどーんと任せてくれ！"
                },
                "120": {
                    "五河琴里": ""
                },
                "121": {
                    "四糸乃": ""
                },
                "122": {
                    "五河琴里": "あんたたち……"
                },
                "124": {
                    "五河琴里": "ありがとう。感謝するわ"
                },
                "125": {
                    "四糸乃": "よ、よろしくお願いします"
                },
                "127": {
                    "よしのん": "それじゃ、さっそく作戦会議だ！\n大船に乗ったつもりでいろよな！"
                },
                "129": {
                    "五河琴里": "それを言うのは、あんたじゃなくて\n<param=player_name>たちでしょうが"
                },
                "140": {
                    "大人ネプテューヌ": ""
                },
                "141": {
                    "天王星うずめ": ""
                },
                "142": {
                    "クロワール": ""
                },
                "143": {
                    "大人ネプテューヌ": "んー……色んなアイディアが出たけど、\nどれもいまいちパッとしないねえ"
                },
                "144": {
                    "天王星うずめ": "なあ、今さらだけどよ。\nクロっちの次元移動じゃダメなのか？"
                },
                "145": {
                    "クロワール": "無理だな。次元移動は近い次元を飛び越えるもんだ"
                },
                "146": {
                    "クロワール": "何度もやりゃあいつかは辿り着けるかもしれねぇが"
                },
                "148": {
                    "クロワール": "いったい何度……いや何十年かかるか分からねぇ"
                },
                "150": {
                    "五河琴里": "なるほど、隣界から隣界へ飛び石みたいに\n飛んで行くことになるわけね。"
                },
                "152": {
                    "五河琴里": "それは確かに無謀だわ"
                },
                "153": {
                    "クロワール": "さすが琴里。理解が早くて助かる"
                },
                "154": {
                    "大人ネプテューヌ": "うーん、それじゃあ琴里たちの世界に遊びに行くのは\n無理そうだねー"
                },
                "155": {
                    "クロワール": "お前、そんなこと考えてたのか。"
                },
                "157": {
                    "クロワール": "まあ、俺のやり方じゃ無理ってだけだ"
                },
                "158": {
                    "クロワール": "やるなら、あのゲートみたいに次元に穴開けて、\n直接あっちとこっちを繋げるのが正解だな"
                },
                "159": {
                    "クロワール": "まあ、琴里たちの世界の座標とか、\n次元に穴開けるだけのエネルギーとか必要だけど"
                },
                "161": {
                    "五河琴里": ""
                },
                "162": {
                    "四糸乃": ""
                },
                "163": {
                    "五河琴里": "エネルギーだけならなんとかなると思うわ。\nここには精霊が二人もいるし"
                },
                "164": {
                    "四糸乃": "私も、がんばりますっ"
                },
                "166": {
                    "よしのん": "よしのんだっているよー！"
                },
                "169": {
                    "クロワール": ""
                },
                "170": {
                    "天王星うずめ": ""
                },
                "171": {
                    "大人ネプテューヌ": ""
                },
                "172": {
                    "クロワール": "その時は俺も手を貸すよ"
                },
                "173": {
                    "天王星うずめ": "となると、あとは座標かあ……"
                },
                "174": {
                    "大人ネプテューヌ": "ねえねえ、そもそもどうして琴里たちは\nこの世界に飛ばされたのかな？"
                },
                "175": {
                    "クロワール": "そりゃあ、蓮のやつが……"
                },
                "177": {
                    "五河琴里": "いえ、蓮は私たちより先にクロワールに接触していた。\nじゃあ、その蓮はどうやってこっちに来たのか……"
                },
                "178": {
                    "五河琴里": "むしろ、蓮は便乗しただけなんじゃないかしら？\n私たちをこの世界に飛ばした、何か別の力に……"
                },
                "180": {
                    "クロワール": ""
                },
                "181": {
                    "天王星うずめ": ""
                },
                "182": {
                    "クロワール": "確かに、言われてみりゃおかしいよな"
                },
                "183": {
                    "天王星うずめ": "つまり、この件はまだ終わってない。\nむしろ、始まってすらいなかったってわけか"
                },
                "185": {
                    "五河琴里": "だとしたら、ネプテューヌの言うように、\nそもそもの原因を知る必要がありそうね"
                },
                "187": {
                    "四糸乃": ""
                },
                "190": {
                    "よしのん": "でもよー、そんなことできんのかー？\n手がかりなんてなーんにもないんだぜー"
                },
                "192": {
                    "四糸乃": "うん、分からないことだらけ"
                },
                "194": {
                    "クロワール": ""
                },
                "195": {
                    "大人ネプテューヌ": ""
                },
                "196": {
                    "天王星うずめ": ""
                },
                "197": {
                    "クロワール": "いや、ある。というより、いるだろ。"
                },
                "199": {
                    "クロワール": "そういうのに打ってつけな何でも知ってるお姉さんが"
                },
                "200": {
                    "大人ネプテューヌ": "ええと……"
                },
                "203": {
                    "大人ネプテューヌ": "あ、そっか！"
                },
                "204": {
                    "天王星うずめ": "そうか、あの人なら知ってるかもしれないな！"
                },
                "206": {
                    "五河琴里": ""
                },
                "207": {
                    "五河琴里": "ちょっと、あなたたちだけで盛り上がってないで\n私たちにもちゃんと説明してちょうだい"
                },
                "208": {
                    "クロワール": ""
                },
                "209": {
                    "クロワール": "悪い悪い。とにかく会いに行こうぜ。\n彼女に──"
                }
            }
        },
        "210": {
            "「リトル・スノー……」": []
        }
    }
]