[
    {
        "8": {
            "レリック・オンスロート": ""
        },
        "20": {
            "グリーンハート神次元": "ふっ……勝ちましたわ"
        },
        "22": {
            "イエローハート": "いたた……"
        },
        "24": {
            "イエローハート": "うーん、おばさんたち強いね！"
        },
        "26": {
            "グリーンハート神次元": "お・ね・え・さ・ん！"
        },
        "28": {
            "イクス": ""
        },
        "29": {
            "イエローハート": ""
        },
        "30": {
            "イクス": "挨拶としては、こんなものか。\nじゃ、今日のところは、おさらばバイバイ～"
        },
        "38": {
            "クロワール": ""
        },
        "39": {
            "グリーンハート神次元": ""
        },
        "40": {
            "クロワール": "……イエローハート、か"
        },
        "41": {
            "グリーンハート神次元": "守護女神を名乗るなんて、\nいったい何者なのかしら……"
        },
        "42": {
            "クロワール": "まあ、レリックを撃退できたことだし、\n今日はいいんじゃねえか？"
        },
        "44": {
            "リドル": "『もしもし、聞こえる－？　アイナさんたちの方は、\n　敵を殲滅させたよ。そっちはどう？』"
        },
        "57": {
            "「アイリス？」": []
        },
        "58": {
            "「どうかしたの？」": []
        },
        "73": {
            "「歩けばいいと思うよ」": {
                "76": {
                    "アイリス": "え……"
                },
                "79": {
                    "クロワール": ""
                },
                "80": {
                    "グリーンハート神次元": ""
                },
                "81": {
                    "グリーンハート神次元": "まずはなんでもいいから一歩踏み出せ――"
                },
                "83": {
                    "グリーンハート神次元": "<param=player_name>はそう言っているのですわ"
                },
                "84": {
                    "クロワール": "こいつは、そこまで深い意味で言ってないと思うぞ"
                },
                "85": {
                    "クロワール": "どうせ『知らないなら歩いて見て回ってこい』とか、\nそんなところだろ"
                }
            }
        },
        "87": {
            "「歩くの楽しいよ」": {
                "90": {
                    "クロワール": "あ、誤魔化した"
                },
                "92": {
                    "アイリス": "知らないことを、知る……歩いて見て回る……"
                },
                "93": {
                    "アイリス": "あ、あの！"
                },
                "94": {
                    "アイリス": "わたくしを、\n同行させてもらえないでしょうか！"
                },
                "96": {
                    "シャロン": ""
                },
                "98": {
                    "シャロン": "姫様、何を言い出すんですかっ！？"
                },
                "100": {
                    "アイリス": "わたくしは守られるだけではなく、守るための\n力や知恵も得なくてはならないと強く感じました"
                },
                "101": {
                    "アイリス": "クーデターによって奪われた国はいつか取り戻します"
                },
                "102": {
                    "アイリス": "ですが、その前に私は知識を蓄え、\n経験を積む必要があるように思うのです"
                },
                "103": {
                    "アイリス": "ですから、お願いします。\nどうか、わたくしを連れて行ってください"
                }
            }
        },
        "106": {
            "「僕は――」": []
        },
        "112": {
            "「わたしは――」": []
        },
        "135": {
            "「！？」": {
                "139": {
                    "天王星うずめ": "ようやく起きたか。"
                },
                "141": {
                    "天王星うずめ": "もう昼過ぎだぞ"
                }
            }
        },
        "143": {
            "「お姫様は？」": {
                "146": {
                    "天王星うずめ": "お姫さま？\nまだ寝ぼけてるのか"
                }
            }
        },
        "144": {
            "「綠のおば……おねえさんは？」": {
                "150": {
                    "天王星うずめ": "綠の……いや、なんだろう、"
                },
                "152": {
                    "天王星うずめ": "その言葉を口にしちゃいけない気がする"
                }
            }
        },
        "164": {
            "「黄色い女の子と綠の――」": {
                "176": {
                    "クロワール": "……なるほどな。"
                },
                "178": {
                    "クロワール": "いや、なんでもねぇ。"
                },
                "180": {
                    "クロワール": "俺は先にロビーで待ってるよ"
                },
                "194": {
                    "クロワール": "……黄色い女、イエローハートのことか。\n綠のおば……お姉さんはグリーンハートのことだろうな"
                },
                "195": {
                    "クロワール": "記憶の断片が蘇りつつあるのか。"
                },
                "197": {
                    "クロワール": "だけど、まだ先は長そうだな……"
                }
            }
        }
    }
]