[
    {
        "6": {
            "ファウスト": ""
        },
        "7": {
            "リーリア": ""
        },
        "8": {
            "リーリア": "くっ、やられた……"
        },
        "9": {
            "ファウスト": "こちらは人数の差で負けたようなものよ"
        },
        "11": {
            "ベール": ""
        },
        "16": {
            "ベール": "（とんとん）"
        },
        "17": {
            "「なに？」": {
                "22": {
                    "ベール": "<size=22>ヤリマシタワ(´▽｀*)</size>"
                },
                "23": {
                    "箱崎チカ": "……お姉さま、もう音量を戻してもよろしいですわよ"
                },
                "24": {
                    "箱崎チカ": "さて、敵の皆さん、お姉さまを元に戻す方法を、\n教えてくれるのでしょうね？"
                },
                "25": {
                    "リーリア": "知らないわよ、あいつが勝手にやったことでしょ！"
                },
                "26": {
                    "箱崎チカ": "まあ！　負けたのに、なんて態度なの"
                },
                "27": {
                    "大人ネプテューヌ": "ワレチューは～？"
                },
                "30": {
                    "ワレチュー": ""
                },
                "33": {
                    "ワレチュー": "ぢゅーーーー！？"
                },
                "34": {
                    "ワレチュー": "お、おまえもいたっちゅかー！？"
                },
                "35": {
                    "ワレチュー": "あの標本女は勘弁っちゅ！\nダッシュで逃げるっちゅーーーっ！"
                },
                "39": {
                    "箱崎チカ": ""
                },
                "42": {
                    "箱崎チカ": "あなたを逃がすわけが――"
                },
                "44": {
                    "アイエフ": ""
                },
                "46": {
                    "アイエフ": "ないでしょ！"
                },
                "48": {
                    "ワレチュー": "ぢゅぢゅー！　捕まったっちゅー！"
                }
            }
        },
        "49": {
            "「どういう因縁が……」": {
                "52": {
                    "クロワール": "まあ、だいぶ前に神次元でな"
                },
                "53": {
                    "ワレチュー": ""
                },
                "56": {
                    "ワレチュー": "標本にするとか言って、追い掛け回されたっちゅ！\nあのノートに吸い込まれるのめちゃくちゃ怖いっちゅ！"
                },
                "57": {
                    "クロワール": "あれは確かに怖い……思い出すだけでも"
                },
                "60": {
                    "クロワール": "……おおうっ"
                },
                "62": {
                    "コンパ": ""
                },
                "63": {
                    "大人ネプテューヌ": ""
                },
                "64": {
                    "コンパ": "おっきいねぷねぷ、ネズミさんを怯えさせては、\nめっ、なのです"
                },
                "65": {
                    "大人ネプテューヌ": "そんなつもりはないんだけどな～"
                },
                "68": {
                    "ワレチュー": ""
                },
                "69": {
                    "コンパ": ""
                },
                "71": {
                    "コンパ": "ネズミさん、お怪我の手当てをしましょうね。\nそれから、お話を聞かせてください"
                },
                "72": {
                    "ワレチュー": "な、なんでっちゅ……\nなんでそんなに優しくしてくれるっちゅ？"
                },
                "73": {
                    "コンパ": "怪我をしている相手に、敵味方は関係ないですよ。"
                },
                "74": {
                    "ワレチュー": "なんて優しいお姉さんっちゅ"
                },
                "76": {
                    "ワレチュー": "……きゅんっ"
                },
                "79": {
                    "ファウスト": "………"
                },
                "84": {
                    "アイエフ": ""
                },
                "87": {
                    "アイエフ": "どさくさに紛れて逃げようとしないで"
                },
                "88": {
                    "ファウスト": "心配しなくても逃げたりなんてしないわ。\n守護女神が喋れるようになる薬を持ってくるだけよ"
                },
                "89": {
                    "アイエフ": "そんなの信じられるわけ――"
                }
            }
        },
        "90": {
            "「(´･ω･`)大丈夫だよ」": {
                "92": {
                    "アイエフ": "え……でも……"
                },
                "94": {
                    "大人ネプテューヌ": ""
                },
                "95": {
                    "クロワール": ""
                },
                "96": {
                    "大人ネプテューヌ": "<param=player_name>が言うんだから、大丈夫だよ"
                },
                "97": {
                    "クロワール": "どーでもいいけど、そのしゃべり方いつまで続けるんだ"
                },
                "99": {
                    "ファウスト": "……すぐに、持ってくるわ"
                },
                "113": {
                    "ファウスト": ""
                },
                "115": {
                    "ファウスト": "これよ。飲んで"
                },
                "116": {
                    "ベール": ""
                },
                "120": {
                    "ベール": "これをのべちあ、ほんとうにｓもてに……"
                },
                "121": {
                    "箱崎チカ": "お姉さま落ち着いてください。\nタイピングミスしてますわ"
                },
                "123": {
                    "ファウスト": ""
                },
                "124": {
                    "リーリア": ""
                },
                "125": {
                    "リーリア": "ちょっとファウスト、あたしたちを裏切る気？"
                },
                "126": {
                    "ファウスト": "もともと、仲間になったつもりなんてないわ。\n必要だから、協力しているだけよ"
                },
                "129": {
                    "メリー": "それがホントならさ、ファウストちゃん、\nボクはね？　悲しいよ"
                },
                "136": {
                    "ファウスト": ""
                },
                "145": {
                    "ファウスト": "ああっ！"
                },
                "151": {
                    "ベール": ""
                },
                "155": {
                    "ベール": "くぁwせdrftgyふじこlp！！"
                }
            }
        }
    }
]