Command,Arg1,Arg2,Arg3,Arg4,Arg5,Arg6,WaitType,Text,PageCtrl,Voice,WindowType,
FadeOut,black,,,,,0,,,,,,
Bg,背景(森：昼),,,,,,,,,,,
Wait,,,,,,.3,,,,,,
FadeIn,black,,,,,1,,,,,,
Bgm,ADV通常,,,,,,,,,,,
,ネプテューヌクリスマス,通常,,,,.2,,タイムアーップ！　,Next,,,
Wait,,,,,,.3,,,,,,
,ネプテューヌクリスマス,真剣,,,,.2,,"１回戦終わりっ！
みんな、集めてきた木イチゴを見せてっ",,,,
CharacterOff,,,,,,,,,,,,
Se,踏み込み音,,,,,,,,,,,
,オレンジハートクリスマス,通常,,,,1,Add,,,,,
Tween,オレンジハートクリスマス,MoveFrom,"x=100 y=0 islocal=true time=1",easeOutQuad,,,,,,,,
,オレンジハートクリスマス,笑い,,,,.2,,はーい、どうぞっ☆,,,,
Se,倒れる音,,,,,,,,,,,
Tween,オレンジハートクリスマス,MoveTo,"x=0 y=-15 islocal=true time=.2",easeOutCirc,pingPong=2,,,,,,,
Wait,,,,,,.5,,,,,,
,ネプテューヌクリスマス,通常,,,,.2,,わ～、どの袋もパンパン！,Br,,,
Wait,,,,,,.3,,,,,,
,ネプテューヌクリスマス,笑い,,,,.2,,これだけあれば、ケーキも作り放題食べ放題だ♪,,,,
CharacterOff,,,,,,,,,,,,
,ブランクリスマス,通常,キャラ左,,,,,,,,,
,ノワールクリスマス,通常,キャラ右,,,,,,,,,
,ブランクリスマス,悲しみ,,,,.2,,なんでネプテューヌが喜んでるのよ,,,,
,ノワールクリスマス,通常,,,,.2,,これって、サンタ力を計るための試合なのよね？,,,,
CharacterOff,,,,,,,,,,,,
,ネプテューヌクリスマス,笑い,,,,,,,,,,
Tween,ネプテューヌクリスマス,MoveTo,"x=0 y=40 islocal=true time=.1",easeOutCirc,pingPong=2,,Add,,,,,
,ネプテューヌクリスマス,通常,,,,.2,,も、もちろん！　,Next,,,
Wait,,,,,,.3,,,,,,
,ネプテューヌクリスマス,真剣,,,,.2,,"わたしはね、みんなが
サンタとして成長したことを喜んでるんだよ",,,,
CharacterOff,,,,,,,,,,,,
,ブランクリスマス,悲しみ,キャラ左,,,,,,,,,
,ノワールクリスマス,通常,キャラ右,,,,,,,,,
,ブランクリスマス,通常,,,,,,,,,,
SendMessageByName,AdvEngine,ChangeNoGrayOutCharacter,"ブラン,ノワールクリスマス",,,,Add,,,,,
,ブラン＆ノワール,<Character=>,,,,,,ふーん……,,,,
CharacterOff,,,,,,,,,,,,
,シイナクリスマス,通常,キャラ右,,,,,,,,,
,ネプギアクリスマス,通常,キャラ左,,,,,,,,,
,シイナクリスマス,通常,,,,.2,,あの、１回戦は、誰の勝ちなんでしょう？,Br,,,
Wait,,,,,,.3,,,,,,
,シイナクリスマス,真剣,,,,.2,,木イチゴの重さと個数、どちらで判断するんですか？,,,,
,ネプギアクリスマス,真剣,,,,.2,,集計作業が大変なら、お手伝いしますっ,,,,
CharacterOff,,,,,,,,,,,,
,ネプテューヌクリスマス,真剣,,,,,,,,,,
,ネプテューヌクリスマス,目閉じ,,,,.2,,んー、,Next,,,
Wait,,,,,,.6,,,,,,
,ネプテューヌクリスマス,通常,,,,.2,,この勝負は引き分けだね！,Br,,,
Wait,,,,,,.3,,,,,,
,ネプテューヌクリスマス,笑い,,,,.2,,みんな同じくらい集めてきてるし,,,,
CharacterOff,,,,,,,,,,,,
,シイナクリスマス,悲しみ,キャラ右,,,,,,,,,
,ネプギアクリスマス,悲しみ,キャラ左,,,,,,,,,
SendMessageByName,AdvEngine,ChangeNoGrayOutCharacter,"シイナクリスマス,ネプギアクリスマス",,,,Add,,,,,
,シイナ＆ネプギア,<Character=>,,,,,,そうですか……,,,,
CharacterOff,,,,,,,,,,,,
,クロワール,通常,,,,,,,,,,
,クロワール,固有,,,,.2,,ビックリするくらいアバウトなジャッジだな,,,,
,ノワールクリスマス,通常,,,,.2,,ネプテューヌらしいと言えばそうだけど、,Br,,,
Wait,,,,,,.3,,,,,,
,ノワールクリスマス,悲しみ,,,,.2,,いつにも増していい加減よね……,Input,,,
Selection,*202303-01,,,,0,300,,「二人とも、元気出して」,,,,
*202303-01,,,,,,,,,,,,
CharacterOff,,,,,,,,,,,,
,シイナクリスマス,悲しみ,キャラ右,,,,,,,,,
,ネプギアクリスマス,悲しみ,キャラ左,,,,,,,,,
,シイナクリスマス,笑い,,,,.2,,ありがとうございます。,Next,,,
Wait,,,,,,.3,,,,,,
,シイナクリスマス,通常,,,,.2,,"自信があったので
がっかりしたけど、",Next,,,
Wait,,,,,,.3,,,,,,
,シイナクリスマス,真剣,,,,.2,,ここで挫けたりしません,,,,
,ネプギアクリスマス,通常,,,,.2,,引き分けってことは、次の試合もありますよね？,Br,,,
Wait,,,,,,.3,,,,,,
,ネプギアクリスマス,真剣,,,,.2,,今度こそ結果を出してみせます！,,,,
CharacterOff,,,,,,,,,,,,
,オレンジハートクリスマス,笑い,,,,,,,,,,
Tween,オレンジハートクリスマス,MoveTo,"x=0 y=40 islocal=true time=.1",easeOutCirc,pingPong=2,,Add,,,,,
,オレンジハートクリスマス,真剣,,,,.2,,わたしも負けないよぉー！,,,,
,ネプテューヌクリスマス,笑い,,,,,,,,,,
Tween,ネプテューヌクリスマス,MoveTo,"x=0 y=-15 islocal=true time=.2",easeOutCirc,pingPong=2,,Add,,,,,
,ネプテューヌクリスマス,笑い,,,,.2,,うんうん、その意気！,Br,,,
Wait,,,,,,.3,,,,,,
,ネプテューヌクリスマス,通常,,,,.2,,第２回戦のお題は、スライヌ退治だよ！,,,,
,ネプテューヌクリスマス,真剣,,,,.2,,"この森に大量発生したスライヌを、
いちばん多くやっつけた人の勝ち！",,,,
,ブランクリスマス,通常,,,,.2,,木イチゴ集めの次は、モンスター退治？,Br,,,
Wait,,,,,,.3,,,,,,
,ブランクリスマス,悲しみ,,,,.2,,次の勝負も、サンタとの接点が見えないんだけど,,,,
,ネプテューヌクリスマス,真剣,,,,.2,,"たくさんのプレゼントを持ったサンタは、
悪者に狙われるから、高い戦闘力が必要なんだよ！",,,,
CharacterOff,,,,,,,,,,,,
StopBgm,,,,,,,,,,,,
Bgm,不穏,,,,,,,,,,,
,ネプテューヌクリスマス,真剣,,,,,Add,,,,,
Tween,ネプテューヌクリスマス,MoveTo,"y=-100 islocal=true time=0",,,,Add,,,,,
Tween,ネプテューヌクリスマス,ScaleTo,"x=1.5 y=1.5 time=0",,,,Add,,,,,
Tween,BG,ColorTo,"color=red time=2",,,,Add,,,,,
,ネプテューヌクリスマス,真剣,,,,.2,,"サンタの衣装が赤いのは、戦闘で浴びた返り血が
目立たないためだってこと知らないの？",,,,
FadeOut,red,,,,,.5,,,,,,
Tween,BG,ColorTo,"color=white time=0",,,,Add,,,,,
CharacterOff,,,,,,0,,,,,,
FadeIn,red,,,,,.5,,,,,,
,シイナクリスマス,悲しみ,キャラ右,,,,,,,,,
,ネプギアクリスマス,悲しみ,キャラ左,,,,,,,,,
Tween,ネプギアクリスマス,MoveTo,"x=0 y=40 islocal=true time=.1",easeOutCirc,pingPong=2,,Add,,,,,
,ネプギアクリスマス,真剣,,,,.2,,ええっ！？　そうだったんですかっ？,,,,
,シイナクリスマス,悲しみ,,,,.2,,"言われてみれば、サンタの服の色って、
血液の色に近いですよねっ……",,,,
StopBgm,,,,,,,,,,,,
CharacterOff,,,,,,,,,,,,
Bgm,ADV通常,,,,,,,,,,,
,ブランクリスマス,悲しみ,キャラ左,,,,,,,,,
,ノワールクリスマス,悲しみ,キャラ右,,,,,,,,,
,ブランクリスマス,固有,,,,.2,,また適当なことを……,,,,
,ノワールクリスマス,真剣,,,,.2,,ネプギアたち信じちゃってるじゃない,,,,
CharacterOff,,,,,,,,,,,,
,ネプテューヌクリスマス,真剣,,,,,,,,,,
,ネプテューヌクリスマス,悲しみ,,,,.2,,だーかーらー、,Next,,,
Wait,,,,,,.3,,,,,,
,ネプテューヌクリスマス,真剣,,,,.2,,ほんとだって！,,,,
,ネプテューヌクリスマス,真剣,,,,.2,,"ふんっだ。そんなに文句ばっか言ってたら
ブランとノワールは失格の負け組にしちゃうよ！",,,,
CharacterOff,,,,,,,,,,,,
,ブランクリスマス,固有,キャラ左,,,,,,,,,
,ノワールクリスマス,真剣,キャラ右,,,,,,,,,
,ノワールクリスマス,固有,,,,.2,,なにその横暴！？,,,,
,ブランクリスマス,悲しみ,,,,.2,,"こんなので負けにされるの
それはそれで悔しいわね",,,,
CharacterOff,,,,,,,,,,,,
,ネプテューヌクリスマス,真剣,,,,.2,,だったら、２回戦も頑張って！,Br,,,
Se,斬撃1,,,,,,,,,,,
Wait,,,,,,1,,,,,,
Tween,ネプテューヌクリスマス,MoveTo,"x=0 y=40 islocal=true time=.1",easeOutCirc,pingPong=2,,Add,,,,,
,ネプテューヌクリスマス,笑い,,,,.2,,あっ、見て！　オレンジハートがもう１匹倒したよっ,,,,
CaptureImage,キャプチャーイメージ,SpriteCamera,キャプチャ画像レイヤー,,,,,,,,,
CharacterOff,,,,,,0,,,,,,
Bg,背景(黒),,,,,0,,,,,,
RuleFadeOut,キャプチャーイメージ,FadeLeftBottom,,,,.5,,,,,,
Wait,,,,,,.5,,,,,,
CaptureImage,キャプチャーイメージ,SpriteCamera,キャプチャ画像レイヤー,,,,,,,,,
Bg,背景(森：昼),,,,,0,,,,,,
RuleFadeOut,キャプチャーイメージ,FadeLeftBottom,,,,.5,,,,,,
,オレンジハートクリスマス,真剣,,,,.2,,よぉーし、このまま優勝しちゃうぞー！,Br,,,
Wait,,,,,,.3,,,,,,
,オレンジハートクリスマス,笑い,,,,.2,,みんなには悪いけど、負けてもらうから☆彡,,,,
CaptureImage,キャプチャーイメージ,SpriteCamera,キャプチャ画像レイヤー,,,,,,,,,
CharacterOff,,,,,,0,,,,,,
Bg,背景(黒),,,,,0,,,,,,
RuleFadeOut,キャプチャーイメージ,FadeLeftBottom,,,,.5,,,,,,
Wait,,,,,,.5,,,,,,
CaptureImage,キャプチャーイメージ,SpriteCamera,キャプチャ画像レイヤー,,,,,,,,,
Bg,背景(森：昼),,,,,0,,,,,,
RuleFadeOut,キャプチャーイメージ,FadeLeftBottom,,,,.5,,,,,,
,シイナクリスマス,真剣,キャラ右,,,,,,,,,
,ネプギアクリスマス,真剣,キャラ左,,,,,,,,,
Tween,シイナクリスマス,ScaleTo,"x=0.9 y=0.9 time=0.2",,,,Add,,,,,
Tween,ネプギアクリスマス,ScaleTo,"x=0.9 y=0.9 time=0.2",,,,,,,,,
Wait,,,,,,.2,,,,,,
Se,疾走音,,,,,,,,,,,
Tween,シイナクリスマス,ScaleTo,"x=2 y=2 time=0.5",,,,Add,,,,,
Tween,シイナクリスマス,MoveAdd,"x=0 y=-150 time=.5",,,,Add,,,,,
Tween,ネプギアクリスマス,ScaleTo,"x=2 y=2 time=0.5",,,,Add,,,,,
Tween,ネプギアクリスマス,MoveAdd,"x=0 y=-150 time=.5",,,,,,,,,
CharacterOff,,,,,,,,,,,,
Wait,,,,,,.3,,,,,,
CharacterOff,,,,,,,,,,,,
,スライヌA,通常,キャラ中央左,,,,,,,,,
,スライヌB,通常,キャラ中央右,,,,,,,,,
Wait,,,,,,.5,,,,,,
Shake,Graphics,,,,,,Add,,,,,
Se,斬撃1,,,,,,,,,,
Particle,袈裟斬り,,スプライトレイヤー,-225,0,,,,,,
Wait,,,,,,.1,,,,,
ParticleOff,,,,,,,,,,,
Wait,,,,,,.1,,,,,
Se,斬撃1,,,,,,,,,,
Particle,袈裟斬り,,スプライトレイヤー,225,0,,,,,,
Wait,,,,,,.2,,,,,
ParticleOff,,,,,,,,,,,
Wait,,,,,,.5,,,,,,
Se,倒れる音,,,,,,,,,,,
Tween,スライヌA,MoveAdd,"x=0 y=-100 time=1",easeOutQuad,,,Add,,,,,
CharacterOff,スライヌA,,,,,1,,,,,,
Tween,スライヌB,MoveAdd,"x=0 y=-100 time=1",easeOutQuad,,,Add,,,,,
CharacterOff,スライヌB,,,,,1,,,,,,
Wait,,,,,,1,,,,,,
CaptureImage,キャプチャーイメージ,SpriteCamera,キャプチャ画像レイヤー,,,,,,,,,
CharacterOff,,,,,,0,,,,,,
Bg,背景(黒),,,,,0,,,,,,
RuleFadeOut,キャプチャーイメージ,FadeLeftBottom,,,,.5,,,,,,
Wait,,,,,,.5,,,,,,
CaptureImage,キャプチャーイメージ,SpriteCamera,キャプチャ画像レイヤー,,,,,,,,,
Bg,背景(森：昼),,,,,0,,,,,,
RuleFadeOut,キャプチャーイメージ,FadeLeftBottom,,,,.5,,,,,,
,ネプテューヌクリスマス,通常,,,,.2,,"おっ、シイナとネプギアも１匹倒したみたいだよ！
今のとこ、ノワールとブランがビリだね",,,,
CharacterOff,,,,,,,,,,,,
,ブランクリスマス,通常,キャラ左,,,,,,,,,
,ノワールクリスマス,通常,キャラ右,,,,,,,,,
Tween,ノワールクリスマス,ShakePosition,"x=10 islocal=true time=.3",,,,Add,,,,,
,ノワールクリスマス,真剣,,,,.2,,ぐっ……やればいいんでしょ、やれば！,,,,
,ブランクリスマス,真剣,,,,.2,,ちょっと行ってくる……,,,,
Se,踏み込み音,,,,,,,,,,,
Tween,ノワールクリスマス,MoveAdd,"x=100 y=0 time=1",easeOutQuad,,,Add,,,,,
CharacterOff,ノワールクリスマス,,,,,1,Add,,,,,
Tween,ブランクリスマス,MoveAdd,"x=100 y=0 time=1",easeOutQuad,,,Add,,,,,
CharacterOff,ブランクリスマス,,,,,1,,,,,,
Wait,,,,,,.5,,,,,,
CharacterOff,,,,,,,,,,,,
,ネプテューヌクリスマス,笑い,,,,.2,,うんうん、頑張ってねー。,Next,,,
Wait,,,,,,.3,,,,,,
,ネプテューヌクリスマス,通常,,,,.2,,"あ、他の人への
妨害は禁止だからねー！　",Next,,,
Wait,,,,,,.3,,,,,,
,ネプテューヌクリスマス,真剣,,,,.2,,公平に戦おう！,,,,
,ネプテューヌクリスマス,真剣,,,,,,,,,,
Tween,ネプテューヌクリスマス,MoveTo,"x=0 y=-15 islocal=true time=.2",easeOutCirc,pingPong=2,,Add,,,,,
,ネプテューヌクリスマス,目閉じ,,,,.2,,ぱくっ……,Next,,,
Wait,,,,,,1,,,,,,
Tween,ネプテューヌクリスマス,MoveTo,"y=-10 islocal=true time=0.1",,pingPong=4,,Add,,,,,
,ネプテューヌクリスマス,目閉じ,,,,.2,,もぐもぐ、,Next,,,
Wait,,,,,,.8,,,,,,
Tween,ネプテューヌクリスマス,ShakePosition,"x=10 islocal=true time=.3",,,,Add,,,,,
,ネプテューヌクリスマス,照れ,,,,.2,,うーん、美味しい♪,,,,
,クロワール,通常,,,,,,,,,,
,クロワール,悲しみ,,,,.2,,"おい、勝手に食べていいのかよ。
みんなが集めやつだろ",,,,
,ネプテューヌクリスマス,通常,,,,.2,,少しくらい食べても平気だよ。,Br,,,
Wait,,,,,,.3,,,,,,
,ネプテューヌクリスマス,笑い,,,,.2,,わたしが引き分けって言ったら、引き分けなの～,,,,
CharacterOff,,,,,,,,,,,,
,クロワール,悲しみ,,,,.2,,ほんとやりたい放題だな。,Br,,,
Wait,,,,,,.3,,,,,,
,クロワール,真剣,,,,.2,,そろそろ手を打っとくか……,,,,
FadeOut,black,,,,,1,,,,,,
Wait,,,,,,.3,,,,,,
EndScenario,,,,,,,,,,,
