[
    {
        "6": {
            "ネプテューヌ無印": ""
        },
        "8": {
            "クロワール": ""
        },
        "10": {
            "教員": "お帰りなさいませ、パープルハート様"
        },
        "11": {
            "教員": "イストワール様や他の守護女神の皆さまが\n探しておられましたよ"
        },
        "12": {
            "ネプテューヌ無印": "あー……うん、ごめんね"
        },
        "13": {
            "教員": "おや、そちらのお二人は……"
        },
        "14": {
            "ネプテューヌ無印": "えーっと、実はわたしもさっき会ったばっかなんだー"
        },
        "15": {
            "教員": "まさか、神界の方々！？"
        },
        "16": {
            "教員": "これは大変失礼いたしました。\n皆さま、ようこそおいでくださいました"
        },
        "17": {
            "教員": "ただいま、お茶菓子を用意して参ります。\n少々お待ち下さいませ"
        },
        "18": {
            "クロワール": "ずいぶん大げさな対応だな。\n女神様ってのはよっぽど偉いんだな"
        },
        "19": {
            "ネプテューヌ無印": "んー、まあ、いろいろあったからね"
        },
        "21": {
            "「いろいろ？」": {
                "24": {
                    "ネプテューヌ無印": "んーっとね……"
                },
                "33": {
                    "ネプテューヌ無印": ""
                },
                "34": {
                    "クロワール": ""
                },
                "35": {
                    "ネプテューヌ無印": "いやー、急にドラゴンになったときは焦ったよ"
                },
                "36": {
                    "ネプテューヌ無印": "「世界の半分をお前にやろう……」\nとか言われるかと思っちゃったもん"
                }
            }
        },
        "38": {
            "「すごい冒険をしたんだね」": {
                "41": {
                    "ネプテューヌ無印": "えへへ。まあねー"
                },
                "42": {
                    "ネプテューヌ無印": "その辺の詳しいことは、ゲームをプレイしてね！"
                }
            }
        },
        "44": {
            "「ダイマ？」": {
                "47": {
                    "ネプテューヌ無印": "あ、こっちの話だから気にしないで。\n記録もあるからそっちを見てもいいけど――"
                },
                "48": {
                    "クロワール": "……異端者に、ギルドに、守護女神戦争か。ははっ！\nへっへっへ……こいつは検索のしがいがあるぜ……"
                },
                "49": {
                    "ネプテューヌ無印": "って、もうやってるみたい"
                }
            }
        },
        "51": {
            "「楽しそう」": {
                "55": {
                    "クロワール": "ああ、めちゃくちゃ楽しいぜ！　ぐふふふ……"
                }
            }
        },
        "52": {
            "「ちょっと怖い……」": {
                "59": {
                    "クロワール": "おい、聞こえてるぞ！"
                }
            }
        },
        "64": {
            "「どうしたの？」": []
        },
        "65": {
            "「悩み事？」": []
        },
        "85": {
            "「自分にウソはつけない……と思う」": {
                "88": {
                    "ネプテューヌ無印": "そっかぁ……"
                },
                "91": {
                    "ネプテューヌ無印": "やっぱりそうだよね。\n……うん！　わたし決めたよ！"
                },
                "92": {
                    "ネプテューヌ無印": "わたしはわたしの思った通りにやる！"
                }
            }
        },
        "94": {
            "「それでこそネプテューヌ」": {
                "97": {
                    "ネプテューヌ無印": "えへへー……なんだか照れるなぁ"
                },
                "118": {
                    "レリック・オンスロート": ""
                },
                "121": {
                    "レリック・オンスロート": "キシャァァァッ！！"
                },
                "124": {
                    "ネプテューヌ無印": "え……？　ななな、なにこれ！？"
                },
                "125": {
                    "クロワール": "レリック・オンスロート！\n俺たちを追ってきやがったか！"
                },
                "126": {
                    "ネプテューヌ無印": "え、何こいつ！？　ちょっと気持ち悪いっていうか、\nやだぁ、あのうにょうにょしたの～！"
                },
                "127": {
                    "クロワール": "厄介なやつらがきたな……\n<param=player_name>、いけるか？"
                }
            }
        },
        "129": {
            "「二人とも下がってて」": {
                "132": {
                    "ネプテューヌ無印": "ううん……大丈夫だよ、<param=player_name>"
                },
                "133": {
                    "ネプテューヌ無印": "ここはプラネテューヌ。\n戦うのは守護女神のお仕事なんだから！"
                },
                "134": {
                    "ネプテューヌ無印": "見ててね。わたしがキミに見せる、\n最初で最後の変身だよ！"
                }
            }
        },
        "136": {
            "「最後……？」": {
                "141": {
                    "パープルハート無印": ""
                },
                "143": {
                    "クロワール": "こいつがパープルハートか……"
                },
                "144": {
                    "パープルハート無印": "さぁ、行くわよ！　うにょうにょ！"
                }
            }
        }
    }
]