[
    {
        "7": {
            "リディア・ノーラン魔法少女": ""
        },
        "9": {
            "エニグマ君": ""
        },
        "11": {
            "エニグマ君": "随分とにぎやかな場所だな……"
        },
        "12": {
            "魔法少女リディア": "<param=player_name>、怪訝そうな顔してどうしたの？"
        },
        "13": {
            "「本当にこんな人だらけの場所で怪異が起こるの？」": {
                "17": {
                    "魔法少女リディア": "うん。ここで間違いないよー"
                }
            }
        },
        "14": {
            "「コスプレをして遊びに来たの？」": {
                "21": {
                    "魔法少女リディア": "ちょっ！本物の魔法少女だからね？間違えちゃダメ！"
                }
            }
        },
        "56": {
            "「もしかして、クロエ・アーロンさん？」": {
                "59": {
                    "クロエ・アーロン": "あちゃー、バレちゃったかー！"
                }
            }
        },
        "57": {
            "「写真はお断りですよー？」": {
                "62": {
                    "クロエ・アーロン": "えー、写真撮りたかったのに残念！"
                }
            }
        }
    }
]