[
    {
        "1": {
            "四糸乃": ""
        },
        "8": {
            "よしのん": "満足満足！　こっちの世界の食べ物も美味しいね～。\nと、まるで食べたかのような感想のよしのんであった"
        },
        "11": {
            "クロワール": "ここんとこ依頼を請けまくって稼いできた路銀が、\n一気に吹っ飛んじまったぜ……"
        },
        "13": {
            "夜刀神十香": ""
        },
        "14": {
            "大人ネプテューヌ": ""
        },
        "15": {
            "夜刀神十香": "むう……すまぬ。\nどれも美味しくて、つい……"
        },
        "16": {
            "大人ネプテューヌ": "気にしなくていいよ。\nごはんは楽しく食べないとね！"
        },
        "17": {
            "「いい食べっぷりだった」": {
                "20": {
                    "クロワール": "いや、おまえらはもうちょっと気にしろよ……"
                },
                "22": {
                    "五河琴里": ""
                },
                "23": {
                    "天王星うずめ": ""
                },
                "24": {
                    "五河琴里": "…………"
                },
                "25": {
                    "天王星うずめ": "琴里、どうかしたのか？"
                },
                "26": {
                    "五河琴里": "べ、別に。なんでもないわ"
                },
                "28": {
                    "大人ネプテューヌ": "そこの駄菓子屋さんが気になるの？"
                },
                "29": {
                    "五河琴里": "だから、なんでもないってば"
                },
                "30": {
                    "大人ネプテューヌ": "でも今、チェッパチャプシュをじっと見てなかった？"
                },
                "31": {
                    "五河琴里": "何その聞いたことがあるようなないような名前……"
                },
                "33": {
                    "五河琴里": "って、見てないわよ別に"
                },
                "34": {
                    "四糸乃": "それ……琴里さんがいつも食べてる\nお菓子によく似てます"
                },
                "36": {
                    "五河琴里": ""
                },
                "37": {
                    "大人ネプテューヌ": ""
                },
                "38": {
                    "五河琴里": "ちょ……四糸乃！"
                },
                "39": {
                    "大人ネプテューヌ": "なんだ、欲しかったんだね。\nそれなら、お姉ちゃんが買ってあげよう！"
                },
                "40": {
                    "五河琴里": "い、いいわよ、奢られてばかりじゃ悪いし"
                },
                "41": {
                    "大人ネプテューヌ": "大丈夫だって"
                },
                "42": {
                    "五河琴里": "でも、もうお金ないんでしょ"
                },
                "43": {
                    "大人ネプテューヌ": "からっぽになったのはクロちゃんのお財布だから"
                },
                "45": {
                    "クロワール": "言っとくが、この財布は俺たちみんなの路銀だぞ"
                },
                "46": {
                    "大人ネプテューヌ": ""
                },
                "49": {
                    "大人ネプテューヌ": "じゃじゃーん、これはわたしのお財布。\n月々のお小遣いをちゃーんと貯めてるんだから"
                }
            }
        },
        "50": {
            "「ちなみに月３００ゴールドです」": {
                "52": {
                    "クロワール": "なんで自信満々に答えてんだよ"
                },
                "53": {
                    "五河琴里": "……ふふ。なんだか、妙な光景ね"
                },
                "54": {
                    "五河琴里": "……でも、ま、嫌いじゃないわ。\n微笑ましいっていうより、気が抜ける感じだけど"
                },
                "55": {
                    "五河琴里": "まあ……じゃあ、お言葉に甘えようかしら"
                },
                "56": {
                    "大人ネプテューヌ": "うん！"
                },
                "60": {
                    "大人ネプテューヌ": ""
                },
                "62": {
                    "大人ネプテューヌ": "おじさん、このチェッパチャプシュをくれる？"
                },
                "66": {
                    "時崎狂三": ""
                },
                "68": {
                    "時崎狂三": "このお菓子をいただけませんこと？"
                },
                "70": {
                    "大人ネプテューヌ": ""
                },
                "71": {
                    "時崎狂三": ""
                },
                "72": {
                    "大人ネプテューヌ": "ん？"
                },
                "73": {
                    "時崎狂三": "あら？"
                },
                "74": {
                    "夜刀神十香": ""
                },
                "75": {
                    "五河琴里": ""
                },
                "76": {
                    "夜刀神十香": "おまえは、狂三っ！？"
                },
                "77": {
                    "五河琴里": "なんであなたがここに！？"
                },
                "79": {
                    "時崎狂三": ""
                },
                "80": {
                    "時崎狂三": "なんでと言われましても……"
                },
                "82": {
                    "ヒロ": ""
                },
                "84": {
                    "ヒロ": "狂三、おまえの知人か？"
                },
                "86": {
                    "大人ネプテューヌ": "ヒロ！"
                },
                "87": {
                    "ヒロ": "――む、特異点……か"
                }
            }
        }
    }
]