[
    {
        "6": {
            "クロワール": ""
        },
        "7": {
            "大人ネプテューヌ": ""
        },
        "8": {
            "天王星うずめ": ""
        },
        "9": {
            "クロワール": "明日はとうとうマユラとの戦いか"
        },
        "10": {
            "天王星うずめ": "いよいよって感じだな。気合いが入るぜ"
        },
        "11": {
            "クロワール": "俺はなんだか、クリスのいいようにされてるみたいで\nどうにも気に入らねぇけどな……"
        },
        "12": {
            "大人ネプテューヌ": "まあまあ。\nとりあえず明日のために宿に帰ってゆっくりと――"
        },
        "24": {
            "ククル": ""
        },
        "25": {
            "マユラ": ""
        },
        "26": {
            "ククル": "あはは、いいじゃん、おすすめだよ"
        },
        "28": {
            "ククル": ""
        },
        "29": {
            "マユラ": ""
        },
        "44": {
            "大人ネプテューヌ": ""
        },
        "45": {
            "天王星うずめ": ""
        },
        "46": {
            "天王星うずめ": "あれは……マユラと、ククル？\n妙な取り合わせだな"
        },
        "47": {
            "大人ネプテューヌ": "どこに行くんだろう？"
        },
        "48": {
            "「追い掛けよう」": {
                "51": {
                    "天王星うずめ": "闘技場最強のプライベート。\n確かに気になるよな！"
                }
            }
        },
        "49": {
            "「プライバシーは大事」": {
                "55": {
                    "クロワール": "とか言いながら、身体は後をつけてってるぞ"
                }
            }
        },
        "185": {
            "「そんなことしないよ」": []
        }
    }
]