[
    {
        "6": {
            "ラム": ""
        },
        "8": {
            "ロム": ""
        },
        "10": {
            "ラム": "そろーり"
        },
        "11": {
            "ロム": "そろーり"
        },
        "12": {
            "ラム": "みつからないように"
        },
        "13": {
            "ロム": "つかまらないように"
        },
        "14": {
            "天王星うずめ": ""
        },
        "16": {
            "天王星うずめ": "こら！"
        },
        "20": {
            "ラム": ""
        },
        "21": {
            "ロム": ""
        },
        "22": {
            "ラム・ロム": "ひゃあっ！？"
        },
        "23": {
            "天王星うずめ": "俺たちはここで留守番。そう言われただろう"
        },
        "24": {
            "ラム": "でもでも、うずめちゃん！　"
        },
        "25": {
            "ロム": "だって……"
        },
        "26": {
            "天王星うずめ": "でももだってもない。\n今は<param=player_name>たちの帰りを待つんだ"
        },
        "27": {
            "ラム": "フィナンシェちゃんを助けにいくの！"
        },
        "28": {
            "天王星うずめ": "っ！？"
        },
        "29": {
            "ロム": "わたしたちのせいで、フィナンシェちゃんは……"
        },
        "30": {
            "天王星うずめ": "気持ちは分かるが……いや、でもなぁ……"
        },
        "31": {
            "西沢ミナ": "二人とも、わがままを言って困らせてはいけません"
        },
        "32": {
            "西沢ミナ": "うずめさんは、あなたたちを守るよう、\nブラン様に頼まれているのですから"
        },
        "33": {
            "ロム": "この国がピンチなのに、何もできないなんて……やだ"
        },
        "34": {
            "ラム": "そうよ。わたしたちは女神候補生なんだから！"
        },
        "35": {
            "西沢ミナ": "ロム様……ラム様……"
        },
        "36": {
            "天王星うずめ": "はぁ……仕方ねぇな"
        },
        "37": {
            "天王星うずめ": "俺から絶対に離れないこと。\n危険を感じたら真っ先に逃げること"
        },
        "38": {
            "天王星うずめ": "それが約束できるなら連れていってやる"
        },
        "39": {
            "ラム": "ほんと！？"
        },
        "40": {
            "ロム": "やった……"
        },
        "41": {
            "西沢ミナ": "うずめさんっ"
        },
        "42": {
            "天王星うずめ": "約束通り、二人は俺が何がなんでも守る。\nだから、わがままを聞いてやってくれ"
        },
        "43": {
            "天王星うずめ": "絶対助けに行くって約束したもんな。\nだよな、ふぃなっち……"
        },
        "53": {
            "ブラン": ""
        },
        "55": {
            "ブラン": "ここを抜ければ、会場は目の前よ！"
        },
        "56": {
            "リーリア": ""
        },
        "59": {
            "リーリア": "ふふ……やっぱね、来ると思った"
        },
        "61": {
            "ブラン": "っ！？　あなた、何者！？"
        },
        "62": {
            "リーリア": "なにものーって言われると、\nしょーじき困っちゃうんですケド"
        },
        "63": {
            "リーリア": "今はあっちの守護女神サマを手伝ってる感じ？\nあ、そだ。あの女神候補生たちはいないの？"
        },
        "64": {
            "ブラン": "ラムとロムを知っている……"
        },
        "65": {
            "ブラン": "そう、あなたが二人の言っていた、\nケバくて怖いお姉さんね"
        },
        "66": {
            "リーリア": "はぁ！？　ケバいってなによ！\nめちゃめちゃナチュラルメイクなんですケド！"
        },
        "67": {
            "ブラン": "いずれにせよ、わたしのニセモノに協力するのなら、\nあなたは敵ということよね"
        },
        "69": {
            "クロノワール": ""
        },
        "70": {
            "大人ネプテューヌ": ""
        },
        "71": {
            "クロワール": "待て。そいつが用があるのはおまえじゃねぇよ"
        },
        "72": {
            "大人ネプテューヌ": "うん。だから、ここはわたしたちに任せて先に行って"
        },
        "74": {
            "ブラン": "今の女神化できないわたしが一人で行っても……"
        },
        "77": {
            "「必ず追いつく」": {
                "81": {
                    "ブラン": "<param=player_name>……"
                },
                "83": {
                    "クロワール": ""
                },
                "84": {
                    "大人ネプテューヌ": ""
                },
                "85": {
                    "大人ネプテューヌ": "ブランはこの国の女神サマなんだから\nきっと国民のみんなは信じてくれるよ"
                },
                "87": {
                    "ブラン": "……分かったわ"
                },
                "91": {
                    "クロワール": ""
                },
                "92": {
                    "大人ネプテューヌ": ""
                },
                "93": {
                    "リーリア": ""
                },
                "94": {
                    "クロワール": "あっさり見逃してくれるんだな"
                },
                "95": {
                    "リーリア": "あたしの本来の目的とはかんけーないしねー"
                },
                "99": {
                    "リーリア": ""
                },
                "107": {
                    "大人ネプテューヌ": ""
                },
                "108": {
                    "クロワール": ""
                },
                "109": {
                    "リーリア": ""
                },
                "112": {
                    "クロワール": ""
                },
                "113": {
                    "大人ネプテューヌ": ""
                },
                "114": {
                    "リーリア": ""
                },
                "115": {
                    "クロワール": "その足の刻印……やっぱりそうか。\n目的は<param=player_name>か"
                },
                "116": {
                    "リーリア": "そゆこと。相変わらず察しがいいねー、クロちゃん。\nついでに、物わかりよく渡してくれると楽なんだケド"
                },
                "117": {
                    "大人ネプテューヌ": "ごめんね、<param=player_name>は渡せないよ。\n特に、キミたちにはね"
                },
                "118": {
                    "リーリア": "ま、そう言うと思ってたケド。\nじゃあ、この先は言葉は不要ってワケね"
                },
                "119": {
                    "リーリア": "力尽くでいかせてもらうわ！"
                },
                "120": {
                    "クロワール": "気張れよ、<param=player_name>！\nあいつはちっとばっか厄介な相手だぞ！"
                }
            }
        }
    }
]