[
    {
        "6": {
            "エフコムシ": ""
        },
        "12": {
            "エフコムシ": "ああ……っ！"
        },
        "18": {
            "クロワール": "……やっと大人しくなったか。\nまったく、手間かけさせやがって"
        },
        "20": {
            "エフコムシ": ""
        },
        "23": {
            "エフコムシ": "う……ううっ……なんで……なんで……"
        },
        "25": {
            "大人ネプテューヌ": ""
        },
        "26": {
            "クロワール": ""
        },
        "27": {
            "大人ネプテューヌ": "エフコムシ、泣いてる……"
        },
        "28": {
            "クロワール": "おいおい、なんだっていうんだよ……"
        },
        "33": {
            "リトル・スノー": ""
        },
        "36": {
            "リトル・スノー": "それはね、その子がまだ生まれたばかりだからよ"
        },
        "38": {
            "クロワール": ""
        },
        "39": {
            "リトル・スノー": ""
        },
        "40": {
            "クロワール": "リトル・スノー……そりゃ、どういう意味だ？"
        },
        "41": {
            "リトル・スノー": "フュージョン・フォースによって生まれた者は、\n融合したそれぞれの記憶や知識を合わせ持っているわ"
        },
        "42": {
            "リトル・スノー": "でも、経験だけは引き継ぐことができない。\nだってそれは、その人だけのものだから"
        },
        "43": {
            "クロワール": "つまり、エフコムシはまだ子供ってことか？"
        },
        "44": {
            "リトル・スノー": "ええ。相手がひよこ虫だったことも原因でしょうね。\n私の時は経験の無さを知識で補うことができたけれど"
        },
        "45": {
            "リトル・スノー": "だから、<param=player_name>。\n幼い彼女をあなたが導いてあげて"
        },
        "46": {
            "リトル・スノー": "彼女はただ、あなたの力になりたくて、\nそのために生まれてきたのだから"
        },
        "48": {
            "「エフコムシ」": {
                "52": {
                    "エフコムシ": "同士……ふんっ、同士なんて知るもんか！"
                }
            }
        },
        "54": {
            "「ありがとう」": {
                "57": {
                    "エフコムシ": "同士……"
                },
                "59": {
                    "大人ネプテューヌ": "<param=player_name>はね、エフコムシの気持ち\nちゃんと分かってるよ"
                },
                "60": {
                    "大人ネプテューヌ": "役に立ちたかったんだよね。\nいっしょにいたかったんだよね"
                },
                "61": {
                    "大人ネプテューヌ": "でもね、仲間っていうのは役に立つとか立たないとか\n関係なしにいっしょにいたい人のことをいうんだよ"
                },
                "62": {
                    "大人ネプテューヌ": "だから、無理矢理に集めるんじゃダメ"
                },
                "64": {
                    "エフコムシ": "わたしは……間違ってたのか……？"
                },
                "66": {
                    "クロワール": "間違っちゃいねーよ。\nちっとばかり失敗しただけだろ"
                },
                "68": {
                    "エフコムシ": "そうか……失敗か……"
                }
            }
        },
        "70": {
            "「我が同士よ！」": {
                "73": {
                    "エフコムシ": "っ！？"
                },
                "74": {
                    "エフコムシ": "わたしのこと、まだ同士って言ってくれるのか……？"
                }
            }
        },
        "75": {
            "「仲間だからね」": []
        },
        "76": {
            "「一緒に帰ろう」": []
        },
        "165": {
            "「なんなのでしょう？」": {
                "168": {
                    "アイエフ": "いや、聞いてるのはこっちだから"
                }
            }
        },
        "166": {
            "「ごめんね」": {
                "171": {
                    "アイエフ": "……別に、わざとじゃないでしょ"
                }
            }
        },
        "199": {
            "「黒歴史がまた一つ……」": {
                "202": {
                    "アイエフ": ""
                },
                "204": {
                    "アイエフ": "うあああああぁぁああぁぁぁ～～！！"
                }
            }
        }
    }
]