[
    {
        "7": {
            "コンパ": ""
        },
        "9": {
            "コンパ": "おせちお待たせです〜"
        },
        "10": {
            "大人ネプテューヌ": ""
        },
        "12": {
            "大人ネプテューヌ": "おおー、すっごーい！"
        },
        "13": {
            "ティアラ新春": "まあ、これがおせち料理というものですの？"
        },
        "15": {
            "ティアラ新春": "とっても彩り豊かなんですのね"
        },
        "16": {
            "イストワール": "ティアラさんは初めてですか？"
        },
        "18": {
            "イストワール": "お正月におせちは欠かせないものですよ"
        },
        "19": {
            "ティアラ新春": ""
        },
        "21": {
            "ティアラ新春": "そうですの。"
        },
        "23": {
            "ティアラ新春": "これならしばらくプラネテューヌに\n滞在するのもいいかもしれませんわ"
        },
        "25": {
            "天王星うずめ": ""
        },
        "26": {
            "クロワール": ""
        },
        "27": {
            "天王星うずめ": "確かにこりゃ、豪華だな"
        },
        "28": {
            "クロワール": "さすが、コンパってとこか"
        },
        "30": {
            "コンパ": ""
        },
        "31": {
            "ネプギア": ""
        },
        "32": {
            "コンパ": "ギアちゃんが手伝ってくれたおかげです"
        },
        "33": {
            "ネプギア": "いいえ、私なんて……"
        },
        "35": {
            "ネプギア": "コンパさんがすごいんです"
        },
        "37": {
            "ノワール": ""
        },
        "38": {
            "パープルハート新春": ""
        },
        "39": {
            "パープルハート新春": "もう、早く食べましょうっ。"
        },
        "41": {
            "パープルハート新春": "お腹空いて仕方ないわ"
        },
        "42": {
            "ノワール": "ていうか、あんた、なんで女神化してるのよ"
        },
        "44": {
            "クロワール": ""
        },
        "45": {
            "イストワール": ""
        },
        "46": {
            "クロワール": "そのツッコミはさっきやった"
        },
        "47": {
            "イストワール": "大した理由でもないので、\nもうスルーしちゃってください"
        },
        "51": {
            "ネプギア": ""
        },
        "52": {
            "パープルハート新春": ""
        },
        "53": {
            "ネプギア": "お姉ちゃん、取り分けてあげるね"
        },
        "54": {
            "パープルハート新春": "ありがとう、ネプギア"
        },
        "56": {
            "イストワール": "またそうやって甘やかして……"
        },
        "58": {
            "ユニ": ""
        },
        "59": {
            "ノワール": ""
        },
        "60": {
            "ユニ": "お、お姉ちゃん、アタシがとってあげようか？"
        },
        "61": {
            "ノワール": "え、いいわよ。自分でできるわ"
        },
        "62": {
            "ユニ": "そ、そう……"
        },
        "64": {
            "パープルハート新春": ""
        },
        "65": {
            "イストワール": ""
        },
        "66": {
            "パープルハート新春": "ネプギア、海老とかお肉をたくさんね。"
        },
        "68": {
            "パープルハート新春": "甘いお豆はいらないから"
        },
        "69": {
            "イストワール": "そうやって、また好き嫌いして"
        },
        "70": {
            "イストワール": "みんなでいただいてるんですから、\n自分だけ好きなものばかり取ってはダメですよ"
        },
        "71": {
            "パープルハート新春": "いーすん、うるさーい"
        },
        "77": {
            "イストワール": "なんて言い草！"
        },
        "79": {
            "クロワール": "メシの間くらいケンカすんなよ"
        },
        "81": {
            "ユニ": ""
        },
        "82": {
            "ネプギア": ""
        },
        "83": {
            "ユニ": "……あ、これおいしい"
        },
        "85": {
            "ネプギア": "ほんと？　それ、私が作ったんだよ。"
        },
        "87": {
            "ネプギア": "まだいっぱいあるからたくさん食べてね"
        },
        "89": {
            "ユニ": "へ、へえ……今度教えなさいよね、作り方"
        },
        "91": {
            "ネプギア": "うん！　一緒に作ろうね"
        }
    }
]