Command,Arg1,Arg2,Arg3,Arg4,Arg5,Arg6,WaitType,Text,PageCtrl,Voice,WindowType
FadeOut,black,,,,,0,,,,,
Bg,背景(ルウィー首都：夜),,,,,,,,,,
Wait,,,,,,.3,,,,,
FadeIn,black,,,,,1,,,,,
Bgm,ADV通常,,,,,,,,,,
,大人ネプテューヌ,通常,,,,,,あれ？　あそこにいるのって……,,,
,ロロ,悲しみ,,,,,,"身も心も疲れ果てたわ……
年末年始は、こたつで寝ていたい気分",Input,,
,ロロ,,,,,,,,,,
Selection,*201103-1,,,,0,350,,「幼女だー！」,,,
Selection,*201103-2,,,,0,200,,「守銭奴だー！」,,,
*201103-1,,,,,,,,,,,
Se,踏み込み音,,,,,,,,,,
Tween,ロロ,ScaleTo,"x=0.8 y=0.8 time=1.5",,,,Add,,,,
Tween,ロロ,MoveAdd,"x=0 y=-50 time=1.5",,,,Add,,,,
Tween,ロロ,MoveTo,"x=0 y=40 islocal=true time=.1",easeOutCirc,pingPong=2,,Add,,,,
,ロロ,,,,,,,怖っ！？,,,
Jump,*case201103-1,,,,,,,,,,
*201103-2,,,,,,,,,,,
,ロロ,真剣,,,,.2,,失礼な！　わたしはしっかり者なだけですぅ！,,,
Jump,*case201103-1,,,,,,,,,,
*case201103-1,,,,,,,,,,,
CharacterOff,,,,,,,,,,,
,大人ネプテューヌ,通常,キャラ左,,,,,,,,
,ロロ,通常,キャラ右,,,,,,,,
,ロロ,悲しみ,,,,.2,,"って、なんだ。あなたたちか。
今日は疲れたから店仕舞いだよ。",Next,,
Wait,,,,,,.3,,,,,
,ロロ,笑い,,,,.2,,また明日〜,,,
,大人ネプテューヌ,,,,,,,疲れた体に、,Next,,
Wait,,,,,,.3,,,,,
Tween,大人ネプテューヌ,MoveTo,"x=100 y=0 islocal=true time=0.5",easeOutQuad,,,Add,,,,
,大人ネプテューヌ,笑い,,,,.2,,はいどうぞ。アメだよ,,,
Tween,ロロ,MoveTo,"x=-100 y=0 islocal=true time=0.5",easeOutQuad,,,Add,,,,
,ロロ,通常,,,,.2,,なにこれ、くれるの？,Br,,
Wait,,,,,,.3,,,,,
,ロロ,笑い,,,,.2,,くれるならもらっておくけど。お金は払わないよ,,,
,大人ネプテューヌ,笑い,,,,,,いいよいいよ。だって今日はクリスマスだから,,,
,ロロ,悲しみ,,,,,,クリスマス……クリスマス……,Next,,
Wait,,,,,,.3,,,,,
Tween,ロロ,MoveTo,"x=-100 y=-10 islocal=true time=0.1",easeOutQuart,pingPong=2,,Add,,,,
,ロロ,,,,,,,はぁ,,,
CharacterOff,,,,,,,,,,,
,ネプギアクリスマス,悲しみ,,,,,,随分と疲れているようですけど、どうかしたんですか？,,,
,ロロ,通常,,,,,,"クリスマスシーズンは稼ぎ時だからね。仕入れた
情報から商品まで、なんでも売るから忙しいんだー",,,
,ロロ,悲しみ,,,,,,でも今日は特にしつこい人がいて──,,,
StopBgm,,,,,,,,,,,
CharacterOff,,,,,,,,,,,
Bgm,コミカル,,,,,,,,,,
Se,踏み込み音,,,,,,,,,,
,ユリーナ,通常,,,,1,Add,,,,
Tween,ユリーナ,MoveFrom,"x=-100 y=0 islocal=true time=1",easeOutQuad,,,Add,,,,
,ユリーナ,真剣,,,,.2,,あー！　いたいた！,,,
CharacterOff,,,,,,,,,,,
,ロロ,通常,キャラ右,,,,,,,,
,ユリーナ,真剣,キャラ左,,,,,,,,
Tween,ロロ,MoveTo,"x=0 y=40 islocal=true time=.1",easeOutCirc,pingPong=2,,Add,,,,
,ロロ,悲しみ,,,,.2,,げっ、まだ諦めてなかったの！？,,,
,ユリーナ,,,,,.2,,お願いだから、割のいい依頼情報教えて－！,Br,,
Wait,,,,,,.3,,,,,
,ユリーナ,悲しみ,,,,.2,,今月ピンチなの！　,Next,,
Wait,,,,,,.3,,,,,
,ユリーナ,真剣,,,,,,このとーり！,,,
Tween,ロロ,ShakePosition,"x=10 islocal=true time=.3",,,,Add,,,,
,ロロ,真剣,,,,.2,,あたし値切る人は嫌いなのー！,,,
,ユリーナ,悲しみ,,,,,,依頼を達成した報奨金で残りを支払うからー！,,,
,ロロ,,,,,,,"いつもニコニコ前金払い！
それが情報屋ロロのモットーなの！",,,
CharacterOff,,,,,,,,,,,
,クロワール,通常,,,,,,概ね何があったのか理解できたな,,,
,シイナクリスマス,通常,,,,,,"彼女は割の良い情報が欲しいけど、その情報料を
持ち合わせていないということですね",,,
CharacterOff,,,,,,,,,,,
,ユリーナ,通常,キャラ左,,,,,,,,
,シイナクリスマス,通常,キャラ右,,,,,,,,
,ユリーナ,,,,,,,あなたたち……,Next,,
Wait,,,,,,.3,,,,,
,ユリーナ,真剣,,,,.2,,というかあなた、シイナ！？,,,
,シイナクリスマス,通常,,,,,,はい、そうですけど……,Br,,
Wait,,,,,,.3,,,,,
,シイナクリスマス,悲しみ,,,,.2,,あの、どこかでお会いしましたか？,,,
,ユリーナ,悲しみ,,,,,,わたしじゃなくて、わたしの連れなんだけど……,Br,,
Wait,,,,,,.3,,,,,
,ユリーナ,真剣,,,,.2,,なんでこんなときに限って、あの子が居ないのよ！,,,
,ユリーナ,悲しみ,,,,.2,,はぁぁ……でも、いないものはしょうがないわね,,,
,ユリーナ,通常,,,,,,"それにしてもあなたたちのその格好、随分と楽しい
クリスマスを過ごしているようね。寒そうだけど",,,
CharacterOff,,,,,,,,,,,
,大人ネプテューヌ,通常,キャラ左,,,,,,,,
,ノワールクリスマス,通常,キャラ右,,,,,,,,
,ノワールクリスマス,呆れ,,,,.2,,そのままそっくりお返しするわよ,,,
StopBgm,,,,,,,,,,,
Bgm,平和,,,,,,,,,,
,大人ネプテューヌ,笑い,,,,.2,,"今日はクリスマス。ユリーナの代わりに、
わたしたちが情報料を支払ってあげてもいいよ",,,
CharacterOff,,,,,,,,,,,
,ロロ,通常,キャラ右,,,,,,,,
,ユリーナ,通常,キャラ左,,,,,,,,
Tween,ユリーナ,MoveTo,"x=0 y=40 islocal=true time=.1",easeOutCirc,pingPong=2,,Add,,,,
,ユリーナ,真剣,,,,.2,,えええ！？　,Next,,
Wait,,,,,,.3,,,,,
,ユリーナ,悲しみ,,,,.2,,い、いいの……？,,,
,ロロ,通常,,,,,,大事なお金を肩代わりするなんて、お人好しだね。,Br,,
Wait,,,,,,.3,,,,,
,ロロ,笑い,,,,.2,,ま、これであたしも追われずに済むから助かるけど,,,
Tween,ユリーナ,ShakePosition,"x=10 islocal=true time=.3",,,,Add,,,,
,ユリーナ,笑い,,,,,,ありがとう～～、あなたたちは<ruby=メシア>救世主</ruby>よ～～～！,,,
CharacterOff,,,,,,,,,,,
,大人ネプテューヌ,笑い,,,,,,ユリーナとロロに、笑顔がありますように,,,
,大人ネプテューヌ,真剣,,,,.2,,"ユリーナは、あまりしつこく幼女を追いかけちゃ
ダメだからね",,,
,ユリーナ,悲しみ,,,,,,そうだね……ゴメン、そこは反省する,,,
SendMessageByName,AdvEngine,ChangeNoGrayOutCharacter,ロロ,,,,,,,,
,ロロ,通常,,,,,,,,,
Se,支払い音,,,,,,,,,,
,,,,,,,,ちゃりんちゃりーん☆,,,
,ロロ,固有,,,,.2,,毎度あり～,,,
,大人ネプテューヌ,笑い,,,,,,それじゃあ二人とも、ハッピークリスマス！,,,
,ロロ,笑い,,,,,,ハッピークリスマス、お姉ちゃん,,,
FadeOut,black,,,,,1,,,,,
Wait,,,,,,.3,,,,,
EndScenario,,,,,,,,,,,
