Command,Arg1,Arg2,Arg3,Arg4,Arg5,Arg6,WaitType,Text,PageCtrl,Voice,WindowType
FadeOut,black,,,,,0,,,,,
Bg,背景(ベールの部屋),,,,,,,,,,
Tween,BG,ColorTo,"color=#808080 time=0",,,,,,,,
Wait,,,,,,.3,,,,,
FadeIn,black,,,,,1,,,,,
Bgm,休息,,,,,,,,,,
,大人ネプテューヌ,,,,,1,Add,,,,
Tween,大人ネプテューヌ,MoveFrom,"x=-100 y=0 islocal=true time=1",easeOutQuad,,,Add,,,,
,大人ネプテューヌ,真剣,,,,,,そろ～り、そろ～り……,,,
,クロワール,通常,,,,,,"ベールは夜中でもゲームしてるだろうし、
静かに忍び込んでも無駄じゃねーの？",,,
CharacterOff,,,,,,,,,,,
,ベール,<Character=>,,,,,,すー……すー……,,,
CharacterOff,,,,,,,,,,,
,大人ネプテューヌ,通常,キャラ左,,,,,,,,
,クロワール,通常,キャラ右,,,,,,,,
,大人ネプテューヌ,笑い,,,,.2,,ベッドで寝てるよ,,,
,クロワール,固有,,,,.2,,マジか。珍しいこともあるもんだ,,,
CharacterOff,,,,,,,,,,,
,ネプギアクリスマス,通常,キャラ左,,,,,,,,
,ノワールクリスマス,通常,キャラ右,,,,,,,,
Tween,ノワールクリスマス,ShakePosition,"x=10 islocal=true time=.3",,,,Add,,,,
,ノワールクリスマス,真剣,,,,,,わぷっ！　,Next,,
Wait,,,,,,.3,,,,,
,ノワールクリスマス,通常,,,,.2,,顔に何か当たったわ,,,
,ネプギアクリスマス,笑い,,,,.2,,わ……よく見ると部屋中に短冊が飾られてます,,,
,ノワールクリスマス,通常,,,,.2,,"顔に当たったのは短冊だったのね。
あ、何か書いてあるわ",,,
,ノワールクリスマス,呆れ,,,,.2,,『ハイスペックマシン』,,,
,ネプギアクリスマス,通常,,,,.2,,こっちは、『頑丈なキーボード』,,,
CharacterOff,,,,,,,,,,,
,大人ネプテューヌ,通常,キャラ左,,,,,,,,
,クロワール,通常,キャラ右,,,,,,,,
,大人ネプテューヌ,笑い,,,,.2,,あっちのは、『最新ヘッドセット』って書いてる,,,
,クロワール,固有,,,,.2,,欲しい物が書かれてるだけじゃねーか,,,
CharacterOff,,,,,,,,,,,
,ネプギアクリスマス,悲しみ,キャラ左,,,,,,,,
,ノワールクリスマス,呆れ,キャラ右,,,,,,,,
,ネプギアクリスマス,,,,,,,短冊って願い事を書くものなんじゃ……,,,
,ノワールクリスマス,,,,,,,ベールったら、七夕じゃないんだから,,,
CharacterOff,,,,,,,,,,,
,シイナクリスマス,通常,,,,,,こっちの短冊、なんだか大きくてキラキラしてる。,Br,,
Wait,,,,,,.3,,,,,
Tween,シイナクリスマス,MoveTo,"x=0 y=-15 islocal=true time=.2",easeOutCirc,pingPong=2,,Add,,,,
,シイナクリスマス,笑い,,,,.2,,この願い事は、ええと……,,,
StopBgm,,,,,,,,,,,
,シイナクリスマス,,,,,,,『妹』,,,
Bgm,コミカル,,,,,,,,,,
,シイナクリスマス,通常,,,,.2,,『かわいい妹』,,,
,シイナクリスマス,悲しみ,,,,.2,,『ちょっとボーイッシュな妹』,,,
,シイナクリスマス,目閉じ,,,,.2,,『優しくて姉のことが世界で一番大好きな妹』,Input,,
Selection,*201104-1,,,,0,350,,「重いっ！？」,,,
Selection,*201104-1,,,,0,200,,「めんどくさっ！」,,,
*201104-1,,,,,,,,,,,
,ノワールクリスマス,悲しみ,,,,,,悲しくなってきたわね。さすがに同情するわ,,,
,シイナクリスマス,悲しみ,,,,,,"彼女にはシイナセレクションの中から、妹がたくさん
出るゲームをプレゼントしましょう。１２人くらい",,,
Wait,,,,,,.3,,,,,
SendMessageByName,AdvEngine,ChangeNoGrayOutCharacter,シイナクリスマス,,,,,,,,
Tween,シイナクリスマス,MoveTo,"x=0 y=-15 islocal=true time=.2",easeOutCirc,pingPong=2,,,,,,
Wait,,,,,,.2,,,,,
Se,倒れる音,,,,,,Add,,,,
,,,,,,,,どさどさっ,,,
,ネプギアクリスマス,固有,,,,,,すごいゲームの数です,,,
CharacterOff,,,,,,,,,,,
,シイナクリスマス,通常,キャラ左,,,,,,,,
,ノワールクリスマス,通常,キャラ右,,,,,,,,
,シイナクリスマス,笑い,,,,.2,,こんな事もあろうかと、こっそり隠し持っていました,,,
,シイナクリスマス,悲しみ,,,,.2,,これでゲームをプレイしている間は夢が叶います。,Br,,
Wait,,,,,,.3,,,,,
,シイナクリスマス,目閉じ,,,,.2,,ハッピークリスマス……,,,
,ノワールクリスマス,悲しみ,,,,.2,,ハッピークリスマス、ベール……,,,
CharacterOff,,,,,,,,,,,
,クロワール,固有,,,,,,お通夜みてぇになってんぞ……,,,
StopBgm,,,,,,,,,,,
CaptureImage,キャプチャーイメージ,SpriteCamera,キャプチャ画像レイヤー,,,,,,,,
CharacterOff,,,,,,0,,,,,
Bg,背景(黒),,,,,0,,,,,
RuleFadeOut,キャプチャーイメージ,FadeHolizontal,,,,.5,,,,,
Wait,,,,,,.5,,,,,
CaptureImage,キャプチャーイメージ,SpriteCamera,キャプチャ画像レイヤー,,,,,,,,
Bg,背景(リーンボックス：夜),,,,,0,,,,,
RuleFadeOut,キャプチャーイメージ,FadeHolizontal,,,,.5,,,,,
Bgm,ADV通常,,,,,,,,,,
,大人ネプテューヌ,通常,,,,,,さてと、次の目的地は……,,,
CharacterOff,,,,,,,,,,,
,マジェコンヌ,<Character=>,,,,,,ハーッハッハッハッハ！,,,
,クロワール,真剣,,,,,,こ、この笑い声は！？,Input,,
Bgm,ADV通常,,,,,,,,,,
Selection,*201104-2,,,,0,350,,「サンタさん！」,,,
Selection,*201104-3,,,,0,200,,「混ぜ混入」,,,
*201104-2,,,,,,,,,,,
,マジェコンヌ,悲しみ,,,,,,いや、そこはいつも通り微妙に間違えてほしかった……,,,
Jump,*case201104-1,,,,,,,,,,
*201104-3,,,,,,,,,,,
,マジェコンヌ,真剣,,,,,,"新しいな！　間違え方！
ていうか、混ぜと混入は同じ意味だろうが！？",,,
Jump,*case201104-1,,,,,,,,,,
*case201104-1,,,,,,,,,,,
CharacterOff,,,,,,,,,,,
,ノワールクリスマス,通常,キャラ右,,,,,,,,
,クロワール,通常,キャラ左,,,,,,,,
,クロワール,真剣,,,,.2,,名前なんてどーでもいいんだよ！,,,
,ノワールクリスマス,真剣,,,,.2,,そうね。見つけたからには相手になるわ！,,,
CharacterOff,,,,,,,,,,,
,マジェコンヌ,真剣,,,,,,やめな！,,,
,マジェコンヌ,笑い,,,,.2,,"今日はクリスマスだよ。
こんな日に切った張ったは野暮ってもんさ",,,
CharacterOff,,,,,,,,,,,
,ノワールクリスマス,通常,キャラ右,,,,,,,,
,クロワール,真剣,キャラ左,,,,,,,,
,ノワールクリスマス,呆れ,,,,.2,,確かにそうかもしれないけど……,,,
,クロワール,通常,,,,.2,,こいつに言われるとなんか釈然としねぇな,,,
CharacterOff,,,,,,,,,,,
,ネプギアクリスマス,通常,,,,,,あの……こんなところでなにをしてるんですか？,,,
,マジェコンヌ,通常,,,,,,サンタのバイトだ,,,
,ノワールクリスマス,呆れ,,,,,,なにその怪しいバイト……,,,
,マジェコンヌ,通常,,,,,,"黒いサンタとして、
プレゼントと一緒にナスを配っている",,,
StopBgm,,,,,,,,,,,
,大人ネプテューヌ,通常,,,,,,よし、倒そう,,,
Wait,,,,,,.5,,,,,
,大人ネプテューヌ,真剣,,,,.2,,,,,
Tween,大人ネプテューヌ,ScaleTo,"x=0.9 y=0.9 time=0.2",,,,,,,,
Wait,,,,,,.2,,,,,
Se,疾走音,,,,,,,,,,
Tween,大人ネプテューヌ,ScaleTo,"x=2 y=2 time=0.5",,,,Add,,,,
Tween,大人ネプテューヌ,MoveAdd,"x=0 y=-150 time=.5",,,,Add,,,,
CharacterOff,,,,,,,,,,,
Wait,,,,,,.3,,,,,
Selection,*201104-4,,,,0,350,,「ねぷねぷすと〜っぷ！」,,,
Selection,*201104-4,,,,0,200,,「それ以上、いけない！」,,,
*201104-4,,,,,,,,,,,
Bgm,コミカル,,,,,,,,,,
Se,掴む音,,,,,,,,,,
,大人ネプテューヌ,固有,,,,,,,,,
Tween,大人ネプテューヌ,ShakePosition,"x=15 islocal=true time=.5",,,,Add,,,,
,大人ネプテューヌ,,,,,,,は〜な〜し〜て〜！,Br,,
Wait,,,,,,.3,,,,,
Tween,大人ネプテューヌ,MoveTo,"x=0 y=40 islocal=true time=.1",easeOutCirc,pingPong=2,,Add,,,,
,大人ネプテューヌ,真剣,,,,.2,,そんな悪魔の毒毒野菜配る人は抹殺しないと！,,,
,クロワール,悲しみ,,,,,,あー、そのまま抑えといてくれ,,,
CharacterOff,,,,,,,,,,,
,ネプギアクリスマス,通常,キャラ左,,,,,,,,
,ノワールクリスマス,通常,キャラ右,,,,,,,,
,ネプギアクリスマス,悲しみ,,,,.2,,"ナスは、意外と日持ちがしませんから、
あんまりたくさん配るのはどうかと思います",,,
,ノワールクリスマス,呆れ,,,,.2,,ネプギア、そういう問題じゃないのよ……,,,
CharacterOff,,,,,,,,,,,
,マジェコンヌ,通常,キャラ左,,,,,,,,
,大人ネプテューヌ,真剣,キャラ右,,,,,,,,
,マジェコンヌ,通常,,,,,,そっちも今夜はサンタをやってるのかい？,Br,,
Wait,,,,,,.3,,,,,
,マジェコンヌ,,,,,,,それなら同業のよしみで、ナスを贈ろう,,,
Tween,大人ネプテューヌ,MoveTo,"x=0 y=40 islocal=true time=.1",easeOutCirc,pingPong=2,,Add,,,,
,大人ネプテューヌ,固有,,,,.2,,いらないし！！,,,
Tween,マジェコンヌ,MoveTo,"x=150 y=0 islocal=true time=0.5",,,,Add,,,,
,マジェコンヌ,通常,,,,,,腹が膨れるぞ。手を出せ,,,
Tween,大人ネプテューヌ,MoveTo,"x=20 y=0 islocal=true time=0.2",,,.3,Add,,,,
,大人ネプテューヌ,悲しみ,,,,.2,,いらないってば！　,Next,,
Wait,,,,,,.3,,,,,
Tween,大人ネプテューヌ,ShakePosition,"x=10 islocal=true time=.5",,,,Add,,,,
,大人ネプテューヌ,固有,,,,.2,,いや、近づかないでえええっ！,,,
,マジェコンヌ,通常,,,,,,仕方がない、頭の上にでも乗せてやるか。,Br,,
Wait,,,,,,.3,,,,,
Tween,マジェコンヌ,MoveTo,"x=300 y=0 islocal=true time=0.5",,,,Add,,,,
,マジェコンヌ,笑い,,,,.2,,ハッピークリスマス！,,,
Tween,大人ネプテューヌ,ShakePosition,"x=10 islocal=true time=.3",,,,Add,,,,
,大人ネプテューヌ,固有,,,,,,わたしの頭の上にナスがあああああああ！　,Next,,
Wait,,,,,,.3,,,,,
,大人ネプテューヌ,,,,,,,……がく,,,
Tween,大人ネプテューヌ,MoveAdd,"x=0 y=-100 time=1",easeOutQuad,,,Add,,,,
CharacterOff,大人ネプテューヌ,,,,,1,,,,,
Se,倒れる音,,,,,,,,,,
Wait,,,,,,1,,,,,
CharacterOff,,,,,,,,,,,
,ネプギアクリスマス,通常,キャラ左,,,,,,,,
,ノワールクリスマス,通常,キャラ右,,,,,,,,
,ノワールクリスマス,通常,,,,,,あ、しんだ,,,
,ネプギアクリスマス,悲しみ,,,,,,おねえ……,Next,,
Wait,,,,,,.3,,,,,
Tween,ネプギアクリスマス,MoveTo,"x=0 y=40 islocal=true time=.1",easeOutCirc,pingPong=2,,Add,,,,
,ネプギアクリスマス,真剣,,,,.2,,"じゃなかった、ネプテューヌさん！
しっかりしてください！",,,
CharacterOff,,,,,,,,,,,
,マジェコンヌ,笑い,,,,,,ハーッハッハッハッハ！　メリークリスマス！,,,
Se,踏み込み音,,,,,,,,,,
Tween,マジェコンヌ,MoveAdd,"x=100 y=0 time=1",easeOutQuad,,,Add,,,,
CharacterOff,マジェコンヌ,,,,,1,Add,,,,
Wait,,,,,,1,,,,,
,シイナクリスマス,通常,,,,,,行っちゃった……,,,
,クロワール,通常,,,,,,"もしかして、あいつまともにやって勝ったの
初めてなんじゃないか？",,,
,ノワールクリスマス,呆れ,,,,,,本人、気づいてないっぽいけどね,,,
FadeOut,black,,,,,1,,,,,
Wait,,,,,,.3,,,,,
EndScenario,,,,,,,,,,,
