Command,Arg1,Arg2,Arg3,Arg4,Arg5,Arg6,WaitType,Text,PageCtrl,Voice,WindowType
FadeOut,black,,,,,0,,,,,
Bg,背景(ネプテューヌとネプギアの部屋：夜),,,,,,,,,,
Tween,BG,ColorTo,"color=#808080 time=0",,,,,,,,
Wait,,,,,,.3,,,,,
FadeIn,black,,,,,1,,,,,
Bgm,ADV通常,,,,,,,,,,
,ノワールクリスマス,通常,キャラ右,,,,,,,,
,大人ネプテューヌ,通常,キャラ左,,,,,,,,
,ノワールクリスマス,,,,,,,リーンボックスの次は、プラネテューヌ。,Br,,
Wait,,,,,,.3,,,,,
,ノワールクリスマス,悲しみ,,,,.2,,一晩でプレゼントを配るのも楽じゃないわね,,,
,ネプテューヌ(大),<Character=大人ネプテューヌ>笑い,,,,.2,,でも、明日の朝、喜ぶ姿を思うと楽しいよ,,,
,ノワールクリスマス,通常,,,,.2,,それは、私だってそうだけど,,,
CharacterOff,,,,,,,,,,,
,ネプギアクリスマス,真剣,,,,,,"二人とも、しーっ、です。
お姉ちゃんが起きちゃいます",,,
CharacterOff,,,,,,,,,,,
,ネプテューヌ,<Character=>,,,,,,すやや～……,,,
,シイナクリスマス,通常,,,,,,"気持ちよさそうな寝息が聞こえるので、
大丈夫そうですね",,,
,ネプテューヌ(大),<Character=大人ネプテューヌ>笑い,,,,,,良かった。,Br,,
Wait,,,,,,.3,,,,,
Tween,大人ネプテューヌ,MoveTo,"x=0 y=40 islocal=true time=.1",easeOutCirc,pingPong=2,,Add,,,,
,ネプテューヌ(大),<Character=大人ネプテューヌ>悲しみ,,,,.2,,……わっ、なにか踏んだ,,,
,ネプテューヌ(大),<Character=大人ネプテューヌ>真剣,,,,.2,,柔らかくて、サクサク、そしてちょっと油気が……,Br,,
Wait,,,,,,.3,,,,,
,ネプテューヌ(大),<Character=大人ネプテューヌ>笑い,,,,.2,,これ、スナック菓子だ！,,,
StopBgm,,,,,,,,,,,
Bgm,コミカル,,,,,,,,,,
,ノワールクリスマス,通常,,,,,,,,,
Se,打撃音,,,,,,,,,,
Tween,ノワールクリスマス,ShakePosition,"x=10 islocal=true time=.3",,,,Add,,,,
,ノワールクリスマス,悲しみ,,,,.2,,"イタっ！　何かに足の小指をぶつけたぁ～
これ、ゲーム機？　通りで痛いはずよ",,,
,ノワールクリスマス,真剣,,,,,,"ネプテューヌったら……こんなの部屋の真ん中に
置いていたら邪魔じゃないっ、",Next,,
SendMessageByName,AdvEngine,ChangeNoGrayOutCharacter,ノワールクリスマス,,,,,,,,
Wait,,,,,,.3,,,,,
Se,物を投げる音,,,,,,,,,,
Tween,ノワールクリスマス,ScaleTo,"x=1.1 y=1.1 time=0.5",,,,Add,,,,
Tween,ノワールクリスマス,MoveAdd,"x=25 y=-50 time=.5",,,,Add,,,,
,ノワールクリスマス,<Character=>,,,,,,ていっ,,,
CharacterOff,,,,,,,,,,,
Se,激突音,,,,,,,,,,
StopSe,,,,,,2,,,,,
Wait,,,,,,.5,,,,,
,クロワール,通常,,,,,,よく見るとこの部屋、散らかり放題だな,,,
CharacterOff,,,,,,,,,,,
,ノワールクリスマス,真剣,キャラ右,,,,,,,,
,ネプギアクリスマス,真剣,キャラ左,,,,,,,,
,ノワールクリスマス,悲しみ,,,,.2,,"ネプギアっていう監視の目がないと、
すぐこうなるんだから",,,
,ネプギアクリスマス,悲しみ,,,,.2,,"お姉ちゃんってば、仕方ないなあ。
明日お片付けしないと",,,
,ノワールクリスマス,,,,,,,本人にやらせなさい、本人に,,,
StopBgm,,,,,,,,,,,
,ネプギアクリスマス,通常,,,,.2,,でも今夜は、ひとまず……,Next,,
Wait,,,,,,.3,,,,,
Tween,ネプギアクリスマス,MoveTo,"x=0 y=-10 islocal=true time=0.3",easeOutQuart,pingPong=2,,Add,,,,
Bgm,休息,,,,,,,,,,
,ネプギアクリスマス,,,,,,,はい、プレゼント。,Br,,
Wait,,,,,,.3,,,,,
,ネプギアクリスマス,笑い,,,,.2,,ハッピークリスマス,,,
CharacterOff,,,,,,,,,,,
,クロワール,悲しみ,,,,,,お前たち姉妹は、立場が完全に逆転してるな。,Br,,
Wait,,,,,,.3,,,,,
,クロワール,通常,,,,.2,,普通なら姉が妹にプレゼントを贈るものだろ,,,
,ネプギアクリスマス,通常,,,,.2,,いいんです。,Br,,
Wait,,,,,,.3,,,,,
,ネプギアクリスマス,笑い,,,,.2,,お姉ちゃんはお姉ちゃんのままで大好きだから,,,
,ネプギアクリスマス,通常,,,,.2,,"それに、いざというときは頼りになって、
いつも本当に感謝しているんです",,,
,ネプギアクリスマス,笑い,,,,.2,,"このプレゼントは、わたしからの、ありがとうの
気持ちでもあるんですよ",Input,,
Selection,*201105-1,,,,0,300,,「尊い……」,,,
*201105-1,,,,,,,,,,,
,ネプテューヌ(大),<Character=大人ネプテューヌ>笑い,,,,,,姉妹愛ってやつだねー,,,
,シイナクリスマス,通常,キャラ中央,,,,Add,,,,
,ノワールクリスマス,悲しみ,キャラ右,,,,Add,,,,
,ネプギアクリスマス,笑い,キャラ左,,,,,,,,
Tween,シイナクリスマス,MoveTo,"x=0 y=-10 islocal=true time=0.3",easeOutQuart,pingPong=2,,Add,,,,
,シイナクリスマス,,,,,,,私からのプレゼントも置いておきますね,,,
,シイナクリスマス,笑い,,,,.2,,"中身は当然、ゲームです。
あなたなら沢山プレイしてくれるでしょうから",,,
,ネプギアクリスマス,通常,,,,.2,,こんなにたくさん……,Next,,
Wait,,,,,,.3,,,,,
,ネプギアクリスマス,笑い,,,,.2,,良かったね、お姉ちゃん,,,
,ノワールクリスマス,通常,,,,.2,,"さ、ここでの用事は済んだわね。
起きないうちに部屋を出ましょう",,,
CharacterOff,,,,,,,,,,,
,ネプテューヌ,<Character=>,,,,,,むにゃむにゃ……んん～,,,
,ノワールクリスマス,悲しみ,,,,,,やば、起きちゃった……？,,,
,ネプテューヌ,<Character=>,,,,,,ノワールは今年もクリぼっちだね、あはは,,,
,ノワールクリスマス,真剣,,,,,,今年は違うわよ！,,,
,ネプテューヌ,<Character=>,,,,,,すう……すう……,,,
,ネプギアクリスマス,固有,,,,,,寝言だったみたいです,,,
,ノワールクリスマス,真剣,,,,,,,,,
Tween,ノワールクリスマス,ShakePosition,"x=10 islocal=true time=.3",,,,Add,,,,
,ノワールクリスマス,悲しみ,,,,.2,,ネプテューヌぅぅっ。,Br,,
Wait,,,,,,.3,,,,,
,ノワールクリスマス,真剣,,,,.2,,押しつけられたナスでも置いていこうかしら,,,
,ネプテューヌ(大),<Character=大人ネプテューヌ>固有,,,,,,それは冗談でもやめてあげて！,,,
FadeOut,black,,,,,1,,,,,
Wait,,,,,,.3,,,,,
EndScenario,,,,,,,,,,,
