[
    {
        "6": {
            "ロロ": "んー、いい天気！"
        },
        "8": {
            "ロロ": "やっぱり早起きは３ゴールドの得だよね"
        },
        "9": {
            "ロロ": "今日もがっぽり稼ぐぞー。待っててね、お金ちゃん"
        },
        "21": {
            "ベール": ""
        },
        "22": {
            "ベール": "はーい、どうぞ。入っていらして"
        },
        "26": {
            "箱崎チカ": ""
        },
        "28": {
            "箱崎チカ": "失礼します。"
        },
        "30": {
            "箱崎チカ": "お姉様、またあの訪問販売が来ました。"
        },
        "32": {
            "箱崎チカ": "追い返しますか？"
        },
        "34": {
            "箱崎チカ": "追い返しましょう。追い返します"
        },
        "36": {
            "ロロ": ""
        },
        "38": {
            "ロロ": "そう来ると思ったから勝手に入っちゃった"
        },
        "39": {
            "箱崎チカ": "アナタ、いったいどうやってここまで！？"
        },
        "40": {
            "ロロ": "ベールお姉ちゃんに秘密の裏口を教えてもらったの"
        },
        "42": {
            "箱崎チカ": ""
        },
        "43": {
            "ベール": ""
        },
        "44": {
            "箱崎チカ": "お姉様！　そんな重大なことを、\nあっさり教えないでください！"
        },
        "45": {
            "ベール": "いいではありませんか。ロロちゃん可愛いですし。\n出歩く手間が省けて、わたくしも業務に集中できます"
        },
        "46": {
            "箱崎チカ": "業務というか、単なるひきこもりですが……"
        },
        "48": {
            "ロロ": "わーい、"
        },
        "50": {
            "ロロ": "お金ちゃ…"
        },
        "52": {
            "ロロ": "…じゃなかった。\nベールお姉ちゃん大好きー♪"
        },
        "53": {
            "箱崎チカ": "お姉ちゃん、などと慣れ慣れしい……\nアナタの前にいるのは一応、女神様だというのに"
        },
        "54": {
            "ロロ": "だって、ベールお姉ちゃんがそう呼んでくれって。\n顧客の要望に応えるのは当然でしょう？"
        },
        "55": {
            "ロロ": "というわけで、今日も選りすぐりの商品を持って来たよ"
        },
        "56": {
            "ロロ": "今日のお薦めはねー……（ごそごそ）"
        },
        "57": {
            "ロロ": "携帯ゲーム機用の超大型バッテリー！\nなんと、電池の保ちが通常の３倍！　重さは５倍！"
        },
        "58": {
            "ロロ": "それからそれから……（ごそごそ）"
        },
        "59": {
            "ロロ": "モニター付き据え置き機運搬ケース！\nこれでコンセントさえあればどこでもゲームができるよ"
        },
        "60": {
            "箱崎チカ": "使えそうで使えなさそうな物ばかり押しつけようと\nしないでくださる！？"
        },
        "61": {
            "ロロ": "えー、文句が多いなー。\nそれじゃベールお姉ちゃんの欲しいものは？"
        },
        "63": {
            "箱崎チカ": ""
        },
        "64": {
            "ベール": ""
        },
        "65": {
            "ベール": "わたくしは、ロロちゃんが欲しいですわ"
        },
        "66": {
            "箱崎チカ": "ダメです、お姉様！"
        },
        "67": {
            "ベール": "えー"
        },
        "68": {
            "ベール": "でしたら、そうですわねぇ……"
        },
        "70": {
            "ベール": "実は最近、肩こりと睡眠不足で悩んでいますの"
        },
        "71": {
            "箱崎チカ": "完全に毎日徹夜でゲームをしているのが原因ですわ"
        },
        "72": {
            "ベール": "う……ハッキリ言わなくても分かってますわよ。"
        },
        "74": {
            "ベール": "ともかく、良い健康グッズがあれば嬉しいですわ"
        },
        "76": {
            "ロロ": "だったらこの、ドルファ製安眠グッズはどう？"
        },
        "77": {
            "ロロ": "この銅像を枕元に置いておくだけで、\nコロリと眠りに落ちるし素敵な夢も見られるんだよ"
        },
        "78": {
            "箱崎チカ": "すさまじく胡散臭いわね"
        },
        "79": {
            "ロロ": "じゃあ同じくドルファ製高級マッサージチェア！"
        },
        "80": {
            "ロロ": "座るだけで相手の体型を把握して全身くまなく\nマッサージしてくれる優れものだよ！"
        },
        "81": {
            "ロロ": "しかも、これだけの機能がありながら\n電源不要で電気代はゼロの良いことずくめ！"
        },
        "82": {
            "ロロ": "たまに、中から「家に帰りたい」とか、\n「サービス残業つらい」とか聞こえてくるけど"
        },
        "84": {
            "箱崎チカ": ""
        },
        "85": {
            "ベール": ""
        },
        "86": {
            "箱崎チカ": "それ絶対、中に社員が入ってるわよね！？"
        },
        "87": {
            "ベール": "わたくしも、そういう禍々しいのはちょっと……"
        },
        "89": {
            "ロロ": "そんな……ダメ？\nベールお姉ちゃんのために持って来たのに……"
        },
        "91": {
            "箱崎チカ": ""
        },
        "92": {
            "ベール": ""
        },
        "93": {
            "ベール": "全部買いますわ（真顔）"
        },
        "94": {
            "箱崎チカ": "お姉様！　またそうやって衝動買いをして！\nだからお部屋にガラクタばかり増えてしまうのですわ！"
        },
        "95": {
            "ベール": "チカ、小さな女の子を悲しませてはいけませんわ"
        },
        "96": {
            "ベール": "わたくしが買えば、ロロちゃんは喜ぶのです。\nそれで良いではありませんの"
        },
        "97": {
            "ベール": "それに、ロロちゃんはわたくしの生き別れの妹かも\nしれませんのよ？"
        },
        "99": {
            "ロロ": "それはないかな"
        },
        "101": {
            "箱崎チカ": ""
        },
        "102": {
            "ベール": ""
        },
        "103": {
            "ベール": "ねぇ、いいでしょう？\nこれを買ったらきっとわたくし元気になりますわ"
        },
        "104": {
            "箱崎チカ": "ぐっ……仕方ありませんわね。\n今回だけですよ、お姉様"
        },
        "105": {
            "ベール": "チカの許可が下りましたわ。\nロロちゃん、お薦めの商品、全部下さいな"
        },
        "108": {
            "ロロ": "毎度あり－！　ベールお姉ちゃん大好きー♪"
        },
        "110": {
            "箱崎チカ": ""
        },
        "111": {
            "ベール": ""
        },
        "112": {
            "ベール": "あぁ……その言葉を聞くだけで……"
        },
        "113": {
            "箱崎チカ": "ハァ……結局、毎回こうなるのよねぇ"
        },
        "115": {
            "ロロ": "おっかねー♪　おかねー♪"
        },
        "117": {
            "箱崎チカ": "なんだか最近、この子の手の平で、\n踊らされてるだけのような気がするわ……"
        }
    }
]