[
    {
        "6": {
            "ロロ": ""
        },
        "7": {
            "ロロ": "さあ、次のお題を発表するよ。\nテーマは『今の気持ち』！"
        },
        "8": {
            "ロロ": "新しい年を迎えた心境を書いてね！"
        },
        "9": {
            "コンパ": ""
        },
        "11": {
            "コンパ": "はい！　できましたっ"
        },
        "12": {
            "ロロ": "お、早いねー。"
        },
        "14": {
            "ロロ": "それじゃ見てみよー"
        },
        "16": {
            "コンパ": ""
        },
        "18": {
            "ロロ": ""
        },
        "20": {
            "コンパ": "えっと"
        },
        "23": {
            "コンパ": "『和み』です"
        },
        "25": {
            "ロロ": "うんうん、"
        },
        "27": {
            "ロロ": "悪くないよー"
        },
        "29": {
            "ネプギア": ""
        },
        "30": {
            "ネプギア": "じゃあ、次はわたしが。"
        },
        "32": {
            "ロロ": ""
        },
        "35": {
            "ロロ": "お、"
        },
        "38": {
            "ロロ": "これは難しい言葉だね"
        },
        "39": {
            "ネプギア": "『一意専心（いちいせんしん）』"
        },
        "41": {
            "ネプギア": "一つのことに一生懸命取り組むって意味です"
        },
        "42": {
            "ロロ": "なるほど、真面目な感じが伝わってくるねー"
        },
        "44": {
            "アイエフ": ""
        },
        "45": {
            "アイエフ": "次は私ね。『勇往邁進』！"
        },
        "48": {
            "ロロ": ""
        },
        "50": {
            "アイエフ": "これはね、困難を恐れず立ち向かうって──"
        },
        "51": {
            "ロロ": "ん、普通"
        },
        "53": {
            "アイエフ": "ちょっと！　最後まで聞きなさいよ！"
        },
        "54": {
            "ロロ": "いやー、だってだいぶ時間が押しちゃってるから。"
        },
        "56": {
            "ロロ": "んじゃ、どんどんいっちゃおー"
        },
        "58": {
            "グリーンハート新春": ""
        },
        "59": {
            "ティアラ新春": ""
        },
        "61": {
            "グリーンハート新春": "はい！　『爆速ロード時間』！！"
        },
        "63": {
            "ティアラ新春": "はい！　『もっと罵って』！！"
        },
        "65": {
            "ロロ": ""
        },
        "66": {
            "ロロ": "どっちもいいね。自分たちの気持ちを\nダイレクトに表現していて素敵だよ"
        },
        "67": {
            "クロワール": "もう、欲望を隠す気がさらさらねーな"
        },
        "68": {
            "パープルハート新春": ""
        },
        "70": {
            "パープルハート新春": "ぐぬぬぬぬっ、わたしだって！！"
        },
        "73": {
            "パープルハート新春": "はい！　『次世代機』はどう！？"
        },
        "74": {
            "ロロ": "これまた欲望が溢れんばかりだね！"
        },
        "75": {
            "「自分もできました！」": {
                "77": {
                    "ロロ": "お、さっきはよく分からなかったから\n今度は期待してるよ。"
                },
                "79": {
                    "ロロ": "さっそく見てみよう"
                }
            }
        },
        "81": {
            "『白味噌』": {
                "84": {
                    "ロロ": "こ、これは……"
                },
                "86": {
                    "天王星うずめ": ""
                },
                "87": {
                    "大人ネプテューヌ新春": ""
                },
                "88": {
                    "クロワール": ""
                },
                "89": {
                    "天王星うずめ": "さっきのに増してわけ分かんねーぞ"
                },
                "90": {
                    "大人ネプテューヌ新春": "鰹出汁、白味噌ときたら……お雑煮かな？"
                },
                "91": {
                    "クロワール": "あいつ、とくに思いつかなかったから、\n夕飯の雑煮のこと考えてるんじゃねえか？"
                },
                "92": {
                    "大人ネプテューヌ新春": "あはは。"
                },
                "94": {
                    "大人ネプテューヌ新春": "<param=player_name>ならあり得るかもね……"
                },
                "98": {
                    "ロロ": "うーん、これは接戦だね！\n勝負はこの最後のお題で決まりそうだよ！"
                },
                "99": {
                    "ロロ": "というわけで、ラストは『自分を表す言葉』\nこれでいこう！"
                },
                "100": {
                    "ネプギア": ""
                },
                "101": {
                    "アイエフ": ""
                },
                "102": {
                    "コンパ": ""
                },
                "103": {
                    "ネプギア": ""
                },
                "104": {
                    "アイエフ": ""
                },
                "105": {
                    "コンパ": ""
                },
                "107": {
                    "ネプギア＆アイエフ＆コンパ": "はい！　できましたっ"
                },
                "110": {
                    "コンパ": "『看護』です"
                },
                "111": {
                    "ロロ": "おしい！　もう一ひねりほしかった！"
                },
                "114": {
                    "ネプギア": "わたしは『妹』です！"
                },
                "115": {
                    "ロロ": "これまたそのまんま！"
                },
                "118": {
                    "アイエフ": "『諜報』ね"
                },
                "119": {
                    "ロロ": ""
                },
                "120": {
                    "ロロ": "ん、普通"
                },
                "121": {
                    "アイエフ": "だからなんで私の時だけやたら淡泊なのよ！？"
                },
                "122": {
                    "ロロ": ""
                },
                "123": {
                    "ロロ": "気を取り直してどんどんいってみよー！"
                },
                "124": {
                    "ティアラ新春": "わたくしはやはり……"
                },
                "127": {
                    "ティアラ新春": "『高貴』\nこれ以外にありませんわ"
                },
                "128": {
                    "ロロ": "この自信と不遜な態度！　"
                },
                "130": {
                    "ロロ": "でもどうせなら『腹黒』とかがよかったね"
                },
                "131": {
                    "ティアラ新春": ""
                },
                "133": {
                    "ティアラ新春": "だ、誰が腹黒ですって！"
                },
                "135": {
                    "パープルハート新春": ""
                },
                "136": {
                    "グリーンハート新春": ""
                },
                "137": {
                    "パープルハート新春": "ここで決着をつけるわよ、ベール！"
                },
                "138": {
                    "グリーンハート新春": "望むところですわ、ネプテューヌ！\nせーので同時にお互いの書を出しましょう"
                },
                "139": {
                    "パープルハート新春": "ええ！　それじゃあいくわよ……"
                },
                "141": {
                    "パープルハート新春": "せーの！！"
                },
                "144": {
                    "パープルハート新春": "『美紫』！！"
                },
                "147": {
                    "グリーンハート新春": "『豊か』！！"
                },
                "149": {
                    "クロワール": ""
                },
                "151": {
                    "クロワール": "どっちも意味分かんねぇな！？"
                },
                "153": {
                    "クロワール": "いや、言いたいことはなんとなく伝わるけど！！"
                },
                "154": {
                    "ロロ": "これは素晴らしい！\nどっちも自慢と主張が詰まっていて甲乙つけがたいよ！"
                }
            }
        },
        "155": {
            "「できた！」": {
                "157": {
                    "ロロ": "これは最後の最後にこの大会最大のダークホースが！\nいったいどんな文字を見せてくれるのかな！"
                }
            }
        },
        "158": {
            "『紫黒橙』": {
                "160": {
                    "ロロ": "ん？　んんー？　\nなんだか今まで以上に意味不明……"
                },
                "162": {
                    "クロワール": ""
                },
                "163": {
                    "天王星うずめ": ""
                },
                "164": {
                    "大人ネプテューヌ新春": ""
                },
                "165": {
                    "クロワール": "あいつ……またよく分からねえことを……"
                },
                "166": {
                    "天王星うずめ": "『紫黒橙』ってなんだろう？"
                },
                "168": {
                    "天王星うずめ": "意味は分からないけど気になるっていうか……"
                },
                "170": {
                    "大人ネプテューヌ新春": "あ……！　"
                },
                "172": {
                    "大人ネプテューヌ新春": "もしかして……！"
                },
                "174": {
                    "ロロ": "さあ、ついにすべてのお題に作品が提示された！"
                },
                "175": {
                    "ロロ": "それぞれのお題に点数をつけてそれらを合計して\nあとはなんかこうテキトーに独断と偏見で──"
                },
                "176": {
                    "クロワール": ""
                },
                "178": {
                    "クロワール": "ちょっと待てこら。今、テキトーとか言わなかったか？"
                },
                "179": {
                    "ロロ": "あー……"
                },
                "181": {
                    "ロロ": "うん。それじゃあ発表するよ。"
                },
                "183": {
                    "ロロ": "書き初め大会の優勝者は……"
                },
                "194": {
                    "ロロ": "<param=player_name>！"
                },
                "201": {
                    "全員": "ええーっ！？"
                },
                "203": {
                    "パープルハート新春": ""
                },
                "204": {
                    "グリーンハート新春": ""
                },
                "205": {
                    "パープルハート新春": "どうしてそうなるのよ！？"
                },
                "206": {
                    "グリーンハート新春": "わたくしの作品は、\n終始高い評価を得ていたはずですわよね！？"
                },
                "208": {
                    "ロロ": "さあね～。詳しいことは審査員に聞いてよ！"
                },
                "209": {
                    "クロワール": "いや、審査員おまえじゃねえか"
                },
                "210": {
                    "ロロ": ""
                },
                "213": {
                    "ロロ": "ってことで、はい。約束の豪華賞品だよ。"
                },
                "215": {
                    "ロロ": "噂のゲーム機で、思う存分楽しんでね～"
                },
                "220": {
                    "イストワール": "やれやれ、終わってみれば\n引っかき回されただけって感じですね"
                },
                "221": {
                    "ティアラ新春": "まったく、とんだ茶番に付き合わされましたわ"
                },
                "223": {
                    "ネプギア": ""
                },
                "224": {
                    "コンパ": ""
                },
                "225": {
                    "アイエフ": ""
                },
                "226": {
                    "ネプギア": "でも、ちょっと楽しかったです"
                },
                "227": {
                    "コンパ": "はい、みんなそれぞれ自分の思ってることが\n違っていて、面白かったです"
                },
                "228": {
                    "アイエフ": "一部、欲望に忠実すぎる人たちもいたけどね"
                },
                "230": {
                    "パープルハート新春": "そんなことより、豪華賞品よ！"
                },
                "231": {
                    "イストワール": "まだ諦めてないんですか。"
                },
                "233": {
                    "イストワール": "ダメですよ、勝ったのは<param=player_name>さんです"
                },
                "235": {
                    "パープルハート新春": ""
                },
                "236": {
                    "グリーンハート新春": ""
                },
                "239": {
                    "パープルハート新春": "分かってるわよ。見るだけ！　見るだけだから！"
                },
                "242": {
                    "グリーンハート新春": "わたくしも、まだ現物は見たことがありませんわ"
                },
                "244": {
                    "クロワール": "仕方ねえ連中だな。"
                },
                "246": {
                    "クロワール": "このままじゃ収まりそうもねえから見せてやれよ"
                }
            }
        },
        "247": {
            "「わかった」": {
                "257": {
                    "パープルハート新春": ""
                },
                "258": {
                    "グリーンハート新春": ""
                },
                "259": {
                    "パープルハート新春": "ちょっと、これのどこが最新ゲーム機なのよ！"
                },
                "260": {
                    "グリーンハート新春": "最新どころか、１０年以上前に\n販売終了したハードですわね"
                },
                "262": {
                    "クロワール": ""
                },
                "263": {
                    "イストワール": ""
                },
                "264": {
                    "イストワール": "そういえば、最新だなんて一言も言っていませんね"
                },
                "265": {
                    "クロワール": "ああ、だけど確かに『今はなかなか手に入らない』な"
                },
                "267": {
                    "グリーンハート新春": ""
                },
                "268": {
                    "パープルハート新春": ""
                },
                "269": {
                    "グリーンハート新春": "どうやらわたくしたち、\nまんまと騙されたようですわね"
                },
                "271": {
                    "パープルハート新春": "く～～～っ！　"
                },
                "274": {
                    "パープルハート新春": "ロロ～～！！"
                },
                "276": {
                    "パープルハート新春": "……って、あれ？　いないっ？"
                },
                "278": {
                    "コンパ": "ロロさんなら、レンタル料金の入った箱を抱えて\n走って遠くへいっちゃったです"
                },
                "279": {
                    "パープルハート新春": ""
                },
                "281": {
                    "パープルハート新春": "なんですって！"
                },
                "282": {
                    "アイエフ": "ま、最初からこうするつもりだったんでしょうね"
                },
                "283": {
                    "ネプギア": "残念でしたね、お姉ちゃん"
                },
                "284": {
                    "パープルハート新春": ""
                },
                "286": {
                    "パープルハート新春": "そんな～～～～～！！"
                },
                "287": {
                    "イストワール": "元気出してください、ネプテューヌさん。"
                },
                "289": {
                    "イストワール": "落ち込むことないですよ"
                },
                "290": {
                    "イストワール": "一生懸命お仕事をして、お賃金を貯めていれば、\nそのうち噂のゲーム機も買えるようになりますって"
                },
                "291": {
                    "パープルハート新春": "ううう～～。分かったわよ、"
                },
                "294": {
                    "パープルハート新春": "働けばいいんでしょ、働けば～"
                },
                "295": {
                    "パープルハート新春": "でもその前に、甘酒飲んで帰る～～！！"
                },
                "301": {
                    "ネプギア": ""
                },
                "302": {
                    "グリーンハート新春": ""
                },
                "304": {
                    "ネプギア": "あっ、一緒に行きます！！"
                },
                "305": {
                    "グリーンハート新春": "わたくしも付き合いますわ"
                },
                "313": {
                    "ティアラ新春": "アマザケ……それはどういう飲み物なんですの？\n私も飲んでみたいですわ"
                },
                "321": {
                    "クロワール": ""
                },
                "322": {
                    "大人ネプテューヌ新春": ""
                },
                "323": {
                    "天王星うずめ": ""
                },
                "324": {
                    "クロワール": "みんな、出店の方に行っちまったな。"
                },
                "326": {
                    "クロワール": "俺たちはどうする？"
                },
                "327": {
                    "大人ネプテューヌ新春": "宿に戻ってゲーム大会でもしようよ。"
                },
                "329": {
                    "大人ネプテューヌ新春": "せっかくゲーム機をもらったんだし"
                },
                "330": {
                    "天王星うずめ": "お、いいなそれ。\n今夜はレトロゲームで盛り上がるか"
                },
                "331": {
                    "クロワール": "ま、それも悪くないか"
                },
                "332": {
                    "天王星うずめ": "そういえばさ、<param=player_name>が最後に書いた\n今の気持ちって、どういう意味だったんだ？"
                }
            }
        },
        "334": {
            "「みんながいるから、自分がいるってことだよ」": {
                "337": {
                    "クロワール": "なんだそりゃ？"
                },
                "338": {
                    "天王星うずめ": "勿体ぶらないで教えてくれよ"
                },
                "339": {
                    "大人ネプテューヌ新春": "紫は、わたし。\n黒はクロちゃん、橙はうずめを表してるんじゃない？"
                },
                "340": {
                    "大人ネプテューヌ新春": "つまり、わたしたちがいるから、自分がいるって\n言いたかったのかなーって思ったんだけど"
                }
            }
        },
        "341": {
            "「大正解！！」": {
                "344": {
                    "天王星うずめ": "なるほど！　"
                },
                "346": {
                    "天王星うずめ": "でも、なんか照れくさいな"
                },
                "347": {
                    "クロワール": "そういうこと真顔で言うやつなんだよ、こいつは"
                },
                "348": {
                    "大人ネプテューヌ新春": "でも、だからこそ一緒に旅をしてるんだよね"
                }
            }
        },
        "349": {
            "「みんな、今年もよろしく！」": {
                "359": {
                    "": "『初春に集えば夢のあとさき』\n　　　　　　　　　　　　　　　　　　　　　　END"
                }
            }
        }
    }
]