[
    {
        "6": {
            "グリーンハートメイド": ""
        },
        "7": {
            "グリーンハートメイド": "では、最初は注文を取ることから始めてみましょうか"
        },
        "9": {
            "クロワール": ""
        },
        "10": {
            "大人ネプテューヌ": ""
        },
        "11": {
            "クロワール": "それ、もうメイドっていうかメイド喫茶だよな"
        },
        "12": {
            "大人ネプテューヌ": "クロちゃん、そういう野暮なツッコミはなしだよ"
        },
        "14": {
            "グリーンハートメイド": "というわけで、<param=player_name>にお手本を\n見せていただきましょう"
        },
        "15": {
            "「合点承知！」": {
                "18": {
                    "ネプテューヌ": ""
                }
            }
        },
        "16": {
            "「ではさっそく……」": {
                "18": {
                    "ネプテューヌ": ""
                }
            }
        },
        "20": {
            "「ご注文はいかがいたしますか？　お嬢様」": {
                "22": {
                    "グリーンハートメイド": "グッドですわ！　"
                },
                "24": {
                    "グリーンハートメイド": "笑顔、お辞儀の角度共に完璧ですわ！"
                },
                "25": {
                    "ノワールバレンタイン": ""
                },
                "26": {
                    "ノワールバレンタイン": "なによ、それくらい私だって"
                },
                "27": {
                    "ネプテューヌ": "じゃあ、やってみせてよノワール"
                },
                "29": {
                    "ノワールバレンタイン": ""
                },
                "30": {
                    "ネプテューヌ": ""
                },
                "31": {
                    "ノワールバレンタイン": "みてなさい。"
                },
                "34": {
                    "ノワールバレンタイン": "……ご注文はいかがいたしますか？"
                },
                "36": {
                    "グリーンハートメイド": "今一つ可愛げがありませんわね"
                },
                "37": {
                    "ノワールバレンタイン": "これ以上何をどうしろっていうの！？"
                },
                "39": {
                    "大人ネプテューヌ": ""
                },
                "40": {
                    "大人ネプテューヌ": "まあまあ、諦めないでやってみようよ"
                },
                "42": {
                    "ネプテューヌ": ""
                },
                "43": {
                    "ノワールバレンタイン": ""
                },
                "44": {
                    "ノワールバレンタイン": "もう一回やるわよ。"
                },
                "47": {
                    "ノワールバレンタイン": "ご注文はいかがいたしますか？"
                },
                "48": {
                    "ネプテューヌ": ""
                },
                "50": {
                    "ネプテューヌ": "もちろんプリン！"
                },
                "52": {
                    "グリーンハートメイド": "はいストップ。そこはオムライスにしてくださいませ"
                },
                "53": {
                    "ネプテューヌ": ""
                },
                "54": {
                    "ネプテューヌ": "えー、なんでー"
                },
                "55": {
                    "グリーンハートメイド": "それがメイド喫茶の定番だからですわ"
                },
                "56": {
                    "クロワール": ""
                },
                "57": {
                    "クロワール": "ついにメイド喫茶って言い切ったぞこの女神"
                },
                "58": {
                    "グリーンハートメイド": ""
                },
                "59": {
                    "グリーンハートメイド": "とにかく注文はオムライスで"
                },
                "61": {
                    "ネプテューヌ": ""
                },
                "62": {
                    "ノワールバレンタイン": ""
                },
                "63": {
                    "ネプテューヌ": "もうわかったよー。"
                },
                "65": {
                    "ネプテューヌ": "ま、プリンはデザートにしよっと"
                },
                "67": {
                    "ネプテューヌ": "オムライス一つちょーだい"
                },
                "68": {
                    "ノワールバレンタイン": "えーと、これは作ってこいってこと？\nまあいいけど。"
                },
                "70": {
                    "ノワールバレンタイン": "じゃあちょっと待ってて……"
                },
                "72": {
                    "ノワールバレンタイン": "じゃなくて"
                },
                "73": {
                    "ノワールバレンタイン": "かしこまりました。少々お待ちください"
                },
                "84": {
                    "ネプテューヌ": ""
                },
                "86": {
                    "ノワールバレンタイン": ""
                },
                "88": {
                    "ノワールバレンタイン": "お待たせいたしました。オムライスです"
                },
                "90": {
                    "グリーンハートメイド": ""
                },
                "92": {
                    "グリーンハートメイド": "ストーップ！"
                },
                "93": {
                    "ノワールバレンタイン": "な、何よ！？"
                },
                "95": {
                    "グリーンハートメイド": ""
                },
                "96": {
                    "ノワールバレンタイン": ""
                },
                "97": {
                    "グリーンハートメイド": "ダメダメのダメ！　マイナス１００点ですわ！"
                },
                "98": {
                    "グリーンハートメイド": "問題は、すでにケチャップがかかっていること"
                },
                "99": {
                    "グリーンハートメイド": "ケチャップはお客さまの前でメイド自らが\nかけて差し上げるのが鉄則ですわ！"
                },
                "100": {
                    "ノワールバレンタイン": "そ、"
                },
                "102": {
                    "ノワールバレンタイン": "そんなの知らないわよ"
                },
                "103": {
                    "グリーンハートメイド": "知らないではすまされません。いいですか？\nわたくしが教える通りにやってくださいませ……"
                },
                "111": {
                    "ノワールバレンタイン": "…………って、そんなのできるわけないでしょ！？"
                },
                "112": {
                    "グリーンハートメイド": "できないではありませんわ。"
                },
                "114": {
                    "グリーンハートメイド": "や・"
                },
                "116": {
                    "グリーンハートメイド": "る・"
                },
                "118": {
                    "グリーンハートメイド": "の・"
                },
                "120": {
                    "グリーンハートメイド": "で・"
                },
                "122": {
                    "グリーンハートメイド": "す"
                },
                "124": {
                    "ノワールバレンタイン": "う……ベールなんか怖いんだけど……"
                },
                "125": {
                    "ノワールバレンタイン": "ああ、もう！　分かったわよ！"
                },
                "128": {
                    "ノワールバレンタイン": "やればいいんでしょ、やれば！"
                },
                "131": {
                    "ノワールバレンタイン": ""
                },
                "132": {
                    "ノワールバレンタイン": "えーと……ケチャップおかけしますね〜。"
                },
                "133": {
                    "ノワールバレンタイン": "こうしてこうしてハートを描いて……"
                },
                "134": {
                    "ノワールバレンタイン": "最後に愛情をたっぷり注入しま〜す。"
                },
                "136": {
                    "ノワールバレンタイン": "らぶ"
                },
                "138": {
                    "ノワールバレンタイン": "らぶ、"
                },
                "142": {
                    "ノワールバレンタイン": "キュン❤"
                },
                "144": {
                    "クロワール": ""
                },
                "145": {
                    "大人ネプテューヌ": ""
                },
                "146": {
                    "クロワール": "…………"
                },
                "147": {
                    "大人ネプテューヌ": "…………"
                },
                "149": {
                    "ネプテューヌ": "……ぷっ。"
                },
                "153": {
                    "ネプテューヌ": "あははははは！\nら、らぶらぶきゅんって……！　ノワールが！"
                },
                "154": {
                    "ノワールバレンタイン": ""
                },
                "156": {
                    "ノワールバレンタイン": "わ、笑うなー！\nやれって言われたからやったのよ！"
                },
                "157": {
                    "ノワールバレンタイン": "ああ、もうなんでこんなことしちゃったの私……"
                },
                "158": {
                    "グリーンハートメイド": "その恥じらいの表情……まさにツンデレ……"
                },
                "160": {
                    "グリーンハートメイド": "プラス２００点ですわ！"
                },
                "161": {
                    "クロワール": "なんかもうメイドすら関係なくなってきてんな"
                },
                "163": {
                    "ノワールバレンタイン": ""
                },
                "164": {
                    "ネプテューヌ": ""
                },
                "165": {
                    "ノワールバレンタイン": "もうやってられないわ！"
                },
                "166": {
                    "ノワールバレンタイン": "少なくとも、相手がネプテューヌっていうのだけは\nなんとかしてよ！"
                },
                "167": {
                    "ネプテューヌ": "ひっどーい、わたし頑張ってるのにー。"
                },
                "170": {
                    "ネプテューヌ": "……うぷぷっ"
                },
                "172": {
                    "ノワールバレンタイン": "だから思い出し笑いするなー！"
                },
                "176": {
                    "グリーンハートメイド": "ネプテューヌがダメとなると……"
                },
                "178": {
                    "グリーンハートメイド": "そうですわ！\n妹のユニさんなどいかがでしょう？"
                },
                "179": {
                    "グリーンハートメイド": "相手が可愛い妹なら、自然と優しくなれるのでは？"
                },
                "181": {
                    "グリーンハートメイド": "ちなみにわたくしはもの凄くなりますわ！"
                },
                "182": {
                    "クロワール": "なぜそこだけ力強く言う……"
                },
                "183": {
                    "グリーンハートメイド": "というわけで、わたくしを妹だと思って\nやってみてくださいな"
                },
                "184": {
                    "ノワールバレンタイン": ""
                },
                "186": {
                    "ノワールバレンタイン": "はぁ……"
                },
                "188": {
                    "ノワールバレンタイン": "もう付き合うのはこれで最後だからね\nやるならちょっとは似せようとしてよ"
                },
                "190": {
                    "グリーンハートメイド": ""
                },
                "191": {
                    "ノワールバレンタイン": ""
                },
                "192": {
                    "グリーンハートメイド": "なるほど。えーと……"
                },
                "195": {
                    "グリーンハートメイド": "お姉さま〜"
                },
                "197": {
                    "グリーンハートメイド": "わたくし〜、"
                },
                "200": {
                    "グリーンハートメイド": "オムライスが食べたいですわ〜"
                },
                "201": {
                    "ノワールバレンタイン": "なぜかしら、もの凄く腹が立つわね"
                },
                "202": {
                    "ノワールバレンタイン": "ていうか、うちのユニはそんな媚び媚びな態度は\nとらないわよ"
                },
                "203": {
                    "グリーンハートメイド": "あら？　そうですの？\n甘えさせてあげないんですの？"
                },
                "204": {
                    "ノワールバレンタイン": "させないんじゃなくて、甘えてくれないの。"
                },
                "206": {
                    "ノワールバレンタイン": "いつも無理して背伸びばっかしてるんだから"
                }
            }
        },
        "207": {
            "「甘えてほしいの？」": {
                "209": {
                    "ノワールバレンタイン": "それは……まあね。可愛い妹だもの"
                },
                "210": {
                    "ノワールバレンタイン": "常時ネプテューヌみたいなのは勘弁だけど\nたまには、頼って甘えてほしいとは思うわ"
                },
                "212": {
                    "ネプテューヌ": "だったらその気持ちをちゃんと伝えればいいのに。"
                },
                "214": {
                    "ネプテューヌ": "わたしはいつもネプギアに言ってるよ"
                },
                "215": {
                    "ノワールバレンタイン": ""
                },
                "216": {
                    "ノワールバレンタイン": "だから、あんたは姉でしょうが。\nむしろしっかりしないと……"
                },
                "218": {
                    "ノワールバレンタイン": "ん？　気持ちを伝える？"
                },
                "219": {
                    "ノワールバレンタイン": "……そうか。そうよね。"
                },
                "221": {
                    "ノワールバレンタイン": "チョコをあげるのは気持ちを伝えるためなのよね"
                },
                "222": {
                    "ノワールバレンタイン": "私、大事なことを思いだした！　行かなきゃ！"
                },
                "223": {
                    "クロワール": "お、おい、これどーすんだよ！"
                },
                "224": {
                    "ノワールバレンタイン": ""
                },
                "225": {
                    "ノワールバレンタイン": "あとはみんなでどーぞ。"
                },
                "227": {
                    "ノワールバレンタイン": "それじゃ！"
                },
                "233": {
                    "グリーンハートメイド": ""
                },
                "234": {
                    "クロワール": ""
                },
                "235": {
                    "グリーンハートメイド": "ふふ……わたくしの言いたい事が\nようやく伝わったようですわね"
                },
                "236": {
                    "クロワール": "いや、絶対違うと思うぞ……"
                },
                "246": {
                    "ユニ": ""
                },
                "248": {
                    "ノワールバレンタイン": ""
                },
                "250": {
                    "ノワールバレンタイン": "ユニ！"
                },
                "252": {
                    "ユニ": "お、お姉ちゃん？　"
                },
                "254": {
                    "ユニ": "どうしたのそんなに急いで……"
                },
                "255": {
                    "ノワールバレンタイン": "チョコを作るの手伝って！"
                },
                "257": {
                    "ユニ": "え……"
                },
                "268": {
                    "ユニ": ""
                },
                "269": {
                    "ノワールバレンタイン": ""
                },
                "270": {
                    "ユニ": "ビックリしちゃった。\n急に手伝ってなんて言うから"
                },
                "271": {
                    "ノワールバレンタイン": "……ごめんね。ユニ"
                },
                "272": {
                    "ユニ": "お姉ちゃん？"
                },
                "273": {
                    "ノワールバレンタイン": "いつも、忙しい私を心配して手伝おうって\nしてくれてたのに、ずっと断ってたでしょ"
                },
                "274": {
                    "ノワールバレンタイン": "ユニを信頼してないわけじゃないの。\nただ、姉として妹に頼っちゃいけない気がして……"
                },
                "275": {
                    "ノワールバレンタイン": "だってユニは頑張りすぎるから。"
                },
                "277": {
                    "ノワールバレンタイン": "もっと私に頼って甘えてくれていいのよ"
                },
                "278": {
                    "ユニ": "……アタシは、もっとお姉ちゃんの力になりたい"
                },
                "279": {
                    "ユニ": "お姉ちゃんの負担を減らしたいのももちろんだけど\nいつかお姉ちゃんみたいな女神になりたいから"
                },
                "281": {
                    "ノワールバレンタイン": "ふふ……そっか。なんだか似たようなこと考えて\nお互いにすれ違ってたみたいね"
                },
                "282": {
                    "ユニ": "うん、そうだね"
                },
                "283": {
                    "ノワールバレンタイン": "そうだ。"
                },
                "285": {
                    "ノワールバレンタイン": "ユニ、はいこれ"
                },
                "288": {
                    "ユニ": "これ……チョコ？"
                },
                "289": {
                    "ノワールバレンタイン": "そうよ。誰よりも先に作っておいたの。\nだって、一番大事な妹にあげるんだから"
                },
                "290": {
                    "ユニ": "お姉ちゃん……アタシも、実は……"
                },
                "292": {
                    "ノワールバレンタイン": "このチョコ、ユニが作ったの？"
                },
                "293": {
                    "ユニ": "うん。お姉ちゃんにあげようと思って"
                },
                "295": {
                    "ノワールバレンタイン": "ふふ……やっぱり考えてることは同じね"
                },
                "296": {
                    "ユニ": "うん。だって、姉妹だもん"
                },
                "307": {
                    "ノワール": "はい、これ。チョコよ"
                },
                "308": {
                    "ノワール": "一応だけど、あんたたちのおかげで\nユニの気持ちに気づけたから……"
                },
                "310": {
                    "ノワール": "そのお礼"
                },
                "312": {
                    "ノワール": "他の意味なんてないんだからねっ"
                },
                "313": {
                    "ベール": ""
                },
                "314": {
                    "ベール": "素晴らしいツンデレ……"
                },
                "316": {
                    "ベール": "プラス２万点ですわ！"
                },
                "318": {
                    "ネプテューヌ": ""
                },
                "319": {
                    "クロワール": ""
                },
                "320": {
                    "クロワール": "それはもういいって"
                },
                "321": {
                    "ネプテューヌ": "チョコかー。どうせならプリンが良かったなー"
                },
                "323": {
                    "ネプテューヌ": "もうちょっとで上手くいきそうだったのに"
                },
                "327": {
                    "ノワール": "ちょっと待ちなさい。もしかして、何か足りないって\n私にプリン作らせたいから言ってただけなの？"
                },
                "328": {
                    "ネプテューヌ": ""
                },
                "330": {
                    "ネプテューヌ": "あ、しまった"
                },
                "331": {
                    "ノワール": "ネプテューヌ、"
                },
                "333": {
                    "ノワール": "あんたねえ……！"
                },
                "334": {
                    "ネプテューヌ": ""
                },
                "335": {
                    "ネプテューヌ": "うわっ、ノワールが怒った！　逃げろー！"
                },
                "341": {
                    "ノワール": ""
                },
                "343": {
                    "ノワール": "待ちなさい！　そのチョコ返せー！"
                },
                "349": {
                    "クロワール": ""
                },
                "350": {
                    "大人ネプテューヌ": ""
                },
                "351": {
                    "クロワール": "やれやれ、あいつら結局こうなんのか"
                },
                "352": {
                    "大人ネプテューヌ": "あれがあの二人のコミュニケーションなんだよきっと"
                },
                "361": {
                    "": "『女神のチョコに愛を込めて』\n　　　　　　　　　　　　　　　　　　　　　　END"
                }
            }
        }
    }
]