Command,Arg1,Arg2,Arg3,Arg4,Arg5,Arg6,WaitType,Text,PageCtrl,Voice,WindowType
FadeOut,black,,,,,0,,,,,
Bg,背景(ベールの部屋：昼),,,,,,,,,,
Wait,,,,,,.3,,,,,
FadeIn,black,,,,,1,,,,,
Bgm,ADV通常,,,,,,,,,,
Se,ピコピコ音,,,,,,,,,,
Wait,,,,,,.5,,,,,
,ベール,笑い,キャラ中央,,,,,"<param=player_name>は筋がいいですわね。
わたくしのギルドに加入して欲しいくらいですわ",Input,,
Selection,"*select 200501-1",,,,0,350,,「ベールの教え方が上手いからだよ」,,,
Selection,"*select 200501-2",,,,0,200,,「刻の涙が見える……」,,,
"*select 200501-1",,,,,,,,,,,
,ベール,笑い,キャラ中央,,,,,まぁ！お上手ですわね♪,,,
CharacterOff,,,,,,,,,,,
Jump,"*confluence 200501-1",,,,,,,,,,
"*select 200501-2",,,,,,,,,,,
CharacterOff,,,,,,0,,,,,
,クロワール,固有,キャラ中央,,,,,なんか見えちゃいけねぇもんが見えてるぞ,,,
Jump,"*confluence 200501-1",,,,,,,,,,
"*confluence 200501-1",,,,,,,,,,,
,クロワール,悲しみ,キャラ中央,,,.2,,んなことより、こっちを手伝えよ,,,
CharacterOff,,,,,,,,,,,
,ベール,真剣,キャラ中央,,,,,"ダメですわよ。<param=player_name>は今日一日、
わたくしがお借りする約束ですわ",,,
,ベール,悲しみ,キャラ中央,,,.2,,"だいたい、手伝うと言ってもガラクタを
ひっくり返して遊んでいるだけではありませんの",,,
CharacterOff,,,,,,0,,,,,
,大人ネプテューヌ,真剣,キャラ中央,,,,,ガラクタじゃないよ！　ねぷのーと！,,,
CharacterOff,,,,,,0,,,,,
,クロワール,通常,キャラ中央,,,,,"<param=player_name>の記憶が蘇りそうなもんがないか、
探してるんじゃねぇか",,,
CharacterOff,,,,,,0,,,,,
,大人ネプテューヌ,通常,キャラ中央,,,,,"手に持つ扇風機、ポータブルゲーム、こっちは、
コンパが作ってくれたプリン（賞味期限切れ）",,,
,大人ネプテューヌ,,,,,,,,,,
,大人ネプテューヌ,真剣,キャラ左,,,,,これは伝説の剣……,Next,,
Wait,,,,,,.3,,,,,
,大人ネプテューヌ,真剣,キャラ左,,,,,のレプリカ！,Br,,
,大人ネプテューヌ,笑い,キャラ左,,,.2,,でも、それなりに殺傷力があるんだよね～,,,
,大人ネプテューヌ,通常,キャラ右,,,,,"こっちはネプゲージの新幹線と電車、ジオラマ、
レールに橋桁、踏切、駅舎、マスコン……",,,
CharacterOff,,,,,,,,,,,
,ベール,悲しみ,キャラ左,,,,,,,,
,クロワール,悲しみ,キャラ右,,,,,,,,
,ベール,悲しみ,キャラ左,,,,,やっぱりガラクタではありませんの,,,
,クロワール,悲しみ,キャラ右,,,,,う……否定できねぇ,,,
,クロワール,通常,キャラ右,,,.2,,"って、あんま散らかすなよ。
余計に探すのが大変になるだろ",,,
CharacterOff,,,,,,,,,,,
,大人ネプテューヌ,悲しみ,キャラ中央,,,,,えー、だってー,,,
CharacterOff,,,,,,,,,,,
,ベール,通常,キャラ中央,,,,,"隣のお部屋でしたら沢山散らかして構いませんわ。
そちらをお使いになってくださいませ",,,
,大人ネプテューヌ,笑い,キャラ中央,,,,,ごめんごめん、そうするね,,,
Tween,大人ネプテューヌ,MoveAdd,"x=100 y=0 time=1",easeOutQuad,,,Add,,,,
CharacterOff,大人ネプテューヌ,,,,,1,,,,,
Wait,,,,,,1,,,,,
,ベール,通常,キャラ左,,,,,,,,
,クロワール,通常,キャラ右,,,,,,,,
,ベール,笑い,キャラ左,,,.2,,ふふふ……これで<param=player_name>をひとり占め,,,
,クロワール,通常,キャラ右,,,,,なんか言ったか？,,,
,ベール,笑い,キャラ左,,,,,いえいえ、何も,,,
,クロワール,悲しみ,キャラ右,,,.2,,……まあ、いいけど,,,
,クロワール,悲しみ,キャラ右,,,,,"それにしても、リーンボックスに着いてからずっと、
気が緩みっぱなしだなぁ……ふああぁ……",,,
,クロワール,笑い,キャラ右,,,.2,,ま、こんなのんびりした日も悪くねぇ……か,,,
StopBgm,,,,,,1,Add,,,,
FadeOut,black,,,,,1,,,,,
FadeOut,black,,,,,1,,,,,
Wait,,,,,,.3,,,,,
EndScenario,,,,,,,,,,,
