[
    {
        "14": {
            "ファウスト": "（遠くで、声が聞こえる。\n　懐かしい……魔王たちの声が……）"
        },
        "17": {
            "ルゥシェ": ""
        },
        "18": {
            "ペルペル": ""
        },
        "21": {
            "ルゥシェ": "いよいよね……ペルペル、覚悟はいい？"
        },
        "22": {
            "ペルペル": "もちろんだよお！"
        },
        "23": {
            "ペルペル": "トリトリのあそこ、グリグリしてえ、\nくぱぁって開けてやっつけちゃうんだからあ！"
        },
        "24": {
            "ペルペル": "それで、大まおー叔父ちゃんとるぅ姉に、\nいーっぱい褒めてもらうんだあ！"
        },
        "26": {
            "ゼアボロスゾンビ": "良い、気勢だ。\nそれでこそ、大魔王となるに相応しい"
        },
        "27": {
            "ゼアボロスゾンビ": "ゆけ！　存分に暴れてくるがいい！"
        },
        "29": {
            "ファウスト": "（分かっている……\n　これはただの夢……）"
        },
        "30": {
            "ファウスト": "（私は今、二度と戻らない、あの日の夢を見ている）"
        },
        "43": {
            "ペルペル": ""
        },
        "44": {
            "ファウスト": ""
        },
        "47": {
            "ペルペル": "はれえ……？\nふぁーちゃんがいるう……どうしてえ……？"
        },
        "48": {
            "ファウスト": "…………"
        },
        "49": {
            "ペルペル": "トリトリ、やっつけられなかったよお……\nぱっくんも、いなくなって……"
        },
        "50": {
            "ファウスト": "そうね、貴方は負けた。\nだから、覇王の指輪は返してもらうわ"
        },
        "51": {
            "ペルペル": "うん、ちゃんと次の魔王に渡すよお……"
        },
        "53": {
            "ファウスト": "いいえ、それは無理ね。"
        },
        "56": {
            "ファウスト": "だって、貴方はこれから死ぬのだから"
        },
        "65": {
            "ペルペル": "う゛ぁああ……っ！"
        },
        "66": {
            "ペルペル": "太いのが、お腹のなかにいい……！\nいれちゃやだよおお！"
        },
        "67": {
            "ペルペル": "あついい……！　いたいよおおおおっ！\nたすけて……たすけてえええ！"
        },
        "74": {
            "ファウスト": "（やめて……！　もう見せないで！\n　こんな……こんな……もうたくさんよ！）"
        },
        "85": {
            "ゼアボロスゾンビ": ""
        },
        "91": {
            "ゼアボロスゾンビ": ""
        },
        "94": {
            "ゼアボロスゾンビ": "ファウスト……なぜ、だ"
        },
        "99": {
            "ファウスト": "覇王の指輪と、大魔王ゼアボロスの魂……\n確かにもらいうけたわ"
        },
        "102": {
            "ルゥシェ": ""
        },
        "104": {
            "ルゥシェ": "ファウスト……あんた何してんのよ！？"
        },
        "105": {
            "ファウスト": "ごめんなさい。予定が変わったの。\n貴方たちに、もう用はないわ"
        },
        "110": {
            "ルゥシェ": ""
        },
        "113": {
            "ルゥシェ": "待ちなさい！　ファウストー！"
        },
        "124": {
            "？？？": "いいねいいね！　トリリオンの暴れっぷり！\n最高にクールなショータイムだぜ！"
        },
        "125": {
            "ファウスト": "あなた、私に何をしたの……！"
        },
        "126": {
            "？？？": "あぁ？　なんだよ、その目は。\nあの大魔王の魂が欲しかったんだろ？"
        },
        "127": {
            "？？？": "魔王たちに情が湧いて躊躇ってたみたいだからな。\nだから、ちょっとばかり手伝ってやったんだよ"
        },
        "128": {
            "？？？": "マインド・フォースの力で余計な感情を消して、\n欲望に忠実になれるようにな"
        },
        "129": {
            "？？？": "そしたらどうだ。無慈悲に、ひたすら合理的に、\n連中から何もかも奪いやがった！"
        },
        "130": {
            "？？？": "さすが、オレ様が見込んだだけのことはあるぜ！"
        },
        "131": {
            "ファウスト": ""
        },
        "134": {
            "ファウスト": "あ、ああ……そんな……"
        },
        "138": {
            "ルゥシェ": ""
        },
        "140": {
            "ルゥシェ": "ぜぇ、ぜぇ……ファウスト、見つけたわ！"
        },
        "141": {
            "ファウスト": "ルゥ、シェ……"
        },
        "142": {
            "？？？": "さてと、行こうか、ファウストちゃん"
        },
        "143": {
            "ルゥシェ": "逃げるんじゃないわよ！"
        },
        "144": {
            "ファウスト": "ルゥシェ……私は……"
        },
        "146": {
            "ネームレス": ""
        },
        "152": {
            "ルゥシェ": ""
        },
        "155": {
            "ルゥシェ": "許さない、ぜったいに許さないんだからああああ！"
        },
        "274": {
            "「でも……」": {
                "277": {
                    "天王星うずめ": "いいんだ。魔物が出るかもしれねぇし、\nおまえに何かあったらその方が嫌だ"
                },
                "278": {
                    "天王星うずめ": "それに、アクセサリーなんてガラじゃねぇしな"
                }
            }
        },
        "275": {
            "「買ったばかりなんでしょ？」": {
                "277": {
                    "天王星うずめ": "いいんだ。魔物が出るかもしれねぇし、\nおまえに何かあったらその方が嫌だ"
                },
                "278": {
                    "天王星うずめ": "それに、アクセサリーなんてガラじゃねぇしな"
                }
            }
        },
        "279": {
            "「そんなことないよ」": {
                "282": {
                    "天王星うずめ": "お、おい、<param=player_name>……"
                },
                "285": {
                    "天王星うずめ": "誰だ……！"
                },
                "289": {
                    "ファウスト": ""
                },
                "291": {
                    "ファウスト": "…………"
                },
                "292": {
                    "天王星うずめ": "おまえは……"
                }
            }
        },
        "280": {
            "「もう少し探そう」": {
                "282": {
                    "天王星うずめ": "お、おい、<param=player_name>……"
                },
                "285": {
                    "天王星うずめ": "誰だ……！"
                },
                "289": {
                    "ファウスト": ""
                },
                "291": {
                    "ファウスト": "…………"
                },
                "292": {
                    "天王星うずめ": "おまえは……"
                }
            }
        },
        "293": {
            "「ファウスト」": {
                "295": {
                    "ファウスト": "……ええ"
                }
            }
        }
    }
]