Command,Arg1,Arg2,Arg3,Arg4,Arg5,Arg6,WaitType,Text,PageCtrl,Voice,WindowType
FadeOut,black,,,,,0,,,,,
Bg,背景(草原：昼),,,,,,,,,,
Wait,,,,,,.3,,,,,
FadeIn,black,,,,,1,,,,,
Bgm,不穏,,,,,,,,,,
Se,車の通過音,,,,,,,,,,
Wait,,,,,,1,,,,,
StopSe,,,,,,1,,,,,
Se,車の急ブレーキ音,,,,,,,,,,
Wait,,,,,,1.5,,,,,
Se,踏み込み音,,,,,,,,,,
,ユニ,通常,,,,1,Add,,,,
Tween,ユニ,MoveFrom,"x=-100 y=0 islocal=true time=1",easeOutQuad,,,,,,,
,ユニ,,,,,,,さあ、着いたわよ。早く降りて,,,
Se,踏み込み音,,,,,,,,,,
,クロワール,通常,,,,1,Add,,,,
Tween,クロワール,MoveFrom,"x=-100 y=0 islocal=true time=1",easeOutQuad,,,Add,,,,
,大人ネプテューヌ,通常,キャラ左,,,1,Add,,,,
Tween,大人ネプテューヌ,MoveFrom,"x=-100 y=0 islocal=true time=1",easeOutQuad,,,Add,,,,
,天王星うずめ,通常,キャラ右,,,1,Add,,,,
Tween,天王星うずめ,MoveFrom,"x=-100 y=0 islocal=true time=1",easeOutQuad,,,,,,,
Wait,,,,,,.3,,,,,
Tween,クロワール,ShakePosition,"x=10 islocal=true time=.3",,,,Add,,,,
,クロワール,真剣,,,,.2,,なんつー乱暴な運転だよ！,Br,,
Wait,,,,,,.3,,,,,
,クロワール,悲しみ,,,,.2,,あちこちぶつかりまくったじゃねぇか！,,,
,大人ネプテューヌ,笑い,,,,.2,,クロちゃん、ピンボールみたいだったねー,,,
Tween,天王星うずめ,ShakePosition,"x=10 islocal=true time=.3",,,,Add,,,,
,天王星うずめ,悲しみ,,,,.2,,うう……酔った,Input,,
Selection,*101303-1,,,,0,350,,「同じく……」,,,
Selection,*101303-2,,,,0,200,,「背中さすろうか」,,,
*101303-1,,,,,,,,,,,
CharacterOff,,,,,,,,,,,
,ユニ,真剣,,,,,,だらしないわねぇ、このくらいで,,,
Jump,*case101303-1,,,,,,,,,,
*101303-2,,,,,,,,,,,
,天王星うずめ,,,,,,,あ、ありがとう<param=player_name>っち……,,,
CharacterOff,,,,,,,,,,,
Jump,*case101303-1,,,,,,,,,,
*case101303-1,,,,,,,,,,,
,ユニ,通常,,,,.2,,"さてと、運んできた物資の搬入よろしく。
あと、車はこの場で待機。いつでも動けるようにね",,,
,ラステイション兵たち,<Character=>,,,,,,「「はっ！」」,,,
Se,踏み込み音,,,,,,,,,,
Tween,ユニ,MoveAdd,"x=100 y=0 time=1",easeOutQuad,,,Add,,,,
CharacterOff,ユニ,,,,,1,,,,,
Wait,,,,,,.5,,,,,
,ノワール,通常,キャラ右,,,,,,,,
Se,踏み込み音,,,,,,,,,,
,ユニ,通常,キャラ左,,,1,Add,,,,
Tween,ユニ,MoveFrom,"x=-100 y=0 islocal=true time=1",easeOutQuad,,,,,,,
,ユニ,,,,,,,お姉ちゃん、お待たせ,,,
,ノワール,真剣,,,,.2,,ええ……,,,
CharacterOff,,,,,,,,,,,
,クロワール,真剣,,,,,,"で？　わざわざ乗り心地の悪ぃ軍用車で
俺たちはどこに連れて来られたんだ？",,,
,ノワール,目閉じ,,,,,,…………,,,
,クロワール,真剣,,,,,,,,,
Tween,クロワール,ShakePosition,"x=10 islocal=true time=.3",,,,Add,,,,
,クロワール,,,,,,,って、また説明なしかよ！,,,
,ノワール,通常,,,,,,来てくれて感謝するわ。,Br,,
Wait,,,,,,.3,,,,,
,ノワール,笑い,,,,.2,,人数は多いに越したことはないから,,,
,クロワール,真剣,キャラ中央,,,,,,,,
,天王星うずめ,悲しみ,キャラ右,,,,,,,,
,大人ネプテューヌ,通常,キャラ左,,,,,,,,
,クロワール,悲しみ,,,,.2,,人数だぁ……？,,,
,天王星うずめ,悲しみ,,,,.2,,いったい何をさせられるんだ,,,
Tween,大人ネプテューヌ,MoveTo,"x=0 y=40 islocal=true time=.1",easeOutCirc,pingPong=2,,Add,,,,
,大人ネプテューヌ,真剣,,,,.2,,わかった！,,,
StopBgm,,,,,,,,,,,
Bgm,コミカル,,,,,,,,,,
,大人ネプテューヌ,,,,,,,きっと、みんなでサバゲーするんだよ！,Br,,
Wait,,,,,,.3,,,,,
,大人ネプテューヌ,笑い,,,,.2,,ほら、軍隊っぽいコスプレしてる人いるし,,,
Tween,クロワール,ShakePosition,"x=10 islocal=true time=.3",,,,Add,,,,
,クロワール,固有,,,,.2,,いや、どう見ても本物だろ,,,
,天王星うずめ,通常,,,,.2,,"ま、こんな物々しい雰囲気してりゃ
あんまり楽しそうなことじゃなさそうだな",Input,,
Selection,*101303-3,,,,0,300,,「そろそろ教えてくれない？」,,,
*101303-3,,,,,,,,,,,
CharacterOff,,,,,,,,,,,
StopBgm,,,,,,,,,,,
,ノワール,真剣,,,,,,ええ……ちょうど来たわ、アレよ,,,
CharacterOff,,,,,,,,,,,
Wait,,,,,,.5,,,,,
FadeOut,black,,,,,,,,,,
Bgm,シリアス,,,,,,,,,,
ZoomCamera,SpriteCamera,1.5,-250,-100,,0,Add,,,,
,インプ,通常,キャラ右,-300,-80,0,Add,,,,
,キラービー,通常,キャラ左,350,-80,0,Add,,,,
Tween,インプ,ColorTo,"alpha=0 time=0",,,,Add,,,,
Tween,キラービー,ColorTo,"alpha=0 time=0",,,,Add,,,,
FadeIn,black,,,,,1,Add,,,,
Tween,インプ,ScaleTo,"x=0.7 y=0.7 time=0",,,,Add,,,,
Tween,キラービー,ScaleTo,"x=0.7 y=0.7 time=0",,,,Add,,,,
,レリック・オンスロート,通常,キャラ中央右,,,1,,,,,
Wait,,,,,,.2,,,,,
Tween,インプ,ColorTo,"alpha=1 time=1",,,,Add,,,,
Tween,キラービー,ColorTo,"alpha=1 time=1",,,,Add,,,,
Tween,インプ,MoveTo,"x=-20 islocal=true time=4",,,,Add,,,,
Tween,キラービー,MoveTo,"x=125 islocal=true time=4",,,,Add,,,,
ZoomCamera,SpriteCamera,1.4,500,-100,,4,,,,,
FadeOut,black,,,,,,,,,,
Wait,,,,,,.2,,,,,
CharacterOff,,,,,,0,Add,,,,
ZoomCamera,SpriteCamera,1,0,0,,0,,,,,
FadeIn,black,,,,,,,,,,
,クロワール,真剣,キャラ左,,,,,,,,
,天王星うずめ,真剣,キャラ右,,,,,,,,
,クロワール,,,,,,,あれは……レリック・オンスロート！？,,,
,天王星うずめ,,,,,,,しかもすっげー数の魔物を引き連れてるぜ,,,
CharacterOff,,,,,,,,,,,
,ユニ,目閉じ,,,,.2,,その通りよ,,,
,ユニ,真剣,,,,.2,,"あの化け物が周辺の魔物を集めながら
ラステイションへ進行してきているの",,,
CharacterOff,,,,,,,,,,,
,クロワール,悲しみ,,,,,,,,,
,大人ネプテューヌ,真剣,キャラ左,,,,,,,,
,天王星うずめ,真剣,キャラ右,,,,,,,,
,クロワール,,,,,,,魔物が集まってるって、こういうことだったのか……,,,
,クロワール,固有,,,,.2,,"つーか、ありゃどう見てもラステイションの街に
向かって来てるじゃねーか",,,
,大人ネプテューヌ,悲しみ,,,,.2,,やっぱり、これってジェジェコンヌの仕業なのかな,,,
,天王星うずめ,通常,,,,.2,,エネミーディスクだっけ？,Br,,
Wait,,,,,,.3,,,,,
,天王星うずめ,悲しみ,,,,.2,,魔物を呼び出すとかいう厄介な代物,,,
CharacterOff,,,,,,,,,,,
,ノワール,通常,キャラ右,,,,,,,,
,ユニ,真剣,キャラ左,,,,,,,,
,ノワール,,,,,,,それも込みで原因は調査中よ。,Br,,
Wait,,,,,,.3,,,,,
,ノワール,真剣,,,,.2,,でも、今はアレを叩くのが先！,Input,,
Selection,*101303-4,,,,0,300,,「そういうことなら力を貸すよ」,,,
*101303-4,,,,,,,,,,,
,ノワール,笑い,,,,.2,,……ありがとう,,,
,ノワール,真剣,,,,.2,,行くわよ！,,,
Tween,ユニ,MoveTo,"x=0 y=40 islocal=true time=.1",easeOutCirc,pingPong=2,,Add,,,,
,ユニ,,,,,,,お姉ちゃん、アタシも……！,,,
,ノワール,,,,,,,ダメよ。ユニは後方待機,,,
Tween,ユニ,MoveTo,"x=0 y=40 islocal=true time=.1",easeOutCirc,pingPong=2,,Add,,,,
,ユニ,悲しみ,,,,.2,,またそれ！？,,,
,ノワール,目閉じ,,,,.2,,後方からの援護だって立派な仕事よ。,Br,,
Wait,,,,,,.3,,,,,
,ノワール,真剣,,,,.2,,何か変化に気づいたらすぐに連絡して,,,
,ノワール,,,,,,,それじゃ、行くわよ！,,,
Se,踏み込み音,,,,,,,,,,
Tween,ノワール,MoveAdd,"x=100 y=0 time=1",easeOutQuad,,,Add,,,,
CharacterOff,ノワール,,,,,1,,,,,
Wait,,,,,,.5,,,,,
CharacterOff,,,,,,,,,,,
,天王星うずめ,真剣,キャラ右,,,,,,,,
,クロワール,真剣,,,,,,,,,
,大人ネプテューヌ,真剣,キャラ左,,,,,,,,
,天王星うずめ,,,,,,,おう！　街の安全のためならいくらでも手を貸すぜ！,,,
Se,踏み込み音,,,,,,,,,,
Tween,天王星うずめ,MoveAdd,"x=100 y=0 time=1",easeOutQuad,,,Add,,,,
CharacterOff,天王星うずめ,,,,,1,Add,,,,
Tween,クロワール,MoveAdd,"x=100 y=0 time=1",easeOutQuad,,,Add,,,,
CharacterOff,クロワール,,,,,1,Add,,,,
Tween,大人ネプテューヌ,MoveAdd,"x=100 y=0 time=1",easeOutQuad,,,Add,,,,
CharacterOff,大人ネプテューヌ,,,,,1,,,,,
Wait,,,,,,.5,,,,,
,ユニ,悲しみ,,,,,,アタシだって戦えるのに……,,,
FadeOut,black,,,,,1,,,,,
Wait,,,,,,.3,,,,,
EndScenario,,,,,,,,,,,
