Command,Arg1,Arg2,Arg3,Arg4,Arg5,Arg6,WaitType,Text,PageCtrl,Voice,WindowType
Bgm,冒険者たちの軌跡,,,,,,,,,,
FadeOut,black,,,,,0,,,,,
Bg,背景(草原：昼),,,,,,,,,,
Wait,,,,,,.3,,,,,
FadeIn,black,,,,,1,,,,,
,レリック・オンスロート,通常,キャラ左,,,1.5,Add,,,,
Tween,レリック・オンスロート,MoveFrom,"x=100 y=0 islocal=true time=1.5",easeOutQuad,,,Add,,,,
,レリック・オンスロートA,通常,キャラ中央,,,1.5,Add,,,,
Tween,レリック・オンスロートA,MoveFrom,"x=100 y=0 islocal=true time=1.5",easeOutQuad,,,Add,,,,
,レリック・オンスロートB,通常,キャラ右,,,1.5,Add,,,,
Tween,レリック・オンスロートB,MoveFrom,"x=100 y=0 islocal=true time=1.5",easeOutQuad,,,,,,,
Wait,,,,,,1,,,,,
CaptureImage,キャプチャーイメージ,SpriteCamera,キャプチャ画像レイヤー,,,,,,,,
CharacterOff,,,,,,0,,,,,
Bg,背景(黒),,,,,0,,,,,
RuleFadeOut,キャプチャーイメージ,FadeLeftBottom,,,,.5,,,,,
Wait,,,,,,.5,,,,,
CaptureImage,キャプチャーイメージ,SpriteCamera,キャプチャ画像レイヤー,,,,,,,,
Bg,背景(草原：昼),,,,,0,,,,,
RuleFadeOut,キャプチャーイメージ,FadeLeftBottom,,,,.5,,,,,
HideMenuButton,,,,,,,,,,,
Selection,*caseS07-02-1,,,,0,300,,「来た……！」,,,
*caseS07-02-1,,,,,,,,,,,
ShowMenuButton,,,,,,,,,,,
,グリーンハート神次元,通常,キャラ中央,,,,,予定通り、進行ルートに先回りできましたわね,,,
,リドル,<Character=>,,,,,,"『あー、てすてす
　おーい、見える聞こえるー？』",,,
CharacterOff,,,,,,,,,,,
,シャロン,悲しみ,キャラ中央,,,,,この声……リドルか,,,
CharacterOff,,,,,,,,,,,
Sprite,通信ノイズエフェクト,,スプライトレイヤー,,,0,,,,,
,リドル,通常,キャラ中央,,,,,『お、ほんとに映った映った』,,,
,リドル,笑い,キャラ中央,,,.2,,"『いやー、これ便利だねー。
　遠くにいてもなんでも分かっちゃうんだから』",,,
SpriteOff,,,,,,,,,,,
CharacterOff,,,,,,,,,,,
,シャロン,真剣,キャラ中央,,,.2,,いいから、状況を知らせろ,,,
CharacterOff,,,,,,,,,,,
Sprite,通信ノイズエフェクト,,スプライトレイヤー,,,0,,,,,
,リドル,通常,キャラ中央,,,.2,,『はいはい、シャロンはせっかちなんだから』,,,
,リドル,真剣,キャラ中央,,,.2,,"『敵の一団は、まっすぐそっちに向かってるよ。
　数は１００くらい。第二陣はないみたい』",,,
,リドル,悲しみ,キャラ中央,,,.2,,"『敵の数も強さも分かるなんて……
　うう……知りたい……原理が知りたい……』",,,
SpriteOff,,,,,,,,,,,
CharacterOff,,,,,,,,,,,
,クロワール,固有,キャラ左,,,,Add,,,,
,シャロン,通常,キャラ右,,,,,,,,
,クロワール,固有,キャラ左,,,,,頼むから分解とかしないでくれよ……,,,
,シャロン,通常,キャラ右,,,,,奴らが帝国に辿り着く前に撃退する！,Br,,
Wait,,,,,,.3,,,,,
,シャロン,真剣,キャラ右,,,.2,,――はああっ！,,,
Tween,シャロン,ScaleTo,"x=0.9 y=0.9 time=0.2",,,,,,,,
Wait,,,,,,.2,,,,,
Se,疾走音,,,,,,,,,,
Tween,シャロン,ScaleTo,"x=2 y=2 time=0.5",,,,Add,,,,
Tween,シャロン,MoveAdd,"x=0 y=-150 time=.5",,,,Add,,,,
CharacterOff,,,,,,,,,,,
Wait,,,,,,.3,,,,,
Wait,,,,,,.5,,,,,
,クロワール,固有,キャラ左,,,.2,,"いきなり突っ込んで行きやがった。
作戦もなにもあったもんじゃねーな",,,
CharacterOff,,,,,,,,,,,
Sprite,通信ノイズエフェクト,,スプライトレイヤー,,,0,,,,,
,リドル,笑い,キャラ中央,,,,,"『いやー、うちの筋肉担当がごめんね。
　ちなみに、頭脳担当はあたしね』",,,
SpriteOff,,,,,,,,,,,
CharacterOff,,,,,,,,,,,
,クロワール,悲しみ,,,,.2,,"極端だな。
まあ、あっちよりはマシか",,,
CharacterOff,,,,,,,,,,,
,グリーンハート神次元,通常,キャラ中央,,,,,そちらに敵が行きましたわよ！,,,
CharacterOff,,,,,,,,,,,
,アイリス,真剣,キャラ中央,,,,,,,,
Wait,,,,,,.2,,,,,
Tween,アイリス,ShakePosition,"x=10 islocal=true time=.3",,,,Add,,,,
,アイリス,悲しみ,キャラ中央,,,.2,,あわわわわわ……！,,,
CharacterOff,,,,,,,,,,,
,シャロン,真剣,キャラ中央,,,.5,Add,,,,
Tween,シャロン,ScaleFrom,"x=2 y=2 time=0.5",,,,Add,,,,
Se,踏み込み音,,,,,,,,,,
Wait,,,,,,.5,,,,,
,シャロン,真剣,キャラ中央,,,,,姫様！　お下がりください！,,,
CharacterOff,,,,,,,,,,,
,アイリス,真剣,キャラ中央,,,,,"で、できません。
わたくしは、ガレスティア帝国の皇女で……",,,
Se,着地音,,,,,,,,,,
,レリック・オンスロート,通常,キャラ右,,,.2,Add,,,,
Tween,レリック・オンスロート,MoveFrom,"x=0 y=100 islocal=true time=.2",,,,Add,,,,
,レリック・オンスロート,通常,キャラ右,,,,,ガアアアアアアアッ,,,
Tween,アイリス,ShakePosition,"x=10 islocal=true time=.5",,,,Add,,,,
,アイリス,固有,,,,.2,,きゃああああっ！,,,
CharacterOff,,,,,,,,,,,
,グリーンハート神次元,真剣,キャラ中央,,,,,世話が焼けますわね！　はああっ！,,,
Tween,グリーンハート神次元,ScaleTo,"x=0.9 y=0.9 time=0.2",,,,,,,,
Wait,,,,,,.2,,,,,
Se,疾走音,,,,,,,,,,
Tween,グリーンハート神次元,ScaleTo,"x=2 y=2 time=0.5",,,,Add,,,,
Tween,グリーンハート神次元,MoveAdd,"x=0 y=-150 time=.5",,,,Add,,,,
CharacterOff,,,,,,,,,,,
Wait,,,,,,.3,,,,,
Wait,,,,,,.5,,,,,
CharacterOff,,,,,,0,,,,,
,アイリス,固有,キャラ中央,,,,Add,,,,
,レリック・オンスロート,通常,キャラ右,,,,,,,,
Wait,,,,,,.5,,,,,
Se,風切り音,,,,,,,,,,
Particle,袈裟斬り,,スプライトレイヤー,350,,,,,,,
Tween,レリック・オンスロート,ShakePosition,"x=10 islocal=true time=.3",,,,,,,,
Tween,レリック・オンスロート,MoveAdd,"x=0 y=-100 time=1",easeOutQuad,,,Add,,,,
CharacterOff,レリック・オンスロート,,,,,1,,,,,
Wait,,,,,,1,,,,,
Se,倒れる音,,,,,,,,,,
Wait,,,,,,.5,,,,,
,アイリス,固有,キャラ左,,,,Add,,,,
,シャロン,真剣,キャラ右,,,,,,,,
,アイリス,固有,キャラ左,,,,,あ……あ……,,,
,シャロン,真剣,キャラ右,,,,,姫様！　おケガはありませんか！？,,,
,アイリス,悲しみ,キャラ左,,,.2,,だ、大丈夫です……,,,
,シャロン,悲しみ,キャラ右,,,.2,,初めての戦場にすっかり萎縮してしまっている……,,,
,シャロン,照れ,キャラ右,,,.2,,しかし、そんな姫様も可愛い……！,,,
CharacterOff,,,,,,,,,,,
,クロワール,通常,キャラ中央,,,,,これじゃ、戦力外どころか足手まといだぜ,,,
CharacterOff,,,,,,,,,,,
,アイリス,悲しみ,キャラ左,,,,Add,,,,
,シャロン,真剣,キャラ右,,,,,,,,
,シャロン,真剣,キャラ右,,,,,"無茶を言うな！
姫様は戦場はもちろん、戦闘も初めてなのだ",,,
CharacterOff,,,,,,,,,,,
,クロワール,通常,キャラ中央,,,,,"戦場じゃそんなのなんの言い訳にもならねぇってのは、
あんただって分かってるだろ",,,
CharacterOff,,,,,,,,,,,
,アイリス,悲しみ,キャラ左,,,,Add,,,,
,シャロン,悲しみ,キャラ右,,,,,,,,
,シャロン,悲しみ,キャラ右,,,,,そ、それは……,,,
CharacterOff,,,,,,,,,,,
,クロワール,通常,キャラ中央,,,,,誰かを巻き添えにする前に後ろに下がれ,Input,,
HideMenuButton,,,,,,,,,,,
Selection,*caseS07-02-2,,,,0,350,,「クロワール……」,,,
Selection,*caseS07-02-3,,,,0,200,,「言い過ぎ」,,,
*caseS07-02-2,,,,,,,,,,,
,クロワール,真剣,キャラ中央,,,.2,,"言いたいことは分かってる。
だけど、これはそこのお姫さまのためでもある",,,
ShowMenuButton,,,,,,,,,,,
Jump,*合流S07-02-1,,,,,,,,,,
*caseS07-02-3,,,,,,,,,,,
,クロワール,真剣,キャラ中央,,,.2,,おまえはお姫さまを甘やかし過ぎだ,,,
ShowMenuButton,,,,,,,,,,,
Jump,*合流S07-02-1,,,,,,,,,,
*合流S07-02-1,,,,,,,,,,,
CharacterOff,,,,,,,,,,,
,グリーンハート神次元,真剣,キャラ中央,,,,Add,,,,
,アイリス,悲しみ,キャラ右,,,,,,,,
,グリーンハート神次元,真剣,キャラ中央,,,,,クロワールさんは厳しすぎですわ,,,
Tween,アイリス,MoveAdd,"x=-300 y=0 time=.5",easeOutQuad,,,,,,,
,グリーンハート神次元,笑い,キャラ中央,,,.2,,それ、ぎゅ～っ,,,
,アイリス,固有,キャラ右,,,,,あっ……,,,
,グリーンハート神次元,笑い,キャラ中央,,,,,"温室育ちのお姫さまが、逃げずに踏みとどまっている。
今はそれだけで良しとしてあげましょう",,,
,アイリス,照れ,,,,.2,,あわわ……お、おおきい……,,,
CharacterOff,,,,,,,,,,,
,シャロン,真剣,キャラ中央,,,,,ムムム……,,,
,リドル,<Character=>,,,,,,『あー、お取り込み中申し訳ないんだけど』,,,
CharacterOff,,,,,,,,,,,
,クロワール,通常,キャラ中央,,,,,何だ？　そっちも姫様をいじめるなとか言うなよ,,,
,リドル,<Character=>,,,,,,"『さっきから、なんか赤くて大きな光と、
　たくさんの光の点がそっちに向かってるんだわ』",,,
,リドル,<Character=>,,,,,,"『これってもしかして、
　すごく強い敵が大勢引き連れてるってことかな』",,,
,クロワール,真剣,キャラ中央,,,.2,,なに……！,,,
CharacterOff,,,,,,,,,,,
,シャロン,真剣,キャラ左,,,,Add,,,,
,グリーンハート神次元,真剣,キャラ右,,,,,,,,
,シャロン,真剣,キャラ左,,,,,そういうことはもっと早く言え！,,,
StopBgm,,,,,,1,,,,,
,グリーンハート神次元,真剣,キャラ右,,,,,来ますわ……！,,,
CharacterOff,,,,,,,,,,,
Bgm,ピンチ,,,,,.5,,,,,
,イクス,,,,,1,Add,,,,
Tween,イクス,MoveFrom,"x=100 y=0 islocal=true time=1",easeOutQuad,,,,,,,
,イクス,笑い,キャラ中央,,,,,はろはろー,,,
FadeOut,black,,,,,1,,,,,
Wait,,,,,,.3,,,,,
EndScenario,,,,,,,,,,,
