Command,Arg1,Arg2,Arg3,Arg4,Arg5,Arg6,WaitType,Text,PageCtrl,Voice,WindowType
Bgm,ピンチ,,,,,,,,,,
FadeOut,black,,,,,0,,,,,
Bg,背景(草原：昼),,,,,,,,,,
Wait,,,,,,.3,,,,,
FadeIn,black,,,,,1,,,,,
,イクス,笑い,キャラ中央,,,,,はろはろー,,,
CharacterOff,,,,,,,,,,,
,クロワール,真剣,キャラ中央,,,,,てめぇは……！,Input,,
HideMenuButton,,,,,,,,,,,
Selection,*caseS07-03-1,,,,0,300,,「イクス！」,,,
*caseS07-03-1,,,,,,,,,,,
ShowMenuButton,,,,,,,,,,,
,クロワール,真剣,キャラ中央,,,,,大量のレリックを連れてきたのは、てめぇかっ！,,,
CharacterOff,,,,,,,,,,,
,イクス,笑い,キャラ中央,,,,,"だいせいかーい！
なんて、この状況見れば誰でも分かるよねー",,,
CharacterOff,,,,,,,,,,,
,アイリス,真剣,キャラ左,,,,Add,,,,
,シャロン,真剣,キャラ右,,,,,,,,
,シャロン,真剣,キャラ右,,,,,なぜだ！　なぜ、こんなことをする！？,,,
CharacterOff,,,,,,,,,,,
,イクス,通常,キャラ中央,,,,,なぜって、そんなの楽しいからに決まってるだろ,,,
,イクス,真剣,キャラ中央,,,.2,,"クーデターで混乱する国民たち！
そこへ現れる怪物の群れ！",,,
,イクス,真剣,キャラ中央,,,,,まさに阿鼻叫喚の地獄絵図！,Br,,
Wait,,,,,,.3,,,,,
,イクス,笑い,,,,.2,,いやー、スペクタクルだねー,,,
CharacterOff,,,,,,,,,,,
,アイリス,真剣,キャラ左,,,,Add,,,,
,シャロン,真剣,キャラ右,,,,,,,,
,シャロン,真剣,キャラ右,,,,,貴様……本気で言っているのか,,,
,アイリス,真剣,キャラ左,,,,,酷いです……,,,
CharacterOff,,,,,,,,,,,
,イクス,笑い,キャラ中央,,,,,"酷くてケッコー、あたしは楽しいもんねー！
クーデターなんて起きる国も悪いだろー",,,
CharacterOff,,,,,,,,,,,
,アイリス,真剣,キャラ左,,,,Add,,,,
,シャロン,真剣,キャラ右,,,,,,,,
,シャロン,真剣,キャラ右,,,,,まさかクーデターにも貴様が関わってるのか？,,,
CharacterOff,,,,,,,,,,,
,イクス,悲しみ,キャラ中央,,,,,"は？　そんな面倒臭いことするかっての。
そっちのお姫さまに人望がなかっただけでしょ",,,
CharacterOff,,,,,,,,,,,
,アイリス,悲しみ,キャラ左,,,,Add,,,,
,シャロン,真剣,キャラ右,,,,,,,,
,アイリス,悲しみ,キャラ左,,,,,…………,,,
CharacterOff,,,,,,,,,,,
,イクス,笑い,キャラ中央,,,,,"それより、今日は紹介したい子がいるんだ。
レリック倒しちゃってお前たちヒマだろ？",,,
,イクス,笑い,キャラ中央,,,,,イエローハート、出ておいでー,,,
CharacterOff,,,,,,,,,,,
StopBgm,,,,,,.5,,,,,
,クロワール,悲しみ,キャラ中央,,,,,イエローハート……？,,,
CharacterOff,,,,,,,,,,,
,イクス,笑い,キャラ中央,,,,,この神次元を導くために生まれた、真の守護女神さ,,,
CaptureImage,キャプチャイメージ,SpriteCamera,キャプチャ画像レイヤー,,,,,,,,
CharacterOff,,,,,,0,,,,,
Bg,背景(黒),,,,,,,,,,
RuleFadeOut,キャプチャイメージ,FadeCircle,,,,0,,,,,
Wait,,,,,,.2,,,,,
Se,衝撃音2,,,,,,,,,,
Shake,Camera,,"y=5 time=4",,,,NoWait,,,,
Sprite,亀裂小,,,,,,,,,,
Wait,,,,,,.8,,,,,
SpriteOff,亀裂小,,,,,,,,,,
Sprite,亀裂中,,,,,,,,,,
Wait,,,,,,.8,,,,,
SpriteOff,亀裂中,,,,,,,,,,
Sprite,亀裂大,,,,,,,,,,
Wait,,,,,,.8,,,,,
FadeOut,white,,,,,1,,,,,
Bg,背景(草原：昼),,,,,0,,,,,
SpriteOff,亀裂大,,,,,,,,,,
Wait,,,,,,.1,,,,,
,イエローハート,固有,,,,,,,,,
RuleFadeIn,イエローハート,Noise,,,,2.5,Add,,,,
FadeIn,white,,,,,3,,,,,
Wait,,,,,,.5,,,,,
StopSe,,,,,,,,,,,
,イクス,笑い,キャラ左,50,,,Add,,,,
,イエローハート,固有,キャラ中央,,,,,,,,
,イエローハート,固有,キャラ中央,,,,,っじゃーーーん！　次元の壁からこんにちはー！,Br,,
Wait,,,,,,.3,,,,,
Tween,イエローハート,ShakePosition,"x=10 islocal=true time=.3",,,,Add,,,,
,イエローハート,悲しみ,キャラ中央,,,.2,,ってあれれ、バランスが！？,,,
Tween,イエローハート,MoveAdd,"x=-200 y=0 time=.3",,,,,,,,
FadeOut,white,,,,,,,,,,
Se,打撃音,,,,,,,,,,
Bgm,コミカル,,,,,.5,,,,,
,,,,,,,,ごっち～ん！,,,
FadeIn,white,,,,,.2,Add,,,,
Tween,イエローハート,MoveAdd,"x=200 y=0 time=.2",,,,Add,,,,
Tween,イクス,MoveAdd,"x=-180 y=0 time=.2",,,,,,,,
Tween,イクス,ShakePosition,"x=10 islocal=true time=.3",,,,Add,,,,
,イクス,悲しみ,,,,.2,,いっっっっっでぇええええ！！,,,
Tween,イエローハート,ShakePosition,"x=10 islocal=true time=.3",,,,Add,,,,
,イエローハート,悲しみ,,,,.2,,あいたたた……,Br,,
Wait,,,,,,.3,,,,,
,イエローハート,真剣,,,,.2,,ハッ！,,,
,イエローハート,悲しみ,,,,0,,えっと、まずは……そうそう挨拶と、じこしょーかい！,Br,,
Wait,,,,,,.3,,,,,
,イエローハート,笑い,,,,.2,,守護女神、イエローハートだよ！　よろしくね！,,,
CharacterOff,,,,,,,,,,,
StopBgm,,,,,,.5,,,,,
,クロワール,悲しみ,キャラ左,,,,Add,,,,
,グリーンハート神次元,悲しみ,キャラ右,,,,,,,,
,クロワール,悲しみ,キャラ左,,,,,守護女神だと……？,,,
,グリーンハート神次元,固有,キャラ右,,,.2,,はっ……！？,,,
,クロワール,真剣,キャラ左,,,.2,,何か知ってるのか？,,,
Bgm,コミカル,,,,,.5,,,,,
,グリーンハート神次元,固有,キャラ右,,,.2,,"あ、あの子……む、胸が……！
わたくしより大きいですわ……！",,,
,クロワール,固有,キャラ左,,,.2,,は？,,,
,グリーンハート神次元,真剣,キャラ右,,,,,"あなた！　そんな大きな胸、横暴でしてよ！
胸は大きいだけではなく形が……",Next,,
Wait,,,,,,.3,,,,,
,グリーンハート神次元,固有,キャラ右,,,.2,,ハッ！？,,,
,グリーンハート神次元,固有,キャラ右,,,.2,,"このセリフは、今まで負け犬たちがわたくしに
吠えてきたものと同じ……！",,,
CharacterOff,,,,,,,,,,,
,グリーンハート神次元,固有,キャラ左,,,,Add,,,,
,イエローハート,悲しみ,キャラ右,,,,,,,,
,イエローハート,悲しみ,キャラ右,,,,,おばさん、だれ？　どっかで会ったっけ？,,,
,グリーンハート神次元,固有,キャラ左,,,,,おばっ……！？,,,
,グリーンハート神次元,真剣,キャラ左,,,.2,,お・ね・え・さ・ん、でしょう？,,,
,イエローハート,真剣,キャラ右,,,.2,,うわっ、おばさんが怒った！,,,
,グリーンハート神次元,悲しみ,キャラ左,,,.2,,ま、また言いましたわね！,,,
,グリーンハート神次元,真剣,キャラ左,,,.2,,"こうなったら、わたくしが若くピチピチなところを
具体的に見せて差し上げるしか……！",,,
CharacterOff,,,,,,,,,,,
,クロワール,固有,キャラ中央,,,,,なにを張り合おうとしてんだよ,,,
CharacterOff,,,,,,,,,,,
,グリーンハート神次元,悲しみ,キャラ中央,,,,,"だ、だって、あの子がわたくしのこと、
お、おば……うううっ！",,,
CharacterOff,,,,,,,,,,,
,クロワール,固有,キャラ中央,,,,,<param=player_name>、適当に慰めといてくれ,Input,,
HideMenuButton,,,,,,,,,,,
Selection,*caseS07-03-2,,,,0,300,,「よしよし」,,,
*caseS07-03-2,,,,,,,,,,,
ShowMenuButton,,,,,,,,,,,
CharacterOff,,,,,,,,,,,
,グリーンハート神次元,悲しみ,キャラ中央,,,,,うう……,,,
CharacterOff,,,,,,,,,,,
StopBgm,,,,,,.5,,,,,
Bgm,ピンチ,,,,,.5,,,,,
,イクス,固有,キャラ中央,,,,,"その漫才終わった？
だったらさっさとはじめてくれるかなー",,,
CharacterOff,,,,,,,,,,,
,アイリス,真剣,キャラ左,,,,Add,,,,
,シャロン,真剣,キャラ右,,,,,,,,
,シャロン,真剣,キャラ右,,,,,姫様、お下がりください,,,
,アイリス,真剣,キャラ左,,,,,……できません,,,
,シャロン,悲しみ,キャラ右,,,.2,,姫様……？,,,
,アイリス,真剣,キャラ左,,,,,こんな気持ちになったのは生まれて初めてです,,,
,アイリス,真剣,キャラ左,,,,,"人々が苦しむ姿を見たいだなどと……
なにより、狙われているのは帝国の民たちなのです",,,
,アイリス,真剣,キャラ左,,,,,"わたくしは皇女として、
帝国と帝国の民を愚弄するあの方が許せません……！",,,
CharacterOff,,,,,,,,,,,
,イクス,通常,キャラ左,,,,Add,,,,
,イエローハート,笑い,キャラ右,,,,,,,,
,イクス,通常,キャラ左,,,,,"お飾りのお姫さまも怒ったりするんだ？
少し物足りないけど、試運転にはちょうどいいか",,,
,イクス,笑い,キャラ左,,,.2,,"イエローハート。ちょっとコイツらと戦って、
その力を見せてごらん？",,,
,イエローハート,笑い,キャラ右,,,,,"うん！　頑張ってパパとママにたくさん褒めて
もらうー！",,,
FadeOut,black,,,,,1,,,,,
Wait,,,,,,.3,,,,,
EndScenario,,,,,,,,,,,
