Command,Arg1,Arg2,Arg3,Arg4,Arg5,Arg6,WaitType,Text,PageCtrl,Voice,WindowType
FadeOut,black,,,,,0,,,,,
Bg,背景(草原：昼),,,,,,,,,,
Wait,,,,,,.3,,,,,
FadeIn,black,,,,,1,,,,,
Bgm,冒険者たちの軌跡,,,,,,,,,,
Wait,,,,,,.5,,,,,
Se,風切り音,,,,,,,,,,
,レリック・オンスロート,通常,キャラ中央,,,.2,,,,,
Wait,,,,,,.5,,,,,
Se,斬撃1,,,,,,,,,,
Particle,袈裟斬り,,スプライトレイヤー,0,0,,,,,,
Wait,,,,,,.2,,,,,
ParticleOff,,,,,,,,,,,
Tween,レリック・オンスロート,ShakePosition,"x=10 islocal=true time=.3",,,,,,,,
Tween,レリック・オンスロート,MoveAdd,"x=0 y=-100 time=.5",easeOutQuad,,,Add,,,,
CharacterOff,レリック・オンスロート,,,,,.5,,,,,
Wait,,,,,,.6,,,,,
Se,倒れる音,,,,,,,,,,
Wait,,,,,,.5,,,,,
,グリーンハート神次元,笑い,キャラ中央,,,,,ふっ……勝ちましたわ,,,
CharacterOff,,,,,,,,,,,
,イエローハート,悲しみ,キャラ中央,,,,,いたた……,Next,,
Wait,,,,,,.3,,,,,
,イエローハート,笑い,キャラ中央,,,.2,,うーん、おばさんたち強いね！,,,
CharacterOff,,,,,,,,,,,
,グリーンハート神次元,真剣,キャラ中央,,,,,お・ね・え・さ・ん！,,,
CharacterOff,,,,,,,,,,,
,イクス,通常,キャラ左,,,,Add,,,,
,イエローハート,通常,キャラ右,,,,,,,,
,イクス,通常,キャラ左,,,,,"挨拶としては、こんなものか。
じゃ、今日のところは、おさらばバイバイ～",,,
Se,次元転移音,,,,,,,,,,
FadeOut,white,,,,,1,,,,,
CharacterOff,,,,,,0,,,,,
FadeIn,white,,,,,1,,,,,
StopBgm,,,,,,1,Add,,,,
Wait,,,,,,1.5,,,,,
Bgm,疑惑,,,,.5,1,,,,,
,クロワール,悲しみ,キャラ左,,,,Add,,,,
,グリーンハート神次元,悲しみ,キャラ右,,,,,,,,
,クロワール,悲しみ,キャラ左,,,,,……イエローハート、か,,,
,グリーンハート神次元,悲しみ,キャラ右,,,,,"守護女神を名乗るなんて、
いったい何者なのかしら……",,,
,クロワール,通常,キャラ左,,,,,"まあ、レリックを撃退できたことだし、
今日はいいんじゃねえか？",,,
Jump,*caseS07-04-1,is_heroine,,,,,,,,,
,リドル,<Character=>,,,,,,"『もしもし、聞こえる－？　アイナさんたちの方は、
　敵を殲滅させたよ。そっちはどう？』",,,
Jump,"*confluence S07-04-1",,,,,,,,,,
*caseS07-04-1,,,,,,,,,,,
,リドル,<Character=>,,,,,,"『もしもし、聞こえる－？　アルトさんたちの方は、
　敵を殲滅させたよ。そっちはどう？』",,,
Jump,"*confluence S07-04-1",,,,,,,,,,
"*confluence S07-04-1",,,,,,,,,,,
CharacterOff,,,,,,,,,,,
,シャロン,通常,キャラ中央,,,,,こちらも今、終わったところだ,,,
,リドル,<Character=>,,,,,,『じゃあ一件落着だね。おつかれさまー！』,,,
CharacterOff,,,,,,,,,,,
StopBgm,,,,,,.5,,,,,
,アイリス,悲しみ,キャラ中央,,,,,…………,Input,,
HideMenuButton,,,,,,,,,,,
Selection,*caseS07-04-2,,,,0,350,,「アイリス？」,,,
Selection,*caseS07-04-3,,,,0,200,,「どうかしたの？」,,,
*caseS07-04-2,,,,,,,,,,,
ShowMenuButton,,,,,,,,,,,
Jump,*合流S07-04-1,,,,,,,,,,
*caseS07-04-3,,,,,,,,,,,
ShowMenuButton,,,,,,,,,,,
Jump,*合流S07-04-1,,,,,,,,,,
*合流S07-04-1,,,,,,,,,,,
Bgm,悲しい,,,,,1.5,,,,,
,アイリス,悲しみ,キャラ中央,,,,,わたくし、なにもできませんでした……,,,
,アイリス,悲しみ,キャラ中央,,,,,"あんな風に他人が苦しむことを喜ぶ方がいるなんて、
許せないと思っても何をどうすればいいか分からない……",,,
,アイリス,悲しみ,キャラ中央,,,,,"クーデターのこともそうです。
起こるまで臣下の不満にも気づいていなかった",,,
,アイリス,悲しみ,キャラ中央,,,,,"わたくしは、何も知らない、何もできない。
これからどうすれば良いのでしょうか……",Input,,
StopBgm,,,,,,2,,,,,
HideMenuButton,,,,,,,,,,,
Selection,*caseS07-04-4,,,,0,300,,「歩けばいいと思うよ」,,,
*caseS07-04-4,,,,,,,,,,,
ShowMenuButton,,,,,,,,,,,
,アイリス,固有,キャラ中央,,,.2,,え……,,,
Bgm,状況説明,,,,,2,,,,,
CharacterOff,,,,,,,,,,,
,クロワール,真剣,キャラ左,,,,Add,,,,
,グリーンハート神次元,通常,キャラ右,,,,,,,,
,グリーンハート神次元,真剣,キャラ右,,,,,まずはなんでもいいから一歩踏み出せ――,Br,,
Wait,,,,,,.3,,,,,
,グリーンハート神次元,笑い,キャラ右,,,.2,,<param=player_name>はそう言っているのですわ,,,
,クロワール,固有,キャラ左,,,.2,,こいつは、そこまで深い意味で言ってないと思うぞ,,,
,クロワール,通常,キャラ左,,,.2,,"どうせ『知らないなら歩いて見て回ってこい』とか、
そんなところだろ",Input,,
HideMenuButton,,,,,,,,,,,
Selection,*caseS07-04-5,,,,0,300,,「歩くの楽しいよ」,,,
*caseS07-04-5,,,,,,,,,,,
ShowMenuButton,,,,,,,,,,,
,クロワール,通常,キャラ左,,,,,あ、誤魔化した,,,
CharacterOff,,,,,,,,,,,
,アイリス,悲しみ,キャラ中央,,,,,知らないことを、知る……歩いて見て回る……,,,
,アイリス,真剣,キャラ中央,,,.2,,あ、あの！,,,
,アイリス,真剣,キャラ中央,,,,,"わたくしを、
同行させてもらえないでしょうか！",,,
CharacterOff,,,,,,,,,,,
,シャロン,真剣,キャラ中央,,,,,,,,
Tween,シャロン,MoveTo,"x=0 y=40 islocal=true time=.1",easeOutCirc,pingPong=2,,Add,,,,
,シャロン,真剣,キャラ中央,,,,,姫様、何を言い出すんですかっ！？,,,
CharacterOff,,,,,,,,,,,
,アイリス,真剣,キャラ中央,,,.2,,"わたくしは守られるだけではなく、守るための
力や知恵も得なくてはならないと強く感じました",,,
,アイリス,真剣,キャラ中央,,,,,クーデターによって奪われた国はいつか取り戻します,,,
,アイリス,真剣,キャラ中央,,,,,"ですが、その前に私は知識を蓄え、
経験を積む必要があるように思うのです",,,
,アイリス,真剣,キャラ中央,,,,,"ですから、お願いします。
どうか、わたくしを連れて行ってください",,,
Jump,*caseS07-04-6,is_heroine,,,,,,,,,
HideMenuButton,,,,,,,,,,,
Selection,*caseS07-04-8,,,,0,300,,「僕は――」,,,
*caseS07-04-8,,,,,,,,,,,
ShowMenuButton,,,,,,,,,,,
Jump,"*confluence S07-04-2",,,,,,,,,,
*caseS07-04-6,,,,,,,,,,,
HideMenuButton,,,,,,,,,,,
Selection,*caseS07-04-7,,,,0,300,,「わたしは――」,,,
*caseS07-04-7,,,,,,,,,,,
ShowMenuButton,,,,,,,,,,,
Jump,"*confluence S07-04-2",,,,,,,,,,
"*confluence S07-04-2",,,,,,,,,,,
FadeOut,black,,,,,1,,,,,
,？？？,,,,,,,起きろー！,,,
StopBgm,,,,,,1,,,,,
FadeOut,black,,,,,1,,,,,
Bg,背景(黒),,,,,,,,,,
CharacterOff,,,,,,0,,,,,
Wait,,,,,,.2,,,,,
FadeIn,black,,,,,.1,,,,,
Wait,,,,,,.5,,,,,
CaptureImage,キャプチャーイメージ,SpriteCamera,キャプチャ画像レイヤー,,,,,,,,
Wait,,,,,,.1,,,,,
Bg,背景(白),,,,,,,,,,
RuleFadeOut,キャプチャーイメージ,f_blink_b,,,,1,,,,,
CaptureImage,キャプチャーイメージ,SpriteCamera,キャプチャ画像レイヤー,,,,,,,,
Bg,背景(宿の部屋),,,,,,,,,,
Wait,,,,,,.5,,,,,
RuleFadeOut,キャプチャーイメージ,FadeCircle,,,,1,,,,,
HideMenuButton,,,,,,,,,,,
Selection,*caseS07-04-9,,,,0,300,,「！？」,,,
*caseS07-04-9,,,,,,,,,,,
ShowMenuButton,,,,,,,,,,,
Bgm,ADV通常,,,,,.5,,,,,
,天王星うずめ,通常,キャラ中央,,,,,ようやく起きたか。,Br,,
Wait,,,,,,.3,,,,,
,天王星うずめ,悲しみ,キャラ中央,,,.2,,もう昼過ぎだぞ,Input,,
HideMenuButton,,,,,,,,,,,
Selection,*caseS07-04-10,,,,0,350,,「お姫様は？」,,,
Selection,*caseS07-04-11,,,,0,200,,「綠のおば……おねえさんは？」,,,
*caseS07-04-10,,,,,,,,,,,
,天王星うずめ,通常,キャラ中央,,,.2,,"お姫さま？
まだ寝ぼけてるのか",,,
ShowMenuButton,,,,,,,,,,,
Jump,*合流S07-04-2,,,,,,,,,,
*caseS07-04-11,,,,,,,,,,,
,天王星うずめ,通常,キャラ中央,,,.2,,綠の……いや、なんだろう、,Br,,
Wait,,,,,,.3,,,,,
,天王星うずめ,固有,キャラ中央,,,.2,,その言葉を口にしちゃいけない気がする,,,
ShowMenuButton,,,,,,,,,,,
Jump,*合流S07-04-2,,,,,,,,,,
*合流S07-04-2,,,,,,,,,,,
Bgm,ADV通常,,,,,.5,,,,,
,天王星うずめ,真剣,キャラ中央,,,.2,,"とにかく、さっさと顔洗ってこい。
もうすぐ出発だぞ",,,
,天王星うずめ,悲しみ,キャラ中央,,,.2,,"さてと、次はネプテューヌを起こすかー
起きてくれりゃいいけど……",,,
Tween,天王星うずめ,MoveAdd,"x=-100 y=0 time=1",easeOutQuad,,,Add,,,,
CharacterOff,天王星うずめ,,,,,1,,,,,
Wait,,,,,,1,,,,,
,クロワール,悲しみ,キャラ中央,,,,,"なあ、おい。おまえのその夢って、
どんな内容だったんだ？",Input,,
HideMenuButton,,,,,,,,,,,
Selection,*caseS07-04-12,,,,0,300,,「黄色い女の子と綠の――」,,,
*caseS07-04-12,,,,,,,,,,,
ShowMenuButton,,,,,,,,,,,
StopBgm,,,,,,.5,,,,,
CaptureImage,キャプチャーイメージ,SpriteCamera,キャプチャ画像レイヤー,,,,,,,,
CharacterOff,,,,,,0,,,,,
Bg,背景(黒),,,,,0,,,,,
RuleFadeOut,キャプチャーイメージ,Clockwise,,,,.5,,,,,
Wait,,,,,,.5,,,,,
CaptureImage,キャプチャーイメージ,SpriteCamera,キャプチャ画像レイヤー,,,,,,,,
Bg,背景(宿の部屋),,,,,0,,,,,
RuleFadeOut,キャプチャーイメージ,Clockwise,,,,.5,,,,,
,クロワール,悲しみ,キャラ中央,,,,,……なるほどな。,Next,,
Wait,,,,,,.3,,,,,
,クロワール,通常,キャラ中央,,,.2,,いや、なんでもねぇ。,Br,,
Wait,,,,,,.3,,,,,
,クロワール,通常,キャラ中央,,,,,俺は先にロビーで待ってるよ,,,
Tween,クロワール,MoveAdd,"x=-100 y=0 time=1",easeOutQuad,,,Add,,,,
CharacterOff,クロワール,,,,,1,,,,,
Wait,,,,,,1,,,,,
StopBgm,,,,,,.5,,,,,
CaptureImage,キャプチャーイメージ,SpriteCamera,キャプチャ画像レイヤー,,,,,,,,
CharacterOff,,,,,,0,,,,,
Bg,背景(黒),,,,,0,,,,,
RuleFadeOut,キャプチャーイメージ,FadeHolizontal,,,,.5,,,,,
Wait,,,,,,.5,,,,,
CaptureImage,キャプチャーイメージ,SpriteCamera,キャプチャ画像レイヤー,,,,,,,,
Bg,背景(宿屋ロビー),,,,,0,,,,,
RuleFadeOut,キャプチャーイメージ,FadeHolizontal,,,,.5,,,,,
Bgm,状況説明,,,,,1,,,,,
,クロワール,通常,キャラ中央,,,,,"……黄色い女、イエローハートのことか。
綠のおば……お姉さんはグリーンハートのことだろうな",,,
,クロワール,通常,キャラ中央,,,,,記憶の断片が蘇りつつあるのか。,Br,,
Wait,,,,,,.3,,,,,
,クロワール,悲しみ,キャラ中央,,,.2,,だけど、まだ先は長そうだな……,,,
FadeOut,black,,,,,1,,,,,
Wait,,,,,,.3,,,,,
EndScenario,,,,,,,,,,,
