Command,Arg1,Arg2,Arg3,Arg4,Arg5,Arg6,WaitType,Text,PageCtrl,Voice,WindowType,
FadeOut,black,,,,,0,,,,,,
Bg,背景(森：昼),,,,,,,,,,,
Wait,,,,,,.3,,,,,,
FadeIn,black,,,,,1,,,,,,
Bgm,ADV通常,,,,,,,,,,,
Se,踏み込み音,,,,,,,,,,,
,大人ネプテューヌ,通常,キャラ左,,,1,Add,,,,,
Tween,大人ネプテューヌ,MoveFrom,"x=-100 y=0 islocal=true time=1",easeOutQuad,,,Add,,,,,
,クロワール,通常,キャラ中央,,,1,Add,,,,,
Tween,クロワール,MoveFrom,"x=-100 y=0 islocal=true time=1",easeOutQuad,,,Add,,,,,
,天王星うずめ,通常,キャラ右,,,1,Add,,,,,
Tween,天王星うずめ,MoveFrom,"x=-100 y=0 islocal=true time=1",easeOutQuad,,,Add,,,,,
,大人ネプテューヌ,通常,,,,.2,,"リトル・スノー、どこ～？
でておいで〜",,,,
Tween,天王星うずめ,MoveTo,"x=0 y=40 islocal=true time=.1",easeOutCirc,pingPong=2,,Add,,,,,
,天王星うずめ,通常,,,,.2,,おお〜い、ここに困った特異点がいるぞ〜,Input,,,
Selection,*201803-1,,,,0,350,,「特異点でーす」,,,,
Selection,*201803-2,,,,0,200,,「困ってまーす」,,,,
*201803-1,,,,,,,,,,,,
Jump,*case201803-1,,,,,,,,,,,
*201803-2,,,,,,,,,,,,
Jump,*case201803-1,,,,,,,,,,,
*case201803-1,,,,,,,,,,,,
,クロワール,悲しみ,,,,.2,,うーん、そろそろ出て来てもいい頃なんだがなあ,,,,
CharacterOff,,,,,,,,,,,,
,五河琴里,通常,キャラ右,,,,,,,,,
,四糸乃,通常,キャラ左,,,,,,,,,
,五河琴里,悲しみ,,,,.2,,"ちょっと、そのリトル・スノーって人、
ほんとにこんなところにいるわけ？",,,,
,四糸乃,悲しみ,,,,.2,,ずいぶん森の奥まで来ちゃいました……,,,,
CharacterOff,,,,,,,,,,,,
,クロワール,悲しみ,,,,,,,,,,
,クロワール,通常,,,,.2,,"ああ、そういや説明してなかったな。
リトル・スノーには未来を見通す能力があるんだよ",,,,
,クロワール,真剣,,,,.2,,"その力で、世界中を覗き見してて、何か起こると
こう、ふらっと現れてお節介を──",,,,
Se,踏み込み音,,,,,,,,,,,
,リトル・スノー,,,,,1,Add,,,,,
Tween,リトル・スノー,MoveFrom,"x=100 y=0 islocal=true time=1",easeOutQuad,,,,,,,,
,リトル・スノー,通常,,,,,,お節介だなんて、意地悪ね,,,,
,クロワール,固有,,,,,,,,,,
Tween,クロワール,MoveTo,"x=0 y=40 islocal=true time=.1",easeOutCirc,pingPong=2,,Add,,,,,
,クロワール,,,,,,,うおっ、出た！？,Input,,,
Selection,*201803-3,,,,0,300,,「リトル・スノー、久しぶり」,,,,
*201803-3,,,,,,,,,,,,
,リトル・スノー,通常,,,,,,はいはい、お久しぶりね、<param=player_name>。,Br,,,
Wait,,,,,,.3,,,,,,
,リトル・スノー,真剣,,,,.2,,ご覧の通り都合良くでてきてあげましたよー,,,,
CharacterOff,,,,,,,,,,,,
,大人ネプテューヌ,通常,キャラ左,,,,,,,,,
,天王星うずめ,通常,キャラ右,,,,,,,,,
,クロワール,通常,キャラ中央,,,,,,,,,
,天王星うずめ,悲しみ,,,,.2,,おい、なんかリトル・スノー機嫌悪くないか？,,,,
,大人ネプテューヌ,悲しみ,,,,.2,,クロちゃんがお節介とか言うから,,,,
,クロワール,固有,,,,.2,,,,,,
Tween,クロワール,ShakePosition,"x=10 islocal=true time=.3",,,,Add,,,,,
,クロワール,,,,,,,俺のせいかよ！？,,,,
CharacterOff,,,,,,,,,,,,
,五河琴里,通常,,,,,,彼女がその、未来を見通せるって人なの？,Input,,,
Selection,*201803-4,,,,0,300,,「そうだよ」,,,,
*201803-4,,,,,,,,,,,,
,五河琴里,笑い,,,,.2,,初めまして、私は――,,,,
,リトル・スノー,笑い,,,,.2,,あなたが、五河琴里さんね。,Br,,,
Wait,,,,,,.3,,,,,,
,リトル・スノー,通常,,,,.2,,この世界に来た精霊のひとり,,,,
,リトル・スノー,通常,,,,.2,,識別名は──,Next,,,
Wait,,,,,,.3,,,,,,
,リトル・スノー,真剣,,,,.2,,イフリート、だったかしら,,,,
CharacterOff,,,,,,,,,,,,
,五河琴里,真剣,キャラ右,,,,,,,,,
,四糸乃,通常,キャラ左,,,,,,,,,
,五河琴里,真剣,,,,.2,,なるほど、クロワールが言った通りの能力ね。,Br,,,
Wait,,,,,,.3,,,,,,
,五河琴里,通常,,,,.2,,まあ、話が早くて助かるわ,,,,
Wait,,,,,,.5,,,,,,
,四糸乃,通常,,,,,,,,,,
ZoomCamera,SpriteCamera,2.5,-350,-190,,.8,,,,,,
,よしのん,<Character=四糸乃>通常,,,,,,"さっそくなんだけどさ、どうすれば
元の世界に帰れるか教えてくれなーい？",,,,
ZoomCamera,SpriteCamera,1,,,,.5,,,,,,
Wait,,,,,,.5,,,,,,
,四糸乃,真剣,,,,.2,,お願いしますっ,,,,
CharacterOff,,,,,,,,,,,,
,リトル・スノー,真剣,,,,.2,,……そうね。,Next,,,
Wait,,,,,,.3,,,,,,
,リトル・スノー,笑い,,,,.2,,意地悪はこのくらいにしましょ,,,,
,大人ネプテューヌ,悲しみ,,,,,,,,,,
,大人ネプテューヌ,通常,,,,.2,,リトル・スノー、力を貸してくれるの？,,,,
,リトル・スノー,笑い,,,,.2,,"ええ、私の目的とも重なるし、
なにより女の子にこんな風にお願いされたら……ね",,,,
,リトル・スノー,真剣,,,,.2,,でも、異世界へのゲートを開くのは簡単ではないわ。,Br,,,
Wait,,,,,,.3,,,,,,
,リトル・スノー,目閉じ,,,,.2,,いくつかの条件が揃わないといけない,,,,
,リトル・スノー,通常,,,,.2,,"時間、場所はもちろん、複雑に絡んだ因果の糸を
解きほぐすことが必要よ",,,,
,クロワール,固有,,,,,,,,,,
,クロワール,通常,,,,.2,,で、具体的には？,,,
,リトル・スノー,通常,,,,,,,,,
,リトル・スノー,真剣,,,,.2,,まずは、５人の精霊と魔王を集めること,,,
CharacterOff,,,,,,,,,,,
,五河琴里,通常,キャラ右,,,,,,,,
,四糸乃,真剣,キャラ左,,,,,,,,
,五河琴里,真剣,,,,.2,,５人の精霊と魔王？,Br,,
Wait,,,,,,.3,,,,,
,五河琴里,悲しみ,,,,.2,,具体的なんだか曖昧なんだか分からないわね,,,
ZoomCamera,SpriteCamera,2.5,-350,-190,,.8,,,,,
,よしのん,<Character=四糸乃>真剣,,,,,,"精霊ってのは、四糸乃と琴里ちゃん、
あとは十香ちゃんと狂三ちゃんってこと？",,,
ZoomCamera,SpriteCamera,1,,,,.5,,,,,
Wait,,,,,,.5,,,,,
,四糸乃,悲しみ,,,,.2,,でも、１人、足りないね,,,
,五河琴里,通常,,,,.2,,"あと１人の精霊も分からないけど、
何より分からないのはその『魔王』よ",,,
Tween,五河琴里,MoveTo,"x=0 y=40 islocal=true time=.1",easeOutCirc,pingPong=2,,Add,,,,,
,五河琴里,真剣,,,,.2,,まさか、それって……,,,
CharacterOff,,,,,,,,,,,
,リトル・スノー,真剣,,,,,,,,,
,リトル・スノー,通常,,,,.2,,"安心して。あなたが考えているような相手ではないわ。
むしろ『魔王』に縁があるのは私かしら",,,
,リトル・スノー,真剣,,,,.2,,"ともかく、言葉で説明するよりも
実際に会った方が早いわ。行きましょう",,,
Se,踏み込み音,,,,,,,,,,
Tween,リトル・スノー,MoveAdd,"x=100 y=0 time=1",easeOutQuad,,,Add,,,,,
CharacterOff,リトル・スノー,,,,,1,,,,,,
Wait,,,,,,.5,,,,,
,四糸乃,悲しみ,,,,,,,,,
Tween,四糸乃,MoveTo,"x=0 y=40 islocal=true time=.1",easeOutCirc,pingPong=2,,Add,,,,,
,四糸乃,,,,,,,ああっ、待ってください！,,,
,クロワール,通常,,,,,,,,,
,クロワール,悲しみ,,,,.2,,相変わらず、説明してくれねえやつだぜ,Input,,
Selection,*201803-5,,,,0,300,,「ついていこう」,,,
*201803-5,,,,,,,,,,,
,五河琴里,通常,,,,.2,,今はそうするしかないわね,,,
StopBgm,,,,,,,,,,,
CaptureImage,キャプチャーイメージ,SpriteCamera,キャプチャ画像レイヤー,,,,,,,,,
CharacterOff,,,,,,0,,,,,,
Bg,背景(黒),,,,,0,,,,,,
RuleFadeOut,キャプチャーイメージ,FadeHolizontal,,,,.5,,,,,,
Wait,,,,,,.5,,,,,,
CaptureImage,キャプチャーイメージ,SpriteCamera,キャプチャ画像レイヤー,,,,,,,,,
Bg,背景(平原：昼),,,,,0,,,,,,
RuleFadeOut,キャプチャーイメージ,FadeHolizontal,,,,.5,,,,,,
Bgm,明るいテーマ,,,,,,,,,,
,リトル・スノー,笑い,,,,.2,,見た通りの良い天気ねー,,,
,五河琴里,悲しみ,,,,.2,,"確かにキレイなところだけど……
こんなところに『魔王』なんているの？",,,
,リトル・スノー,通常,,,,,,この籠の中の物を出して、用意して,,,
CharacterOff,,,,,,,,,,,
,クロワール,通常,キャラ左,,,,,,,,
,天王星うずめ,通常,キャラ右,,,,,,,,
,クロワール,,,,,,,魔王を喚び出す準備でもするのか？,,,
,天王星うずめ,真剣,,,,.2,,召喚の儀式ってやつか！,,,
CharacterOff,,,,,,,,,,,
,リトル・スノー,通常,,,,.2,,うずめさんは、この布を地面に敷いて。,Br,,
Wait,,,,,,.3,,,,,
,リトル・スノー,笑い,,,,.2,,四糸乃ちゃん、みんなにお手拭きを配ってあげて,,,
,四糸乃,真剣,,,,,,,,,
Tween,四糸乃,MoveTo,"x=0 y=40 islocal=true time=.1",easeOutCirc,pingPong=2,,Add,,,,,
,四糸乃,,,,,,,は、はいっ。,Next,,
Wait,,,,,,.3,,,,,
,四糸乃,悲しみ,,,,.2,,……お手拭き？,,,
ZoomCamera,SpriteCamera,2.5,200,-190,,.8,,,,,
,よしのん,<Character=四糸乃>通常,,,,.2,,お、なんかイイ匂いだな〜,,,
ZoomCamera,SpriteCamera,1,,,,.5,,,,,
Wait,,,,,,.5,,,,,
,リトル・スノー,笑い,,,,.2,,"ふふ、今朝早起きして作ってきたのよ。
スープと、サンドイッチ",,,
CharacterOff,,,,,,,,,,,
,大人ネプテューヌ,通常,キャラ左,,,,,,,,
,天王星うずめ,真剣,キャラ右,,,,,,,,
,大人ネプテューヌ,笑い,,,,.2,,いっただきまーす！,Br,,
Wait,,,,,,.3,,,,,
Tween,大人ネプテューヌ,MoveTo,"x=0 y=-15 islocal=true time=.2",easeOutCirc,pingPong=2,,Add,,,,,
,大人ネプテューヌ,通常,,,,.2,,もぐもぐもぐ、,Next,,
Wait,,,,,,.5,,,,,
Tween,大人ネプテューヌ,MoveTo,"x=0 y=40 islocal=true time=.1",easeOutCirc,pingPong=2,,Add,,,,,
,大人ネプテューヌ,笑い,,,,.2,,うーん、美味しいっ,,,
,天王星うずめ,笑い,,,,.2,,"この卵焼き最高だな。何個でも食えるぜ。
四糸乃も食べてみろ、ほら",,,
CharacterOff,,,,,,,,,,,
,四糸乃,通常,,,,,,ぱくっ。,Next,,
Wait,,,,,,.8,,,,,
Tween,四糸乃,MoveTo,"x=0 y=40 islocal=true time=.1",easeOutCirc,pingPong=2,,Add,,,,,
,四糸乃,固有,,,,.2,,ん……とっても美味しいです。,Br,,
Wait,,,,,,.3,,,,,
Tween,四糸乃,MoveTo,"y=-15 islocal=true time=0.2",,pingPong=4,,Add,,,,
,四糸乃,笑い,,,,.2,,はむはむはむ……,,,
ZoomCamera,SpriteCamera,2.5,200,-190,,.8,,,,,
,よしのん,<Character=四糸乃>笑い,,,,,,よしのんにもちょうだーい！,,,
ZoomCamera,SpriteCamera,1,,,,.5,,,,,
Wait,,,,,,.5,,,,,
,クロワール,通常,,,,,,,,,
,クロワール,固有,,,,.2,,いや、食えるのかおまえ……？,,,
,五河琴里,通常,,,,,,,,,
Tween,五河琴里,MoveTo,"x=0 y=40 islocal=true time=.1",easeOutCirc,pingPong=2,,Add,,,,,
,五河琴里,悲しみ,,,,.2,,って、ちょっと！,Br,,
Wait,,,,,,.3,,,,,
,五河琴里,真剣,,,,.2,,魔王を召喚するんじゃなかったの！？,,,
,リトル・スノー,通常,,,,,,あら、私そんなことひとことも言ってないわよ,,,
,五河琴里,真剣,,,,.2,,じゃあ、なんのつもりで──,,,
,リトル・スノー,通常,,,,,,,,,
,リトル・スノー,笑い,,,,.2,,大丈夫よ。私たちはここで待ってればいいの。,Br,,
Wait,,,,,,.3,,,,,
,リトル・スノー,通常,,,,.2,,すぐに『降ってくる』から,,,
,五河琴里,通常,,,,,,降ってくる……？,,,
CharacterOff,,,,,,,,,,,
,大人ネプテューヌ,通常,,,,.2,,ん……？,Br,,
Wait,,,,,,.3,,,,,
Tween,大人ネプテューヌ,MoveTo,"x=0 y=40 islocal=true time=.1",easeOutCirc,pingPong=2,,Add,,,,,
,大人ネプテューヌ,固有,,,,.2,,わわわっ、空から何か落ちてくるよ！？,,,
CharacterOff,,,,,,,,,,,
Wait,,,,,,.6,,,,,
CaptureImage,キャプチャーイメージ,SpriteCamera,キャプチャ画像レイヤー,,,,,,,,,
CharacterOff,,,,,,0,,,,,,
Bg,背景(黒),,,,,0,,,,,,
RuleFadeOut,キャプチャーイメージ,FadeLeftBottom,,,,.5,,,,,,
Wait,,,,,,.5,,,,,,
CaptureImage,キャプチャーイメージ,SpriteCamera,キャプチャ画像レイヤー,,,,,,,,,
Bg,背景(青空),,,,,0,,,,,,
RuleFadeOut,キャプチャーイメージ,FadeLeftBottom,,,,.5,,,,,,
Se,次元転移音,,,,,,,,,,,
FadeOut,white,,,,,.2,,,,,,
Wait,,,,,,.1,,,,,,
FadeIn,white,,,,,.2,,,,,,
Wait,,,,,,.1,,,,,,
FadeOut,white,,,,,.2,,,,,,
Wait,,,,,,.1,,,,,,
FadeIn,white,,,,,.2,,,,,,
CaptureImage,キャプチャーイメージ,SpriteCamera,キャプチャ画像レイヤー,,,,,,,,,
CharacterOff,,,,,,0,,,,,,
Bg,背景(黒),,,,,0,,,,,,
RuleFadeOut,キャプチャーイメージ,FadeLeftBottom,,,,.5,,,,,,
Wait,,,,,,.5,,,,,,
CaptureImage,キャプチャーイメージ,SpriteCamera,キャプチャ画像レイヤー,,,,,,,,,
Bg,背景(平原：昼),,,,,0,,,,,,
RuleFadeOut,キャプチャーイメージ,FadeLeftBottom,,,,.5,,,,,,
Se,落下音,,,,,,,,,,
Wait,,,,,,3,,,,,
Se,倒れる音,,,,,,,,,,
Shake,Camera,,,,,,,,,,
,クロワール,固有,キャラ左,,,,,,,,
,天王星うずめ,笑い,キャラ右,,,,,,,,
Tween,天王星うずめ,MoveTo,"x=0 y=40 islocal=true time=.1",easeOutCirc,pingPong=2,,Add,,,,,
,天王星うずめ,固有,,,,.2,,ほんとに降ってきた！？,,,
,クロワール,固有,,,,.2,,おいおい、こいつは……,,,
CharacterOff,,,,,,,,,,,
,ファウスト,通常,,,,1,Add,,,,,
Tween,ファウスト,MoveFrom,"x=0 y=-100 islocal=true time=1",easeOutQuad,,,,,,,,
,ファウスト,悲しみ,,,,.2,,うっ……うう……,Input,,
Selection,*201803-6,,,,0,300,,「親方ぁ！　空から魔王が……！」,,,
*201803-6,,,,,,,,,,,
CharacterOff,,,,,,,,,,,
,大人ネプテューヌ,固有,キャラ左,,,,,,,,
,クロワール,固有,キャラ右,,,,,,,,
Tween,クロワール,ShakePosition,"x=10 islocal=true time=.3",,,,Add,,,,,
,クロワール,真剣,,,,.2,,誰が親方だ！,,,
,大人ネプテューヌ,通常,,,,.2,,魔王って、,Br,,
Wait,,,,,,.3,,,,,
,大人ネプテューヌ,笑い,,,,.2,,ファウストのことだったんだねー,,,
,？？？,<Character=>,,,,,,そこをどいて,,,
,クロワール,真剣,,,,,,,,,
Tween,クロワール,MoveTo,"x=0 y=40 islocal=true time=.1",easeOutCirc,pingPong=2,,Add,,,,,
,クロワール,固有,,,,.2,,今度はなんだぁ！？,,,
CharacterOff,,,,,,,,,,,
,天王星うずめ,固有,,,,,,,,,
Tween,天王星うずめ,MoveTo,"x=0 y=40 islocal=true time=.1",easeOutCirc,pingPong=2,,Add,,,,,
,天王星うずめ,真剣,,,,.2,,あそこ！　空に誰か浮かんでる！,,,
StopBgm,,,,,,,,,,,
Bgm,緊張感,,,,,,,,,,
CaptureImage,キャプチャーイメージ,SpriteCamera,キャプチャ画像レイヤー,,,,,,,,,
CharacterOff,,,,,,0,,,,,,
Bg,背景(黒),,,,,0,,,,,,
RuleFadeOut,キャプチャーイメージ,FadeLeftBottom,,,,.5,,,,,,
Wait,,,,,,.5,,,,,,
CaptureImage,キャプチャーイメージ,SpriteCamera,キャプチャ画像レイヤー,,,,,,,,,
Bg,背景(青空),,,,,0,,,,,,
RuleFadeOut,キャプチャーイメージ,FadeLeftBottom,,,,.5,,,,,,
,？？？,<Character=鳶一折紙>真剣,,,,.2,,…………,,,
CaptureImage,キャプチャーイメージ,SpriteCamera,キャプチャ画像レイヤー,,,,,,,,,
CharacterOff,,,,,,0,,,,,,
Bg,背景(黒),,,,,0,,,,,,
RuleFadeOut,キャプチャーイメージ,FadeLeftBottom,,,,.5,,,,,,
Wait,,,,,,.5,,,,,,
CaptureImage,キャプチャーイメージ,SpriteCamera,キャプチャ画像レイヤー,,,,,,,,,
Bg,背景(平原：昼),,,,,0,,,,,,
RuleFadeOut,キャプチャーイメージ,FadeLeftBottom,,,,.5,,,,,,
,五河琴里,通常,キャラ右,,,,,,,,
,四糸乃,通常,キャラ左,,,,,,,,
,五河琴里,固有,,,,.2,,あれは……！？,,,
Tween,四糸乃,MoveTo,"x=0 y=40 islocal=true time=.1",easeOutCirc,pingPong=2,,Add,,,,,
,四糸乃,固有,,,,.2,,折紙さん……！,,,
CharacterOff,,,,,,,,,,,
Se,着地音,,,,,,,,,,
Se,着地音,,,,,,,,,,,
,鳶一折紙,通常,キャラ中央,,,.2,Add,,,,,
Tween,鳶一折紙,MoveFrom,"x=0 y=100 islocal=true time=.2",,,,,,,,,
,鳶一折紙,真剣,,,,.2,,"もう逃がさない。答えて。
あのトカゲは何を企んでいるの？",,,
,ファウスト,悲しみ,,,,,,,,,
,ファウスト,真剣,,,,,,"知らないって言っているでしょう。
私は仲間じゃない！",,,
,鳶一折紙,真剣,,,,.2,,嘘をつかないで。,Br,,
Wait,,,,,,.3,,,,,
,鳶一折紙,目閉じ,,,,.2,,あなたがトカゲといるところをこの目で見た,,,
,ファウスト,真剣,,,,,,,,,
,ファウスト,悲しみ,,,,.2,,だからそれは、少し複雑な事情が……,,,
,五河琴里,固有,,,,,,,,,
,五河琴里,真剣,,,,.2,,ちょっと折紙！　あなたどうしてここに！？,,,
,鳶一折紙,目閉じ,,,,,,,,,
,鳶一折紙,通常,,,,.2,,……琴里？,,,
,四糸乃,固有,,,,.2,,折紙さん！,,,
,鳶一折紙,悲しみ,,,,,,四糸乃まで……あなたたち、どうしてここに……？,,,
,リトル・スノー,通常,,,,,,鳶一折紙さん、ともかく事情を説明するわ。,Br,,
Wait,,,,,,.3,,,,,
,リトル・スノー,真剣,,,,.2,,だから、彼女のこと許してあげて,,,
,ファウスト,真剣,,,,.2,,あなた……,,,
StopBgm,,,,,,,,,,,
CaptureImage,キャプチャーイメージ,SpriteCamera,キャプチャ画像レイヤー,,,,,,,,,
CharacterOff,,,,,,0,,,,,,
Bg,背景(黒),,,,,0,,,,,,
RuleFadeOut,キャプチャーイメージ,Clockwise,,,,.5,,,,,,
Wait,,,,,,.5,,,,,,
CaptureImage,キャプチャーイメージ,SpriteCamera,キャプチャ画像レイヤー,,,,,,,,,
Bg,背景(平原：夜),,,,,0,,,,,,
RuleFadeOut,キャプチャーイメージ,Clockwise,,,,.5,,,,,,
Bgm,状況説明,,,,,,,,,,
,鳶一折紙,目閉じ,,,,.2,,――成程。事情は理解した,,,
,大人ネプテューヌ,笑い,,,,.2,,よかったあ、これでケンカはおしまいだね,,,
,鳶一折紙,目閉じ,,,,,,,,,
,鳶一折紙,通常,,,,.2,,あなた……いえ、,Next,,
Wait,,,,,,.3,,,,,
,鳶一折紙,悲しみ,,,,.2,,ファウストにも謝らないと,,,
,ファウスト,通常,,,,.2,,謝罪なら結構よ。,Br,,
Wait,,,,,,.3,,,,,
,ファウスト,悲しみ,,,,.2,,そんなことされても結果は変わらない,,,
,リトル・スノー,悲しみ,,,,.2,,ファウストったら、そんな風に喧嘩を売らないの,,,
CharacterOff,,,,,,,,,,,
Wait,,,,,,.5,,,,,
,四糸乃,通常,,,,,,,,,
SendMessageByName,AdvEngine,ChangeNoGrayOutCharacter,四糸乃,,,,,,,,
ZoomCamera,SpriteCamera,2.5,200,-190,,.8,,,,,
,よしのん,通常,,,,,,"ねぇねぇ、今度は折紙ちゃんの話を聞かせてよ。
こっちの世界へ来たのはいつなのー？",,,
ZoomCamera,SpriteCamera,1,,,,.5,,,,,
Wait,,,,,,.5,,,,,
,鳶一折紙,悲しみ,,,,.2,,正確な日付は分からない。,Br,,
Wait,,,,,,.3,,,,,
,鳶一折紙,真剣,,,,.2,,ただ、昨日今日の話ではなく、もっと前からいた,,,
,四糸乃,悲しみ,,,,,,"そんなに長く……
大変でしたね……",,,
,鳶一折紙,真剣,,,,,,,,,
,鳶一折紙,通常,,,,.2,,"問題ない。偶然出会った人のお陰で、
衣食住に困ることはなかったから",,,
,鳶一折紙,真剣,,,,.2,,"でもこの間、その相手が悪人で、
私を騙していることを偶然耳にしてしまった",,,
,鳶一折紙,,,,,,,"私は悪人を問い詰めようと隠れ家に乗り込んだ。
そこで、ファウストと鉢合わせした",,,
CharacterOff,,,,,,,,,,,
,ファウスト,悲しみ,キャラ右,,,,,,,,
,クロワール,真剣,キャラ左,,,,,,,,
,ファウスト,真剣,,,,.2,,"あのネームレスを信用するのが
最初からどうかしてたのよ",,,
Tween,クロワール,ShakePosition,"x=10 islocal=true time=.3",,,,Add,,,,,
,クロワール,,,,,,,"ネームレスだと……！？
あの野郎、この世界に来てやがるのか！？",Input,,
Selection,*201803-7,,,,0,300,,「ネームレス？」,,,
*201803-7,,,,,,,,,,,
CharacterOff,,,,,,,,,,,
,大人ネプテューヌ,悲しみ,,,,.2,,"<param=player_name>は覚えてないよね……。
一応、私たちの仲間だったんだけど",,,
CharacterOff,,,,,,,,,,,
,クロワール,真剣,キャラ左,,,,,,,,
,ファウスト,真剣,キャラ右,,,,,,,,
,クロワール,真剣,,,,.2,,"あんなやつ、元でも仲間じゃねえよ。
ずっと隠れてろくでもないこと企んでやがった",,,
,ファウスト,真剣,,,,.2,,"とにかく、卑怯で卑劣でそのくせ臆病で
自分は絶対に矢面に立たない姑息なトカゲよ",,,
CharacterOff,,,,,,,,,,,
,五河琴里,悲しみ,,,,.2,,最低の悪党だってことは理解できたわ,Br,,
Wait,,,,,,.3,,,,,
,五河琴里,真剣,,,,.2,,そいつが、いったい何をしようとしてたの？,,,
,鳶一折紙,通常,,,,,,"少なくとも、精霊を何かに利用しようと
していたのは間違いない",,,
,クロワール,真剣,,,,.2,,"ってことは、琴里たちがこっちに呼びだされたことにも
何か関係がありそうだな。",Next,,
Wait,,,,,,.3,,,,,
,クロワール,通常,,,,.2,,どうだ、リトル・スノー,,,
,リトル・スノー,通常,,,,,,ええ、そうだと思うわ,,,
,天王星うずめ,悲しみ,,,,,,なんか、曖昧な言い方だなあ,,,
,リトル・スノー,悲しみ,,,,.2,,"私にもすべてが見えているわけじゃないわ。
ネームレス個人の思惑は分からないの",,,
CharacterOff,,,,,,,,,,,
,クロワール,真剣,キャラ右,,,,,,,,
,大人ネプテューヌ,悲しみ,キャラ左,,,,,,,,
,クロワール,真剣,,,,,,まあ、わざわざリトル・スノーに聞くまでもない。,Br,,
Wait,,,,,,.3,,,,,
,クロワール,悲しみ,,,,.2,,あいつの計画は間違いなく最悪なことを引き起こす,,,
,大人ネプテューヌ,真剣,,,,.2,,だね。,Next,,
Tween,大人ネプテューヌ,MoveTo,"x=0 y=40 islocal=true time=.1",easeOutCirc,pingPong=2,,Add,,,,,
,大人ネプテューヌ,,,,,,,よーし、みんなでネームレスの所へ行こう！,,,
FadeOut,black,,,,,1,,,,,,
Wait,,,,,,.3,,,,,,
EndScenario,,,,,,,,,,,
