[
    {
        "6": {
            "大人ネプテューヌ": ""
        },
        "8": {
            "クロワール": ""
        },
        "10": {
            "大人ネプテューヌ": "ルウィーの首都にとうちゃーく！\n郊外より暖かいけど、やっぱり寒いね"
        },
        "11": {
            "大人ネプテューヌ": "まずは、このガイドブックに載ってるお店に行って\nあったか～い料理を食べよう！"
        },
        "12": {
            "クロワール": "観光しに来たんじゃねーっての。\n大事なもん預かってんだから、まっすぐ教会に向かうぞ"
        },
        "13": {
            "大人ネプテューヌ": "ええー！？　せっかく本を買ったのにー"
        },
        "22": {
            "大人ネプテューヌ": ""
        },
        "24": {
            "大人ネプテューヌ": "ブーラーンちゃーん！\n世界を救うメインヒロインが来たよーっ"
        },
        "25": {
            "西沢ミナ": ""
        },
        "27": {
            "？？？": "ようこそおいでになられました"
        },
        "28": {
            "大人ネプテューヌ": "おや？　誰？"
        },
        "29": {
            "西沢ミナ": "申し遅れました。私は西沢ミナ。\nこのルウィーの教祖を務めさせていただいております"
        },
        "30": {
            "西沢ミナ": "ブラン様はすぐにお見えになります"
        },
        "31": {
            "クロワール": "なんか、やけに準備がいいな"
        },
        "32": {
            "偽ブラン": ""
        },
        "34": {
            "？？？": "もちろん、あなたたちが来るのを待っていたからよ"
        },
        "35": {
            "天王星うずめ": "へぇ、あれがルウィーの女神か"
        },
        "36": {
            "大人ネプテューヌ": "あなたがブランだね。\nえっとね、わたしたち――"
        },
        "37": {
            "ブラン": "わかっているわ"
        },
        "38": {
            "クロワール": "イストワールが根回しでもしといてくれたのか？\nまあ、話が早くて助かるけど"
        },
        "39": {
            "ブラン": "いいえ。わたしが分かっているのは……"
        },
        "42": {
            "ブラン": "あなたたちが世界を破滅へ導く悪魔だということよ"
        },
        "45": {
            "クロワール": "なんだ、こいつら！？"
        },
        "47": {
            "「囲まれた！」": {
                "50": {
                    "天王星うずめ": "どういうことだ！？"
                },
                "51": {
                    "ブラン": "危うく騙されるとこだったけど、\n全てコイツから聞いているわ"
                },
                "52": {
                    "下っ端": ""
                },
                "55": {
                    "クロワール": "おまえは……！"
                }
            }
        },
        "57": {
            "「下っ端！」": {
                "61": {
                    "下っ端": "下っ端言うな！"
                }
            }
        },
        "58": {
            "「どなたでしたっけ？」": {
                "65": {
                    "下っ端": "いや、こないだ会ったばっかだろ！？"
                },
                "66": {
                    "大人ネプテューヌ": "あっ、思い出した！\nプラネテューヌの時の……下っ端！"
                },
                "67": {
                    "下っ端": "下っ端言うな！"
                }
            }
        },
        "109": {
            "「全部、アテレコだった」": {
                "112": {
                    "下っ端": "う、うるせぇ！　証拠はあるのかよ！　証拠は！"
                },
                "113": {
                    "ブラン": "真相はどうあれ、おまえたちを野放しにはできないわ。\nだから、捕獲する"
                },
                "114": {
                    "天王星うずめ": "これは、逃げた方がいいパターンだぞ"
                }
            }
        },
        "116": {
            "「逃げよう！」": {
                "119": {
                    "大人ネプテューヌ": "了解！"
                },
                "120": {
                    "クロワール": "くそ、仕方ねぇか！"
                },
                "126": {
                    "ブラン": "待ちなさい！\nあなたたち、追うわよ！"
                },
                "127": {
                    "教員たち": "はっ！"
                },
                "136": {
                    "西沢ミナ": ""
                },
                "138": {
                    "フィナンシェ": ""
                },
                "140": {
                    "西沢ミナ": "さて、教員の人たちよりも先回りしませんと……\nフィナンシェさん、手分けして探しましょう"
                },
                "141": {
                    "フィナンシェ": "承知しました。ブラン様の侍従の名にかけて"
                }
            }
        }
    }
]