Command,Arg1,Arg2,Arg3,Arg4,Arg5,Arg6,WaitType,Text,PageCtrl,Voice,WindowType
Bgm,ADV通常,,,,,,,,,,
FadeOut,black,,,,,0,,,,,
Bg,背景(森：昼),,,,,,,,,,
Wait,,,,,,.3,,,,,
FadeIn,black,,,,,1,,,,,
,天王星うずめ,通常,キャラ右,,,.2,,,,,
,クロワール,真剣,キャラ左,,,,,くそーっ、ぜんっぜん見つからねぇ！,,,
,クロワール,悲しみ,,,,.2,,"本当にここにあるのか？
その『マキシマムポマト』は",,,
,天王星うずめ,悲しみ,,,,.2,,"幻の食材って言うぐらいだからな。
そう簡単に見つからないって",Input,,
Selection,"*select 200202-1",,,,0,300,,「焦らない焦らない」,,,
"*select 200202-1",,,,,,,,,,,
,天王星うずめ,笑い,,,,.2,,そうそう。こういうのは根気が大事なんだ,,,
,,,,,,,,,,,,//ＳＥ：ガサガサと草の根分けて探してるような音（軽く時間経過）
,クロワール,,,,,,,あーっ、もうやってられっか！,,,
,クロワール,真剣,,,,.2,,"だいたい、『あのバカ』が財布をなくしたりしなきゃ、
こんなことにはなってないんだ！",,,
StopBgm,,,,,,1,,,,,
CaptureImage,キャプチャーイメージ,SpriteCamera,キャプチャ画像レイヤー,,,,,,,,
CharacterOff,,,,,,,,,,,
Bg,背景(白),,,,,0,,,,,
RuleFadeOut,キャプチャーイメージ,FadeCircle,,,,1,,,,,
Wait,,,,,,.2,,,,,
CaptureImage,キャプチャーイメージ,SpriteCamera,キャプチャ画像レイヤー,,,,,,,,
Bg,背景(街),,,,,0,,,,,
ImageEffect,SpriteCamera,Sepia,,,,,,,,,
RuleFadeOut,キャプチャーイメージ,FadeCircle,,,,1,,,,,
Bgm,コミカル,,,,,,,,,,
Sprite,テキスト「あのバカ」,,スプライトレイヤー,300,200,,,,,,,//場所：「街」など
,大人ネプテューヌ,照れ,,,,,,……財布落としちゃった。えへ♪,,,,//画面上に矢印つきで『あのバカ』とネプテューヌを指すような書き込みができれば面白いんじゃないかと。
SpriteOff,,,,,,,,,,,
StopBgm,,,,,,1,,,,,
CaptureImage,キャプチャーイメージ,SpriteCamera,キャプチャ画像レイヤー,,,,,,,,
CharacterOff,,,,,,,,,,,
Bg,背景(白),,,,,0,,,,,
RuleFadeOut,キャプチャーイメージ,FadeCircle,,,,1,,,,,
Wait,,,,,,.2,,,,,
CaptureImage,キャプチャーイメージ,SpriteCamera,キャプチャ画像レイヤー,,,,,,,,
Bg,背景(森：昼),,,,,0,,,,,
ImageEffectOff,SpriteCamera,Sepia,,,,,,,,,
RuleFadeOut,キャプチャーイメージ,FadeCircle,,,,1,,,,,
Bgm,ADV通常,,,,,,,,,,,//場所：「森」
,天王星うずめ,通常,キャラ右,,,,,,,,
,クロワール,悲しみ,キャラ左,,,,,おかげで路銀が貯まるまで街に足止めだ,,,
,天王星うずめ,,,,,,,"だったら、ねぷっちも連れて来ればよかったんだ。
人手は多い方がいいだろ",,,
,クロワール,真剣,,,,.2,,"あいつに一番効くお仕置きは、
宿で大人しく待たせているだからな",,,
,クロワール,通常,,,,.2,,それに幻の食材なんて言われたら――,Input,,
Selection,"*select 200202-2",,,,0,300,,「食べるね」,,,
"*select 200202-2",,,,,,,,,,,
,クロワール,真剣,,,,.2,,報酬を貰う前にぜーったい食べちまうに決まってる！,,,
,クロワール,笑い,,,,.2,,そしたら俺様も怒りを抑えられる自信がねぇ……,Input,,
Selection,"*select 200202-3",,,,0,350,,「クロちゃんの怒りが有頂天」,,,
Selection,"*select 200202-4",,,,0,200,,「黒ワール……」,,,
"*select 200202-3",,,,,,,,,,,
,天王星うずめ,固有,,,,.2,,いや、よく分かんねぇけど,,,
Jump,"*confluence 200202-1",,,,,,,,,,
"*select 200202-4",,,,,,,,,,,
,天王星うずめ,悲しみ,,,,.2,,こりゃあ、だいぶ鬱憤が溜まってたな,,,
Jump,"*confluence 200202-1",,,,,,,,,,
"*confluence 200202-1",,,,,,,,,,,
,天王星うずめ,通常,,,,.2,,まあ、そうカリカリするなって,Br,,
Wait,,,,,,.3,,,,,
,天王星うずめ,笑い,,,,.2,,これもまた冒険の醍醐味じゃないか,,,
,クロワール,悲しみ,,,,.2,,むしろ、そこまで寛容になれる理由を知りてぇよ,,,
ZoomCamera,SpriteCamera,2.5,50,0,,.5,,,,,
Wait,,,,,,.3,,,,,
Se,流れ星,,,,,,,,,,
FadeOut,white,,,,,0,,,,,
FadeIn,white,,,,,1,,,,,,//森の向こうで強い光が発生
StopSe,,,,,,,,,,,
ZoomCamera,SpriteCamera,1,0,0,,.5,,,,,
Wait,,,,,,.3,,,,,
,クロワール,通常,,,,,,な、なんだぁあの光は！？,Input,,
Selection,"*select 200202-5",,,,0,350,,「キラっと光る演出……」,,,
Selection,"*select 200202-5",,,,0,200,,「激レアの予感……！」,,,
"*select 200202-5",,,,,,,,,,,
,天王星うずめ,笑い,,,,,,"もしかして、マキシマムポマト！？
行ってみようぜ、<param=player_name>！",,,
Tween,天王星うずめ,MoveTo,"x=100 y=0 islocal=true time=1",easeOutQuad,,,Add,,,,
CharacterOff,天王星うずめ,,,,,1,,,,,
Wait,,,,,,.5,,,,,
,クロワール,真剣,,,,.2,,幻の食材が、あんな目立つ光を放ってたまるか！,Br,,
Wait,,,,,,.3,,,,,
,クロワール,固有,,,,.2,,って、こら、置いて行くなーっ！,,,,//クロワールが天王星うずめに付いていき、フレームアウト
,,,,,,,,,,,,//時間経過
Tween,クロワール,MoveTo,"x=100 y=0 islocal=true time=1",easeOutQuad,,,Add,,,,
CharacterOff,クロワール,,,,,1,,,,,
Wait,,,,,,1,,,,,
CaptureImage,キャプチャーイメージ,SpriteCamera,キャプチャ画像レイヤー,,,,,,,,
CharacterOff,,,,,,0,,,,,
Bg,背景(黒),,,,,0,,,,,
RuleFadeOut,キャプチャーイメージ,FadeHolizontal,,,,.5,,,,,
Wait,,,,,,.5,,,,,
CaptureImage,キャプチャーイメージ,SpriteCamera,キャプチャ画像レイヤー,,,,,,,,
Bg,背景(森：昼),,,,,0,,,,,
RuleFadeOut,キャプチャーイメージ,FadeHolizontal,,,,.5,,,,,
,天王星うずめ,通常,キャラ右,,,1,Add,,,,
Tween,天王星うずめ,MoveFrom,"x=-100 y=0 islocal=true time=1",easeOutQuad,,,Add,,,,
,クロワール,通常,キャラ左,,,1,Add,,,,
Tween,クロワール,MoveFrom,"x=-100 y=0 islocal=true time=1",easeOutQuad,,,,,,,
,天王星うずめ,悲しみ,,,,.2,,光ったのは、この辺りのはずだが……,Input,,
Selection,"*select 200202-6",,,,0,300,,「誰か倒れてる」,,,
"*select 200202-6",,,,,,,,,,,
CharacterOff,,,,,,,,,,,
StopBgm,,,,,,1,,,,,
Wait,,,,,,.5,,,,,
,見知らぬ女性,<Character=リトル・スノー>目閉じ,キャラ中央,,,,,………………,,,
CharacterOff,,,,,,,,,,,
,天王星うずめ,通常,キャラ右,,,,,,,,
,クロワール,通常,キャラ左,,,,,銀色の髪か……ここらじゃ珍しいな,,,
,天王星うずめ,悲しみ,,,,.2,,おーい、生きてるか－？,,,
CharacterOff,,,,,,,,,,,
,見知らぬ女性,<Character=リトル・スノー>目閉じ,キャラ中央,,,,,う……ジャ、ドウ……,,,
CharacterOff,,,,,,,,,,,
,天王星うずめ,通常,キャラ右,,,,,,,,
,クロワール,悲しみ,キャラ左,,,,,じゃどう？　,,,
CharacterOff,,,,,,,,,,,
,見知らぬ女性,<Character=リトル・スノー>固有,キャラ中央,,,,,………………んっ,,,,//意識を取り戻すリトル・スノー
CharacterOff,,,,,,,,,,,
,クロワール,通常,キャラ左,,,,,,,,
,天王星うずめ,通常,キャラ右,,,,,お、気づいたみたいだぞ,Input,,
Selection,"*select 200202-7",,,,0,350,,「大丈夫？」,,,
Selection,"*select 200202-7",,,,0,200,,「痛いところ、ない？」,,,
"*select 200202-7",,,,,,,,,,,
CharacterOff,,,,,,,,,,,
,リトル・スノー,真剣,キャラ中央,,,,,,,,
Wait,,,,,,1,,,,,
,リトル・スノー,能力,,,,.2,,,,,
Se,魔法チャージ音,,,,,,,,,,
FadeOut,#A9E2F3,,,,,0,,,,,
FadeIn,#A9E2F3,,,,,.5,,,,,
Wait,,,,,,1,,,,,
StopSe,,,,,,,,,,,
,見知らぬ女性,<Character=リトル・スノー>真剣,,,,.2,,あなたは……っ！！,,,,//リトル・スノーが無意識に主人公の真実を見通す。なにか画面演出的なものがあればお願いします。
Bgm,疑惑,,,,,,,,,,
,見知らぬ女性,<Character=リトル・スノー>固有,,,,,,あなたたち、何が狙いなの……？,,,,//警戒
CharacterOff,,,,,,,,,,,
,クロワール,通常,キャラ左,,,,,,,,
,天王星うずめ,通常,キャラ右,,,,,おいおい、心配してやったのにずいぶんな態度だな,,,
CharacterOff,,,,,,,,,,,
,見知らぬ女性,<Character=リトル・スノー>固有,,,,,,心配……私を……？,,,
CharacterOff,,,,,,,,,,,
,天王星うずめ,通常,キャラ右,,,,,,,,
,クロワール,通常,キャラ左,,,,,何があったか知らねぇが、まずは落ち着け,,,
CharacterOff,,,,,,,,,,,
,見知らぬ女性,<Character=リトル・スノー>真剣,,,,,,"ち、近づかないで！
ジャドウ！　ジャドウはどこに……！？",,,
,見知らぬ女性,<Character=リトル・スノー>固有,,,,,,"世界を変えるほどの強大な力が２つも……
そして、邪悪なる影が見える魂",,,
Bgm,冒険者たちの軌跡,,,,,,,,,,
Particle,青チャージ,,,,,,,,,,
Se,魔法チャージ音,,,,,,,,,,
,見知らぬ女性,<Character=リトル・スノー>真剣,,,,,,私がなんとかするしか！　ラ・デルフェス！,,,
ParticleOff,,,,,,,,,,,
CharacterOff,,,,,,,,,,,
Wait,,,,,,.5,,,,,
Se,魔法陣展開,,,,,,,,,,
FadeOut,#A9E2F3,,,,,0,,,,,
FadeIn,#A9E2F3,,,,,.5,,,,,
,,,,,,,,,,,,//リトル・スノーが攻撃を仕掛けてくる
,天王星うずめ,通常,キャラ右,,,,,,,,
,クロワール,固有,キャラ左,,,,,うわっ！？　いきなり何しやがんだ！,,,
CharacterOff,,,,,,,,,,,
,見知らぬ女性,<Character=リトル・スノー>真剣,,,,,,"悪いとは思ってる。でも、あなたたちの力は、
この世界の平和のためにあってはならない！",,,
CharacterOff,,,,,,,,,,,
,クロワール,通常,キャラ左,,,,,,,,
,天王星うずめ,真剣,キャラ右,,,,,"こっちの話、ぜんぜん聞いてない！？
ていうか、とんでもない力だぞ！",Input,,
Selection,"*select 200202-8",,,,0,300,,「ある意味激レア！」,,,
"*select 200202-8",,,,,,,,,,,
Tween,クロワール,MoveTo,"x=0 y=40 islocal=true time=.1",easeOutCirc,pingPong=2,,Add,,,,
,クロワール,真剣,,,,.2,,言ってる場合かーっ！,,,
FadeOut,black,,,,,1,,,,,
Wait,,,,,,.3,,,,,
EndScenario,,,,,,,,,,,
