Command,Arg1,Arg2,Arg3,Arg4,Arg5,Arg6,WaitType,Text,PageCtrl,Voice,WindowType
FadeOut,black,,,,,0,,,,,
Bg,背景(街中：夜),,,,,,,,,,
Wait,,,,,,.3,,,,,
FadeIn,black,,,,,1,,,,,
Bgm,ADV通常,,,,,,,,,,
,エニグマ君,通常,,,,1,Add,,,,
Tween,エニグマ君,MoveFrom,"x=100 y=0 islocal=true time=1",easeOutQuad,,,Add,,,,
,エニグマ君,,,,,,,"――次はこっちみたいだな。
ほら、ボサっとしてないで行くぞ？",,,
CharacterOff,,,,,,,,,,,
,リディア・ノーラン魔法少女,エニグマ君なし通常,キャラ左,,,,,,,,
,エニグマ君,通常,キャラ右,,,,,,,,
,魔法少女リディア,<Character=リディア・ノーラン魔法少女>エニグマ君なし目閉じ,,,,.2,,ちょっと、疲れたからキューケイ,,,
,エニグマ君,悲しみ,,,,,,はぁ、――ったく,Br,,
Wait,,,,,,.3,,,,,
,エニグマ君,真剣,,,,.2,,『オカルトは待ってくれない』んだろ？,,,
,魔法少女リディア,<Character=リディア・ノーラン魔法少女>エニグマ君なし通常,,,,.2,,アラ――、,Next,,
Wait,,,,,,.5,,,,,
,魔法少女リディア,<Character=リディア・ノーラン魔法少女>エニグマ君なし真剣,,,,.2,,"エニグマ君がせっかち過ぎ！
そんなことじゃ、“しぃ”にも嫌われちゃうよ？",,,
Tween,エニグマ君,ShakePosition,"x=10 islocal=true time=.3",,,,Add,,,,
,エニグマ君,固有,,,,.2,,なっ――　,Next,,
Wait,,,,,,.5,,,,,
,エニグマ君,真剣,,,,.2,,それは今は関係ないだろ！？,Input,,
Selection,*201503-01,,,,0,300,,「二人とも、喧嘩している場合じゃないよ！」,,,
*201503-01,,,,,,,,,,,
,エニグマ君,悲しみ,,,,.2,,"<param=player_name>の言うとおりだな
リディア、すまん……",,,
,魔法少女リディア,<Character=リディア・ノーラン魔法少女>エニグマ君なし悲しみ,,,,.2,,エニグマ君。アタシの方こそごめん,,,
SendMessageByName,AdvEngine,ChangeNoGrayOutCharacter,"リディア・ノーラン魔法少女,エニグマ君",,,,,,,,
,,,,,,,,…………,,,
Tween,エニグマ君,MoveTo,"x=0 y=40 islocal=true time=.1",easeOutCirc,pingPong=2,,Add,,,,
,エニグマ君,真剣,,,,.2,,"――っと、そんなこと言ってる場合じゃないな。
あそこからオカルトの気配を感じないか？",,,
StopBgm,,,,,,,,,,,
Bgm,疑惑,,,,,,,,,,
Tween,リディア・ノーラン魔法少女,MoveTo,"x=0 y=-15 islocal=true time=.2",easeOutCirc,pingPong=2,,Add,,,,
,魔法少女リディア,<Character=リディア・ノーラン魔法少女>エニグマ君なし通常,,,,.2,,うん……　確かにあそこ、クサいね,,,
CharacterOff,,,,,,,,,,,
,エニグマ君,真剣,,,,,,いや待て。気配があちこちからするな……,Br,,
Wait,,,,,,.3,,,,,
,エニグマ君,通常,,,,.2,,ん？　これは出店？,,,
CharacterOff,,,,,,,,,,,
,,,,,,,,目の前には小さな露店が並んでいて,Br,,
Wait,,,,,,.3,,,,,
,樋泉楓,通常,,,,,,,,,
SendMessageByName,AdvEngine,ChangeNoGrayOutCharacter,樋泉楓,,,,,,,,
,,,,,,,,エニグマ君はそこの店主と目が合ってしまう――,,,
StopBgm,,,,,,,,,,,
Bgm,コミカル,,,,,,,,,,
,樋泉楓,,,,,,,ん？　,Next,,
CharacterOff,,,,,,,,,,,
,樋泉楓,真剣,,,,.2,Add,,,,
Tween,樋泉楓,ScaleTo,"time=0 x=1.5 y=1.5",,,,Add,,,,
Tween,樋泉楓,MoveAdd,"x=0 y=-150 time=0",,,,Add,,,,
Tween,BG,ScaleTo,"time=0 x=1.5 y=1.5",,,,Add,,,,
Tween,BG,MoveAdd,"x=0 y=-50 time=0",,,,Add,,,,
Particle,集中線,,,,,,Add,,,,
Wait,,,,,,.5,,,,,
,樋泉楓,,,,,,,ぬいぐるみがしゃべっているだと――！？,,,
CharacterOff,,,,,,,Add,,,,
ParticleOff,,,,,,,,,,,
Tween,BG,ScaleTo,"time=0 x=1 y=1",,,,Add,,,,
Tween,BG,MoveAdd,"x=0 y=50 time=0",,,,,,,,
Wait,,,,,,.5,,,,,
,リディア・ノーラン魔法少女,エニグマ君なし通常,キャラ右,,,,,,,,
Se,踏み込み音,,,,,,,,,,
,樋泉楓,真剣,キャラ左,,,.5,Add,,,,
Tween,樋泉楓,MoveFrom,"x=-100 y=0 islocal=true time=.5",easeOutQuad,,,,,,,
,樋泉楓,,,,,,,おい、君！　,Next,,
Wait,,,,,,.3,,,,,
,樋泉楓,笑い,,,,.2,,"このぬいぐるみを売ってくれないか？
こんな珍しいものはなかなかお目にかかれない",,,
,魔法少女リディア,<Character=リディア・ノーラン魔法少女>エニグマ君なし真剣,,,,.2,,"だーめ！　この子を売ると""しぃ""に怒られちゃう",,,
,樋泉楓,悲しみ,,,,.2,,むぅ……、高額で買うといっても？,,,
,魔法少女リディア,<Character=リディア・ノーラン魔法少女>エニグマ君なし照れ,,,,.2,,迷っちゃうなぁ……,,,
CharacterOff,,,,,,,,,,,
,エニグマ君,真剣,,,,,,おい、迷うな！！,Br,,
Wait,,,,,,.3,,,,,
,エニグマ君,通常,,,,.2,,――って、今はそんな場合じゃないな,,,
CharacterOff,,,,,,,,,,,
Bgm,ADV通常,,,,,,,,,,
,エニグマ君,通常,キャラ右,,,,,,,,
,樋泉楓,通常,キャラ左,,,,,,,,
,エニグマ君,,,,,,,おい、店主。このあたりで変なことが起きてないか？,,,
,樋泉楓,,,,,,,んー、このあたりだと河童がどうとかよく聞くな,,,
Tween,エニグマ君,MoveTo,"x=0 y=40 islocal=true time=.1",easeOutCirc,pingPong=2,,Add,,,,
,エニグマ君,真剣,,,,.2,,それだ――！　リディア、おそらくこの近くだ！！,,,
CharacterOff,,,,,,,,,,,
,魔法少女リディア,<Character=リディア・ノーラン魔法少女>エニグマ君なし悲しみ,,,,,,うーん。,Next,,
Wait,,,,,,.3,,,,,
,魔法少女リディア,<Character=リディア・ノーラン魔法少女>エニグマ君なし目閉じ,,,,.2,,"こう、気配だらけだと、
居場所がつかめない――",,,
StopBgm,,,,,,,,,,,
CharacterOff,,,,,,,,,,,
Bgm,緊張感,,,,,,,,,,
CaptureImage,キャプチャーイメージ,SpriteCamera,キャプチャ画像レイヤー,,,,,,,,
CharacterOff,,,,,,0,,,,,
Bg,背景(黒),,,,,0,,,,,
RuleFadeOut,キャプチャーイメージ,FadeLeftBottom,,,,.5,,,,,
Wait,,,,,,.5,,,,,
CaptureImage,キャプチャーイメージ,SpriteCamera,キャプチャ画像レイヤー,,,,,,,,
Bg,背景(街中：夜),,,,,0,,,,,
RuleFadeOut,キャプチャーイメージ,FadeLeftBottom,,,,.5,,,,,
Wait,,,,,,.3,,,,,
FadeOut,#7d557b,,,,,1,,,,,
Se,増殖音,,,,,,,,,,
Particle,黒いモヤ,,,,,,,,,,
Wait,,,,,,.3,,,,,
FadeIn,#7d557b,,,,,1,,,,,
Wait,,,,,,1.5,,,,,
ParticleOff,,,,,,,Add,,,,
CaptureImage,キャプチャーイメージ,SpriteCamera,キャプチャ画像レイヤー,,,,,,,,
CharacterOff,,,,,,0,,,,,
Bg,背景(黒),,,,,0,,,,,
RuleFadeOut,キャプチャーイメージ,FadeLeftBottom,,,,.5,,,,,
Wait,,,,,,.5,,,,,
CaptureImage,キャプチャーイメージ,SpriteCamera,キャプチャ画像レイヤー,,,,,,,,
Bg,背景(街中：夜),,,,,0,,,,,
RuleFadeOut,キャプチャーイメージ,FadeLeftBottom,,,,.5,,,,,
,リディア・ノーラン魔法少女,エニグマ君なし目閉じ,,,,,,,,,
Selection,*201503-02,,,,0,350,,「リディア、うしろ！」,,,
Selection,*201503-03,,,,0,200,,「リディア、みぎ！」,,,
*201503-02,,,,,,,,,,,
,魔法少女リディア,<Character=リディア・ノーラン魔法少女>エニグマ君なし笑い,,,,.2,,<param=player_name>、ナイスアシストー！,,,
Jump,*case201503-01,,,,,,,,,,
*201503-03,,,,,,,,,,,
,魔法少女リディア,<Character=リディア・ノーラン魔法少女>エニグマ君なし真剣,,,,.2,,全然ちがうじゃーん！　あとでオシオキだからね？,,,
Jump,*case201503-01,,,,,,,,,,
*case201503-01,,,,,,,,,,,
,魔法少女リディア,<Character=リディア・ノーラン魔法少女>エニグマ君なし通常,,,,.2,,こいつがオカルトの原因だねー？,Br,,
Wait,,,,,,.3,,,,,
,魔法少女リディア,<Character=リディア・ノーラン魔法少女>エニグマ君なし悲しみ,,,,.2,,アタシ一人じゃ荷が重いかも……,,,
Tween,リディア・ノーラン魔法少女,MoveTo,"x=0 y=40 islocal=true time=.1",easeOutCirc,pingPong=2,,Add,,,,
,魔法少女リディア,<Character=リディア・ノーラン魔法少女>エニグマ君なし笑い,,,,.2,,"そうだ！　いいこと思いついた！！
マジカル～、",Next,,
Wait,,,,,,.3,,,,,
Se,ウィンク音,,,,,,,,,,
Particle,ウィンクエフェクト,,スプライトレイヤー,,-47,,,,,,
StopSe,,,,,,.5,,,,,
,魔法少女リディア,<Character=リディア・ノーラン魔法少女>エニグマ君なし固有,,,,.2,,店主を強制変身～～！！,,,
Se,魔法チャージ音,,,,,,,,,,
Particle,収束,,スプライトレイヤー,,,,,,,,
Wait,,,,,,2,,,,,
ParticleOff,,,,,,,,,,,
,樋泉楓,通常,,,,,,,,,
Se,鼓動音,,,,,,,,,,
Tween,樋泉楓,ShakePosition,"x=10 islocal=true time=.3",,,,Add,,,,
,樋泉楓,焦り,,,,.2,,おわっ！！,,,
Particle,白オーラ,,,0,-150,,,,,,
Particle,白チャージ,,スプライトレイヤー,,,,,,,,
Se,次元転移音,,,,,,,,,,
SendMessageByName,AdvEngine,ChangeNoGrayOutCharacter,樋泉楓,,,,,,,,
,,,,,,,,樋泉楓の姿がみるみると変身してゆく――,,,
FadeOut,#ffffff,,,,,2,,,,,
Se,魔法陣展開,,,,,,,,,,
ParticleOff,,,,,,,,,,,
Wait,,,,,,.3,,,,,
,クレア・グレイブ,真剣,,,,0,,,,,
Wait,,,,,,1,,,,,
Se,物が折れる音,,,,,,,,,,
Wait,,,,,,.5,,,,,
FadeIn,#ffffff,,,,,2,,,,,
Wait,,,,,,1,,,,,
,クレア・グレイブ,焦り,,,,.2,,こ、この姿は……？,,,
CharacterOff,,,,,,,,,,,
,リディア・ノーラン魔法少女,エニグマ君なし通常,キャラ右,,,,,,,,
,クレア・グレイブ,焦り,キャラ左,,,,,,,,
,魔法少女リディア,<Character=リディア・ノーラン魔法少女>エニグマ君なし笑い,,,,,,アタシと同じ魔法少女にしたの。,Br,,
Wait,,,,,,.3,,,,,
,魔法少女リディア,<Character=リディア・ノーラン魔法少女>エニグマ君なし真剣,,,,.2,,一緒に戦って！！　そうしたら報酬だすから！！,,,
Tween,クレア・グレイブ,ShakePosition,"x=10 islocal=true time=.3",,,,Add,,,,
,クレア・グレイブ,固有,,,,.2,,ほ、報酬！？　,Next,,
Wait,,,,,,.5,,,,,
,クレア・グレイブ,真剣,,,,.2,,了解した！！,,,
CharacterOff,,,,,,,,,,,
,クレア・グレイブ,真剣,,,,,,,,,
Se,掴む音,,,,,,Add,,,,
StopSe,,,,,,,Add,,,,
,クレア・グレイブ,戦闘,,,,.2,,,,,
Wait,,,,,,.5,,,,,
,クレア・グレイブ,,,,,,,喰らえ！！！,,,
Shake,Camera,"x=5 time=.3",,,,,Add,,,,
Se,銃声,,,,,,Add,,,,
StopSe,,,,,,,Add,,,,
Wait,,,,,,.5,,,,,
Se,銃声,,,,,,,,,,
Shake,Camera,"x=5 time=.3",,,,,Add,,,,
Wait,,,,,,1,,,,,
,エニグマ君,固有,,,,,,銃って……　しかも物理かよ！！！,,,
,魔法少女リディア,<Character=リディア・ノーラン魔法少女>エニグマ君なし真剣,,,,,,とどめだ～～！　マジカル追撃の物理攻撃！！！,Br,,
Tween,リディア・ノーラン魔法少女,ScaleTo,"x=0.9 y=0.9 time=0.2",,,,,,,,
Wait,,,,,,.2,,,,,
Se,疾走音,,,,,,,,,,
Tween,リディア・ノーラン魔法少女,ScaleTo,"x=2 y=2 time=0.5",,,,Add,,,,
Tween,リディア・ノーラン魔法少女,MoveAdd,"x=0 y=-150 time=.5",,,,Add,,,,
CharacterOff,,,,,,,,,,,
Wait,,,,,,.3,,,,,
Wait,,,,,,.3,,,,,
Se,打撃音,,,,,,,,,,
Particle,叩きつけ,,スプライトレイヤー,,,,Add,,,,
,魔法少女リディア,<Character=>,,,,.2,,えぃ！　,Next,,
ParticleOff,,,,,,,,,,,
Wait,,,,,,.5,,,,,
Se,打撃音,,,,,,Add,,,,
Particle,叩きつけ,,スプライトレイヤー,,,,Add,,,,
,魔法少女リディア,<Character=>,,,,,,やぁ！　,Next,,
ParticleOff,,,,,,,,,,,
Se,打撃音,,,,,,Add,,,,
Particle,スタン叩き,,スプライトレイヤー,,,,Add,,,,
,魔法少女リディア,<Character=>,,,,.2,,たぁあああ！！！　●ね～～！！,,,
FadeOut,#ff2121,,,,,.2,,,,,
Se,血しぶき音,,,,,,Add,,,,
Wait,,,,,,.3,,,,,
FadeIn,#ff2121,,,,,.2,Add,,,,
,エニグマ君,悲しみ,,,,,,"これ、お子様には決して見せることができないな。
血とか見せちゃいけないものが……",,,
,魔法少女リディア,<Character=リディア・ノーラン魔法少女>エニグマ君なし真剣,,,,,,<param=player_name>、今だよー！！,,,
CharacterOff,,,,,,,,,,,
,,,,,,,,<param=player_name>が手をかざすと――,Br,,
Wait,,,,,,.3,,,,,
,,,,,,,,オカルトの怪異は消滅していく。,,,
CharacterOff,,,,,,,,,,,
FadeOut,#ffffff,,,,,.5,,,,,
Se,エナジー霧散,,,,,,,,,,
Wait,,,,,,.3,,,,,
FadeIn,#ffffff,,,,,.3,,,,,
Wait,,,,,,.3,,,,,
StopBgm,,,,,,,,,,,
Bgm,ADV通常,,,,,,,,,,
,エニグマ君,通常,,,,,,,,,
,リディア・ノーラン魔法少女,エニグマ君なし通常,,,,,,,,,
,エニグマ君,笑い,,,,.2,,さすが、リディアが見込んだだけのことはあるな,,,
,魔法少女リディア,<Character=リディア・ノーラン魔法少女>エニグマ君なし笑い,,,,.2,,でしょー！　アタシにはピーンときていたんだから！,,,
,魔法少女リディア,<Character=リディア・ノーラン魔法少女>エニグマ君なし笑い,,,,,,マジカル、マジカル～！,Br,,
Wait,,,,,,.3,,,,,
Se,ウィンク音,,,,,,,,,,
Particle,ウィンクエフェクト,,スプライトレイヤー,,-47,,,,,,
StopSe,,,,,,.5,,,,,
,魔法少女リディア,<Character=リディア・ノーラン魔法少女>エニグマ君なし固有,,,,.2,,天に代わって成敗いたす～(決めポーズ),,,
,エニグマ君,呆れ,,,,,,それは『アイキュア』ってアニメのセリフだろ？,,,
CharacterOff,,,,,,,,,,,
,クレア・グレイブ,通常,キャラ左,,,,,,,,
,リディア・ノーラン魔法少女,エニグマ君なし通常,キャラ右,,,,,,,,
,魔法少女リディア,<Character=リディア・ノーラン魔法少女>エニグマ君なし真剣,,,,.2,,"うるさいなー！　可愛ければいいの！！
可愛いは正義！　魔法少女は暴力！",,,
Tween,クレア・グレイブ,MoveTo,"x=0 y=-10 islocal=true time=0.2",easeOutCirc,pingPong=4,,Add,,,,
,クレア・グレイブ,笑い,,,,.2,,うんうん,,,
CharacterOff,,,,,,,,,,,
,エニグマ君,悲しみ,,,,,,（こいつらはやばい……）,,,
,魔法少女リディア,<Character=リディア・ノーラン魔法少女>エニグマ君なし通常,,,,,,ほら、二人とも～。次のオカルトへ探しに行くよ！,Br,,
Wait,,,,,,.3,,,,,
,魔法少女リディア,<Character=リディア・ノーラン魔法少女>エニグマ君なし笑い,,,,.2,,あと、報酬はエニグマ君が送金するからね？,,,
,クレア・グレイブ,笑い,,,,,,楽しみにしているよ,,,
,エニグマ君,悲しみ,,,,,,,,,
Tween,エニグマ君,MoveTo,"x=0 y=40 islocal=true time=.1",easeOutCirc,pingPong=2,,Add,,,,
,エニグマ君,固有,,,,,,俺かよ！！！,,,
StopBgm,,,,,,,,,,,
CaptureImage,キャプチャーイメージ,SpriteCamera,キャプチャ画像レイヤー,,,,,,,,
CharacterOff,,,,,,0,,,,,
Bg,背景(黒),,,,,0,,,,,
RuleFadeOut,キャプチャーイメージ,FadeLeftBottom,,,,.5,,,,,
Wait,,,,,,.5,,,,,
CaptureImage,キャプチャーイメージ,SpriteCamera,キャプチャ画像レイヤー,,,,,,,,
Bg,背景(街中：夜),,,,,0,,,,,
RuleFadeOut,キャプチャーイメージ,FadeLeftBottom,,,,.5,,,,,
Bgm,疑惑,,,,,,,,,,
,,,,,,,,…………,,,
,,,,,,,,……,,,
Se,足音,,,,,,,,,,
StopSe,,,,,,2,,,,,
,心霊番組・九道Ⅾ,,,,,,,オイ！　いまの撮ったか？！　,Next,,
Wait,,,,,,.3,,,,,
,心霊番組・九道Ⅾ,,,,,,,"……でかした！
はっは……魔法少女だと？　オイオイ！",,,
,心霊番組・九道Ⅾ,,,,,,,"口裂けや河童なんかより、
よっぽどオカルトじゃねぇかよ！",,,
,心霊番組・九道Ⅾ,,,,,,,……おい、徹底的に追うぞ！　ついて来い！,,,
FadeOut,black,,,,,1,,,,,
Wait,,,,,,.3,,,,,
EndScenario,,,,,,,,,,,
