[
    {
        "7": {
            "ヨーコ": ""
        },
        "9": {
            "リリィ": ""
        },
        "11": {
            "ヨーコ": "光が落ちたのは、この辺だと思ったけど……"
        },
        "12": {
            "リリィ": "あそこに誰か倒れていますわ"
        },
        "14": {
            "パープルシスターライラックmk2": ""
        },
        "17": {
            "クロワール": ""
        },
        "18": {
            "ネプギア": ""
        },
        "19": {
            "クロワール": "こいつは……"
        },
        "20": {
            "ネプギア": "酷い傷跡です……"
        },
        "22": {
            "ヨーコ": "この子、どことなくあなたに似ているわね"
        },
        "23": {
            "ネプギア": "私にですか？　言われてみれば……"
        },
        "24": {
            "リリィ": "それより今は手当が先でしょう"
        },
        "25": {
            "ユリーナ": ""
        },
        "27": {
            "ユリーナ": "あれー、なんか落っこちてるよ"
        },
        "28": {
            "クロワール": "なんか、やたら禍々しい色した剣だな"
        },
        "30": {
            "リリィ": ""
        },
        "31": {
            "ユリーナ": ""
        },
        "32": {
            "ヨーコ": ""
        },
        "33": {
            "ユリーナ": "えー、そうかな。カッコよくない？"
        },
        "34": {
            "ヨーコ": "そんな変なもの拾わないで、さっさと捨てなさいよ"
        },
        "35": {
            "ユリーナ": "ありえない！　売ったら高そうなのに！"
        },
        "36": {
            "リリィ": "そもそも、この方の持ち物じゃないんですか？　それ"
        },
        "38": {
            "パープルシスターライラックmk2": ""
        },
        "41": {
            "パープルシスターライラックmk2": "う、ん……"
        },
        "42": {
            "ネプギア": "あ、目を覚ましたみたいです。\nよかった、命に別状はないみたい"
        },
        "44": {
            "ユリーナ": ""
        },
        "45": {
            "パープルシスターライラックmk2": ""
        },
        "46": {
            "ユリーナ": "ねえねえ、これあなたの？"
        },
        "47": {
            "パープルシスターライラックmk2": "ん……"
        },
        "49": {
            "パープルシスターライラックmk2": "ゲハバーン！？\n今すぐその剣を返してください"
        },
        "50": {
            "ユリーナ": ""
        },
        "52": {
            "ユリーナ": "は、はいいっ！　"
        },
        "54": {
            "ユリーナ": "勝手に触ってごめんなさーい！"
        },
        "55": {
            "パープルシスターライラックmk2": "ほっ……"
        },
        "57": {
            "リリィ": "剣が大事なのは分かりましたから、\n今はケガの手当てをしないと"
        },
        "58": {
            "パープルシスターライラックmk2": "この程度の傷、問題ありません"
        },
        "60": {
            "パープルシスターライラックmk2": ""
        },
        "61": {
            "ネプギア": ""
        },
        "62": {
            "ネプギア": "でも大怪我じゃないですか。\nそもそも、どうしてこんな傷を……"
        },
        "66": {
            "パープルシスターライラックmk2": "あ、あなたは……！"
        },
        "67": {
            "ネプギア": "え？　私をご存じなんですか？"
        },
        "68": {
            "パープルシスターライラックmk2": "い、いえ……なんでもありません"
        },
        "69": {
            "パープルシスターライラックmk2": "そっか、別次元に……それも並行世界。"
        },
        "71": {
            "パープルシスターライラックmk2": "じゃあ、ここには……"
        },
        "72": {
            "ネプギア": "あの、やっぱり傷が痛むんじゃ……"
        },
        "73": {
            "パープルシスターライラックmk2": "い、いえ、なんでもありません。\nとにかく、私のことなら心配いりませんから"
        },
        "74": {
            "ネプギア": "でも……"
        },
        "76": {
            "ヨーコ": ""
        },
        "77": {
            "リリィ": ""
        },
        "78": {
            "ユリーナ": ""
        },
        "79": {
            "ヨーコ": "本人がここまで言ってるんだから放っておいたら？"
        },
        "80": {
            "リリィ": "何を言ってるんですか。\nケガ人を放り出すつもりなのでしょうか？"
        },
        "81": {
            "ユリーナ": "でも本人はわたしたちに関わりたくないっぽいし。"
        },
        "83": {
            "ユリーナ": "うーん……どうしよっかねぇ"
        },
        "85": {
            "「あの子……」": {
                "89": {
                    "クロワール": ""
                },
                "91": {
                    "クロワール": "ああ、分かってる。けど、今は追求するな"
                },
                "92": {
                    "クロワール": "……ったく。"
                },
                "94": {
                    "クロワール": "姉妹そろって落っこちてくるのが好きだな"
                },
                "95": {
                    "ネプギア": "とにかく、イストワールさんに連絡を――"
                },
                "99": {
                    "ワレチュー": ""
                },
                "101": {
                    "ワレチュー": "見つけたっちゅ！"
                }
            }
        },
        "86": {
            "「もしかして……」": {
                "89": {
                    "クロワール": ""
                },
                "91": {
                    "クロワール": "ああ、分かってる。けど、今は追求するな"
                },
                "92": {
                    "クロワール": "……ったく。"
                },
                "94": {
                    "クロワール": "姉妹そろって落っこちてくるのが好きだな"
                },
                "95": {
                    "ネプギア": "とにかく、イストワールさんに連絡を――"
                },
                "99": {
                    "ワレチュー": ""
                },
                "101": {
                    "ワレチュー": "見つけたっちゅ！"
                }
            }
        }
    }
]