[
    {
        "10": {
            "少女": "そこの旅のお方、なにかお困りですか？"
        },
        "11": {
            "クロワール": "おまえは、さっきの……"
        },
        "12": {
            "「ゴスロリちゃん」": {
                "15": {
                    "少女": "ご、ゴスロリちゃん……！？"
                }
            }
        },
        "13": {
            "「チケットくれた人」": {
                "19": {
                    "少女": "チケットを、くれた……？"
                }
            }
        },
        "66": {
            "「良くないです！」": {
                "70": {
                    "大人ネプテューヌ": ""
                },
                "71": {
                    "ティアラ": ""
                },
                "72": {
                    "大人ネプテューヌ": "さっきクリスって人から大会の説明を受けたんだけど、\nここがどういう場所なのかまだ良く分からないんだよね"
                },
                "73": {
                    "大人ネプテューヌ": "だから、これからどうしようかと思ってて"
                },
                "74": {
                    "少女": "羽虫の説明とはいえ、ストーカー行為をするような\n下賤な方々では理解力が足りないようですわね……"
                },
                "76": {
                    "クロワール": "やべぇぞ、<param=player_name>。\n当たり前のようにストーカーってことになってるぞ"
                }
            }
        },
        "67": {
            "「無実だー！」": {
                "70": {
                    "大人ネプテューヌ": ""
                },
                "71": {
                    "ティアラ": ""
                },
                "72": {
                    "大人ネプテューヌ": "さっきクリスって人から大会の説明を受けたんだけど、\nここがどういう場所なのかまだ良く分からないんだよね"
                },
                "73": {
                    "大人ネプテューヌ": "だから、これからどうしようかと思ってて"
                },
                "74": {
                    "少女": "羽虫の説明とはいえ、ストーカー行為をするような\n下賤な方々では理解力が足りないようですわね……"
                },
                "76": {
                    "クロワール": "やべぇぞ、<param=player_name>。\n当たり前のようにストーカーってことになってるぞ"
                }
            }
        },
        "77": {
            "「えん罪いくない」": {
                "80": {
                    "大人ネプテューヌ": ""
                },
                "81": {
                    "ティアラ": ""
                },
                "82": {
                    "大人ネプテューヌ": "ねえねえ羽虫って？"
                },
                "83": {
                    "少女": "クリスのことですわ"
                },
                "84": {
                    "少女": "虫のように飛び回り、口を開けばペラペラと鬱陶しい、\nまさに羽虫と呼ぶにふさわしいでしょう？"
                },
                "86": {
                    "天王星うずめ": "こりゃ、相当険悪な仲みたいだな"
                },
                "88": {
                    "大人ネプテューヌ": ""
                },
                "89": {
                    "ティアラ": ""
                },
                "90": {
                    "大人ネプテューヌ": "なにがあったんだろうね"
                },
                "92": {
                    "少女": "……おほん。あれのことはどうでもよいですわ"
                },
                "93": {
                    "少女": "あなた方の目的がメダルを増やすことであれば、\n積極的に勝ち数を増やしていくべきですわ"
                },
                "94": {
                    "少女": "当然、勝った方がメダルは多く貰えますわ"
                },
                "95": {
                    "少女": "勝ち続けられれば、\nそれだけ報酬に手が届きやすくなるでしょうね"
                },
                "96": {
                    "大人ネプテューヌ": "ふんふん。ちなみに、エールドラドから出たいときは\nどうすればいいの？　帰り道は知っておきたいんだ"
                },
                "97": {
                    "少女": "チケットに念じれば元の世界へ帰れますわ"
                },
                "98": {
                    "大人ネプテューヌ": "結構単純なんだね"
                },
                "99": {
                    "少女": "他にご質問はありますか？"
                },
                "100": {
                    "大人ネプテューヌ": "うーん、そうだねー今のところはないかなー"
                }
            }
        },
        "102": {
            "「キミの名前を教えて」": {
                "104": {
                    "少女": "あら、そういえば名乗っておりませんでしたわね。\nストーカーさんなので既に知っていると思いましたわ"
                },
                "105": {
                    "ティアラ": "わたくしは、ティアラと申します。\n<ruby=フューリー>妖聖武器</ruby>を扱う、フェンサーですわ"
                },
                "106": {
                    "？？？": "キュイキュイ"
                },
                "107": {
                    "ティアラ": "この子はキュイ。\nわたくしのパートナーですわ"
                },
                "109": {
                    "天王星うずめ": "か、かわいい……"
                },
                "111": {
                    "ティアラ": ""
                },
                "112": {
                    "キュイ": ""
                },
                "113": {
                    "ティアラ": "では、またお会いしましょう、ストーカーのみなさん。\nお互い、願いを叶えられると良いですわね"
                },
                "119": {
                    "クロワール": "結局、ストーカーで定着しちまったじゃねぇか……"
                }
            }
        }
    }
]