Command,Arg1,Arg2,Arg3,Arg4,Arg5,Arg6,WaitType,Text,PageCtrl,Voice,WindowType,
FadeOut,black,,,,,0,,,,,,
Bg,背景(温泉宿),,,,,,,,,,,
Wait,,,,,,.3,,,,,,
FadeIn,black,,,,,1,,,,,,
Bgm,ADV通常,,,,,,,,,,,
Se,踏み込み音,,,,,,,,,,,
,ブラン,通常,,,,1,Add,,,,,
Tween,ブラン,MoveFrom,"x=100 y=0 islocal=true time=1",easeOutQuad,,,Add,,,,,
,ブラン,通常,,,,.2,,お客様、失礼します。,Next,,,
Wait,,,,,,.3,,,,,,
,ブラン,笑い,,,,.2,,"本日のお世話を
担当する仲居です。挨拶に伺いました",,,,
,神貫ナツメ制服,通常,,,,,,,,,,
,神貫ナツメ制服,笑い,,,,.2,,はーい、こちらこそよろしくね！,Br,,,
Wait,,,,,,.3,,,,,,
Tween,神貫ナツメ制服,MoveTo,"x=0 y=40 islocal=true time=.1",easeOutCirc,pingPong=2,,Add,,,,,
,神貫ナツメ制服,通常,,,,.2,,……って、ブラン！？,,,,
,ブラン,通常,,,,.2,,"あら、ナツメ。
それにチヨたちもいるのね",,,,
,西園寺チヨ制服,通常,,,,,,,,,,
,西園寺チヨ制服,笑い,,,,.2,,"ええ。ナツメが当てた旅行券で、
リフレッシュしに来たのよ",,,,
,ブラン,通常,,,,.2,,あなたたちも？,,,,
CharacterOff,,,,,,,,,,,,
,霧隠ミクリ制服,通常,キャラ右,,,,,,,,,
,漆原ホタル制服,通常,キャラ左,,,,,,,,,
,霧隠ミクリ制服,通常,,,,.2,,ブランさんも、ハッピーな券を当てマシタか？,,,,
,漆原ホタル制服,通常,,,,.2,,"でもさっき『仲居』って言ってたよ。
もしかして、守護女神様直々に出稼ぎに来たの？",,,,
CharacterOff,,,,,,,,,,,,
,神貫ナツメ制服,笑い,,,,,,,,,,
,神貫ナツメ制服,通常,,,,.2,,へぇ～。,Next,,,
Wait,,,,,,.5,,,,,,
,神貫ナツメ制服,悲しみ,,,,.2,,ルウィーも財政難なんだね,,,,
,ブラン,通常,,,,,,,,,,
Tween,ブラン,ShakePosition,"x=10 islocal=true time=.3",,,,Add,,,,,
,ブラン,真剣,,,,.2,,違うわよ。,Next,,,
Wait,,,,,,.5,,,,,,
,ブラン,悲しみ,,,,.2,,ちょっといろいろあって……,,,,
,神貫ナツメ制服,悲しみ,,,,.2,,隠さなくていいって。,Br,,,
Wait,,,,,,.3,,,,,,
,神貫ナツメ制服,目閉じ,,,,.2,,うちもカツカツだし、大変なのはよく分かるよ,,,,
,ブラン,固有,,,,.2,,だから、違うって,,,,
,西園寺チヨ制服,悲しみ,,,,.2,,"ニホンも余力があるうちに、
財政の健全化を図らないとね",,,,
,霧隠ミクリ制服,通常,,,,.2,,では、国の主導で、観光業に力を入れてみては？,Br,,,
Wait,,,,,,.3,,,,,,
,霧隠ミクリ制服,真剣,,,,.2,,観光立国、ニホンを目指すのデス！,,,,
,神貫ナツメ制服,通常,,,,,,,,,,
Tween,神貫ナツメ制服,MoveTo,"x=0 y=40 islocal=true time=.1",easeOutCirc,pingPong=2,,Add,,,,,
,神貫ナツメ制服,笑い,,,,.2,,あっ、それ面白そう！,,,,
,ブラン,固有,,,,,,,,,,
,ブラン,悲しみ,,,,.2,,こっちの話無視して盛り上がってるし。,Br,,,
Wait,,,,,,.3,,,,,,
,ブラン,目閉じ,,,,.2,,まあ良いわ、,Next,,,
Wait,,,,,,.5,,,,,,
,ブラン,通常,,,,.2,,食事の時間は何時にする？,,,,
CharacterOff,,,,,,,,,,,,
,神貫ナツメ制服,笑い,キャラ右,,,,,,,,,
,西園寺チヨ制服,悲しみ,キャラ左,,,,,,,,,
Tween,神貫ナツメ制服,MoveTo,"y=40 islocal=true time=0.1",easeOutCirc,pingPong=4,,Add,,,,,
,神貫ナツメ制服,通常,,,,.2,,"はいはーい！　観光の目玉として、
二ホン各地のチンアナゴも展示しよう！",,,,
,西園寺チヨ制服,目閉じ,,,,.2,,却下。そんなもので客は集まりませんわ,,,,
,神貫ナツメ制服,悲しみ,,,,.2,,え～っ、,Next,,,
Wait,,,,,,.5,,,,,,
,神貫ナツメ制服,真剣,,,,.2,,やってみないと分かんないよ！,,,,
CharacterOff,,,,,,,,,,,,
,ブラン,通常,,,,,,,,,,
Tween,ブラン,ShakePosition,"x=10 islocal=true time=.3",,,,Add,,,,,
,ブラン,真剣,,,,.2,,ちょっと、話を聞きなさいよ,,,,
,霧隠ミクリ制服,真剣,,,,,,,,,,
Tween,霧隠ミクリ制服,MoveTo,"x=0 y=40 islocal=true time=.1",easeOutCirc,pingPong=2,,Add,,,,,
,霧隠ミクリ制服,笑い,,,,.2,,"ハイ！　ワタシは、ニンジャの
テーマパークを造るのがいいと思いマス",,,,
,ブラン,真剣,,,,.2,,ねえ、あんたたち……,,,,
,漆原ホタル制服,笑い,,,,.2,,なるほど。それいいかも,,,,
CharacterOff,,,,,,,,,,,,
,霧隠ミクリ制服,真剣,キャラ右,,,,,,,,,
,神貫ナツメ制服,真剣,キャラ左,,,,,,,,,
Tween,神貫ナツメ制服,MoveTo,"y=-100 islocal=true time=0.2",,,,Add,,,,,
Tween,神貫ナツメ制服,ScaleTo,"x=1.5 y=1.5 time=0.2",,,,Add,,,,,
,神貫ナツメ制服,真剣,,,,.2,,え～っ、絶対にチンアナゴだよ！,,,,
Tween,霧隠ミクリ制服,MoveTo,"y=-100 islocal=true time=0.2",,,,Add,,,,,
Tween,霧隠ミクリ制服,ScaleTo,"x=1.5 y=1.5 time=0.2",,,,Add,,,,,
,霧隠ミクリ制服,真剣,,,,.2,,ニンジャのテーマパーク、デス！,,,,
CharacterOff,,,,,,,,,,,,
StopBgm,,,,,,,,,,,,
,ブラン,,,,,,,,,,,
Tween,ブラン,ShakePosition,"x=10 islocal=true time=.3",,,,Add,,,,,
,ブラン,真剣,,,,.2,,～～～っ！　てめーら、,Next,,,
Wait,,,,,,.3,,,,,,
CharacterOff,,,,,,,,,,,,
Se,落雷音,,,,,,,,,,,
,ブラン,真剣,,,,,Add,,,,,
Particle,集中線,,,,,,Add,,,,,
Tween,ブラン,MoveTo,"y=-100 islocal=true time=0",,,,Add,,,,,
Tween,ブラン,ScaleTo,"x=1.5 y=1.5 time=0",,,,Add,,,,,
Bgm,コミカル,,,,,,,,,,,
,ブラン,真剣,,,,.2,,人の話を聞きやがれえぇ！！,,,,
ParticleOff,,,,,,,,,,,
CharacterOff,,,,,,,,,,,,
,神貫ナツメ制服,真剣,,,,,,,,,,
Tween,神貫ナツメ制服,ShakePosition,"x=10 islocal=true time=.3",,,,Add,,,,,
,神貫ナツメ制服,悲しみ,,,,.2,,ひぃっ！？,,,,
,ブラン,固有,,,,,,,,,,
,ブラン,真剣,,,,.2,,客だからって、もう容赦しねぇぞ！！,Br,,,
Wait,,,,,,.3,,,,,,
Tween,ブラン,ShakePosition,"x=10 islocal=true time=.3",,,,Add,,,,,
,ブラン,真剣,,,,.2,,全員そこに正座しやがれーーー！！,,,,
CharacterOff,,,,,,,,,,,,
,神貫ナツメ制服,悲しみ,キャラ中央右,,,,Add,,,,,
,西園寺チヨ制服,悲しみ,キャラ中央左,,,,Add,,,,,
,霧隠ミクリ制服,悲しみ,キャラ右,,,,Add,,,,,
,漆原ホタル制服,悲しみ,キャラ左,,,,Add,,,,,
Tween,神貫ナツメ制服,MoveTo,"x=-60 islocal=true time=0",,,,Add,,,,,
Tween,西園寺チヨ制服,MoveTo,"x=60 islocal=true time=0",,,,Add,,,,,
Tween,霧隠ミクリ制服,MoveTo,"x=75 islocal=true time=0",,,,Add,,,,,
Tween,漆原ホタル制服,MoveTo,"x=-100 islocal=true time=0",,,,,,,,,
SendMessageByName,AdvEngine,ChangeNoGrayOutCharacter,"神貫ナツメ制服,西園寺チヨ制服,霧隠ミクリ制服,漆原ホタル制服",,,,Add,,,,,
,神貫ナツメ制服,悲しみ,,,,.2,,は、はい～～。,Next,,,
Wait,,,,,,.3,,,,,,
Se,倒れる音,,,,,,,,,,,
Tween,神貫ナツメ制服,MoveTo,"y=-100 islocal=true time=0.5",,,,Add,,,,,
Tween,西園寺チヨ制服,MoveTo,"y=-100 islocal=true time=0.5",,,,Add,,,,,
Tween,霧隠ミクリ制服,MoveTo,"y=-100 islocal=true time=0.5",,,,Add,,,,,
Tween,漆原ホタル制服,MoveTo,"y=-100 islocal=true time=0.5",,,,,,,,,
SendMessageByName,AdvEngine,ChangeNoGrayOutCharacter,"神貫ナツメ制服,西園寺チヨ制服,霧隠ミクリ制服,漆原ホタル制服",,,,Add,,,,
,神貫ナツメ制服,悲しみ,,,,.2,,ごめんなさい～～！！,,,,
StopBgm,,,,,,,,,,,,
CaptureImage,キャプチャーイメージ,SpriteCamera,キャプチャ画像レイヤー,,,,,,,,,
CharacterOff,,,,,,0,,,,,,
Bg,背景(黒),,,,,0,,,,,,
RuleFadeOut,キャプチャーイメージ,FadeLeftBottom,,,,.5,,,,,,
Wait,,,,,,.5,,,,,,
CaptureImage,キャプチャーイメージ,SpriteCamera,キャプチャ画像レイヤー,,,,,,,,,
Bg,背景(温泉宿),,,,,0,,,,,,
RuleFadeOut,キャプチャーイメージ,FadeLeftBottom,,,,.5,,,,,,
Bgm,明るいテーマ,,,,,,,,,,,
Se,踏み込み音,,,,,,,,,,,
,大人ネプテューヌ,,,,,1,Add,,,,,
Tween,大人ネプテューヌ,MoveFrom,"x=100 y=0 islocal=true time=1",easeOutQuad,,,,,,,,
,大人ネプテューヌ,笑い,,,,.2,,"こんにちはー！　こらから皆のお世話をする
ネプテューヌだよ。よろしくね！",,,,
CharacterOff,,,,,,,,,,,,
,ルナ,通常,キャラ右,,,,,,,,,
,レナ,通常,キャラ左,,,,,,,,,
Tween,ルナ,MoveTo,"y=-10 islocal=true time=0.5",,pingPong=2,,Add,,,,,
,ルナ,悲しみ,,,,.2,,ふぅ……,,,,
Tween,レナ,MoveTo,"y=-10 islocal=true time=0.5",,pingPong=2,,Add,,,,,
,レナ,悲しみ,,,,.2,,……はぁ,,,,
CharacterOff,,,,,,,,,,,,
,大人ネプテューヌ,笑い,,,,,,,,,,
Tween,大人ネプテューヌ,MoveTo,"x=0 y=40 islocal=true time=.1",easeOutCirc,pingPong=2,,Add,,,,,
,大人ネプテューヌ,通常,,,,.2,,あ、ルナたちだ！　,Next,,,
Wait,,,,,,.3,,,,,,
,大人ネプテューヌ,笑い,,,,.2,,こんなとこで会うなんて奇遇だね！,Br,,,
Wait,,,,,,.5,,,,,,
,大人ネプテューヌ,通常,,,,.2,,えーっと……,Next,,,
Wait,,,,,,.3,,,,,,
,大人ネプテューヌ,悲しみ,,,,.2,,なんか元気ないね,,,,
CharacterOff,,,,,,,,,,,,
,ラナ,通常,キャラ左,,,,,,,,,
,大人ネプテューヌ,悲しみ,キャラ右,,,,,,,,,
,ラナ,悲しみ,,,,.2,,"ふたりとも、お城に残してきた
レガット会長のことが心配なんだって",,,,
,ラナ,悲しみ,,,,.2,,"せっかく旅行券が当たってここに来たのに、
げんなりしちゃう……",,,,
,大人ネプテューヌ,悲しみ,,,,,,,,,,
Tween,大人ネプテューヌ,MoveTo,"x=0 y=40 islocal=true time=.1",easeOutCirc,pingPong=2,,Add,,,,,
,大人ネプテューヌ,通常,,,,.2,,えっ、ラナたちも当てたの？,,,
,ラナ,通常,,,,.2,,うん。近所の福引でね,,,
,大人ネプテューヌ,通常,,,,.2,,へ～。みんな当たりまくりだね。,Br,,
Wait,,,,,,.3,,,,,
,大人ネプテューヌ,笑い,,,,.2,,こんな偶然ってあるんだねぇ～,,,
,ラナ,通常,,,,,,,,,
Tween,ラナ,ShakePosition,"x=10 islocal=true time=.3",,,,Add,,,,,
,ラナ,悲しみ,,,,.2,,"あ～ぁ、２人はこんな調子だし、
早く温泉に入ってさっぱりしたいな",,,
,大人ネプテューヌ,笑い,,,,.2,,今お掃除してるから、もうすぐ使えると思うよ。,Br,,
Wait,,,,,,.3,,,,,
,大人ネプテューヌ,真剣,,,,.2,,わたし、ちょっと様子を見てくるね！,,,
Se,踏み込み音,,,,,,,,,,
Tween,大人ネプテューヌ,MoveAdd,"x=100 y=0 time=1",easeOutQuad,,,Add,,,,,
CharacterOff,大人ネプテューヌ,,,,,1,Add,,,,,
Wait,,,,,,.5,,,,,
FadeOut,black,,,,,1,,,,,,
Wait,,,,,,.3,,,,,,
EndScenario,,,,,,,,,,,
