[
    {
        "10": {
            "？？？": "……い、おい"
        },
        "11": {
            "？？？": "こっち見ろって。"
        },
        "12": {
            "ブラール": ""
        },
        "22": {
            "ブラール": ""
        },
        "23": {
            "？？？": "しっか……ろよ……"
        },
        "24": {
            "「誰……？」": {
                "26": {
                    "ブラール": "わたしはブラール。\n女神と魔王が融合……存在……"
                },
                "27": {
                    "ブラール": "って聞こえてな……か、おまえ。\nまどろみ……って感じ……な"
                },
                "28": {
                    "ブラール": "まあいい。"
                },
                "30": {
                    "ブラール": "大いなる時は……近い"
                },
                "31": {
                    "ブラール": "だからまたすぐに……\nおまえと……会えるだろう"
                },
                "32": {
                    "ブラール": "そんじゃな。"
                },
                "34": {
                    "ブラール": "なるべく覚……ろよ"
                },
                "46": {
                    "ブラール": "ったく、最後まで気持ちよさそうに\nムニャムニャしやがって、ちょっと腹立つ……"
                },
                "47": {
                    "ブラール": "……せっかく会いに来たってのに無駄足だったか"
                },
                "48": {
                    "ブラール": "まあさすがにこんな世界じゃ仕方ない……か"
                },
                "49": {
                    "ブラール": "でも、あいつの姿を見ることができたし……"
                },
                "51": {
                    "ブラール": "それでよしとするか……"
                },
                "54": {
                    "ヒロテューヌ": ""
                },
                "56": {
                    "ヒロテューヌ": "ふははは、残念だったな角女"
                },
                "57": {
                    "ブラール": "…………"
                },
                "58": {
                    "ヒロテューヌ": "１人であいつに会って何をする気だったか知らないが、\n勝手に動かれちゃ困るな"
                },
                "59": {
                    "ヒロテューヌ": "お前新参者だろ？　"
                },
                "61": {
                    "ヒロテューヌ": "やっぱ新参者は\n先輩にお伺いを立てないといけないと思うぞ？"
                },
                "62": {
                    "ヒロテューヌ": "そしたらわたしもそのついでに\nやきそばパン買ってこいってお願いできたんだからな"
                },
                "63": {
                    "ヒロテューヌ": "まあそれは半分冗談だとして、"
                },
                "65": {
                    "ヒロテューヌ": "お前、いったい何をするつもりだ？"
                },
                "66": {
                    "ブラール": "…………"
                },
                "67": {
                    "ヒロテューヌ": "優しくて頼りになる先輩ランキングがあったら、\nプラチナ殿堂入り間違いないわたしではあるが――"
                },
                "68": {
                    "ヒロテューヌ": "勝手なことをしたら後輩だろうと容赦しないからな？"
                },
                "69": {
                    "ヒロテューヌ": "言っておくが、わたしはいちばん強いんだぞ？"
                },
                "71": {
                    "ヒロテューヌ": "戦った奴はみんな後悔する羽目になる"
                },
                "72": {
                    "ブラール": "…………"
                },
                "79": {
                    "ヒロテューヌ": ""
                },
                "81": {
                    "ヒロテューヌ": "なんだよ無視しやがって、"
                },
                "83": {
                    "ヒロテューヌ": "ちぇー"
                },
                "84": {
                    "ヒロテューヌ": "まぁ、こんな安い挑発には乗らないか"
                },
                "85": {
                    "ヒロテューヌ": "にしても、あれが新しいフュージョン・フォースで\n生まれた存在……か"
                },
                "86": {
                    "ヒロテューヌ": "角女……"
                },
                "88": {
                    "ヒロテューヌ": "名前聞いときゃよかった"
                },
                "90": {
                    "ヒロテューヌ": "やべっ、もうこんな時間。\n他のパンも売り切れちゃうじゃないか！"
                },
                "91": {
                    "ヒロテューヌ": "さすがに食パンオンリーは勘弁だ……！"
                }
            }
        }
    }
]