Command,Arg1,Arg2,Arg3,Arg4,Arg5,Arg6,WaitType,Text,PageCtrl,Voice,WindowType
FadeOut,black,,,,,0,,,,,
Bg,背景(森：昼),,,,,,,,,,
Wait,,,,,,.3,,,,,
FadeIn,black,,,,,1,,,,,
,リトル・スノー,真剣,キャラ左,,,,,…………,,,
Bgm,コミカル,,,,,.5,,,,,
,エフコムシ,通常,キャラ右,,,1,Add,,,,
Tween,エフコムシ,MoveFrom,"x=100 y=0 islocal=true time=1",easeOutQuad,,,,,,,
Wait,,,,,,.5,,,,,
,エフコムシ,通常,キャラ右,,,,,そこのあんた！,,,
,リトル・スノー,通常,キャラ左,,,.2,,ん？,,,
Tween,エフコムシ,MoveTo,"x=0 y=40 islocal=true time=.1",easeOutCirc,pingPong=2,,Add,,,,
,エフコムシ,固有,キャラ右,,,.2,,ヴぇっっ！？,,,
Tween,エフコムシ,ShakePosition,"x=10 islocal=true time=.3",,,,Add,,,,
,エフコムシ,照れ,キャラ右,,,.2,,"うそうそうそ、え、まって冷静になって、スノー様？
え、スノーさま！？　リトル・スノーさま！？",,,
Tween,エフコムシ,ShakePosition,"x=10 islocal=true time=.3",,,,Add,,,,
,エフコムシ,照れ,キャラ右,,,,,え、そんなことが？　リアリー？　リアリー！,,,
,リトル・スノー,固有,キャラ左,,,.2,,あなたは……,,,
,エフコムシ,照れ,キャラ右,,,,,"れじぇんど……れじぇんど……リトル・スノーさま、
ヒロさまやロゼさまと同じく、れじぇんど……",,,
,リトル・スノー,悲しみ,キャラ左,,,.2,,えっと、,Next,,
Wait,,,,,,.3,,,,,
,リトル・スノー,通常,キャラ左,,,.2,,大丈夫かしら？,,,
,エフコムシ,固有,キャラ右,,,.2,,ハッ！　,Next,,
Wait,,,,,,.3,,,,,
,エフコムシ,照れ,キャラ右,,,.2,,えっと……その……はい……,,,
,リトル・スノー,笑い,キャラ左,,,.2,,"ふふ……そう、そうなのね。
あなたも、あの人の――",,,
CharacterOff,,,,,,,,,,,
,大人ネプテューヌ,通常,キャラ左,,,1,Add,,,,
Tween,大人ネプテューヌ,MoveFrom,"x=-100 y=0 islocal=true time=1",easeOutQuad,,,Add,,,,
,クロワール,真剣,キャラ右,,,1,Add,,,,
Tween,クロワール,MoveFrom,"x=-100 y=0 islocal=true time=1",easeOutQuad,,,,,,,
,大人ネプテューヌ,通常,キャラ左,,,,,エフコムシ、もっかいみーっけ！,,,
,クロワール,真剣,キャラ右,,,,,"もういい加減にしろよ。
こういうのは、三回で十分――ん？　",Next,,
Wait,,,,,,.3,,,,,
,クロワール,悲しみ,キャラ右,,,.2,,おまえは……,Input,,
Selection,"*select 200405-1",,,,0,350,,「リトル・スノー」,,,
Selection,"*select 200405-2",,,,0,200,,「スノーちゃん」,,,
"*select 200405-1",,,,,,,,,,,
CharacterOff,,,,,,,,,,,
,リトル・スノー,通常,キャラ中央,,,,,お久しぶりね。特異点さん,,,
Jump,"*confluence 200405-1",,,,,,,,,,
"*select 200405-2",,,,,,,,,,,
CharacterOff,,,,,,,,,,,
,リトル・スノー,通常,キャラ中央,,,,,"そういう呼ばれ方は初めてだわ。
少しくすぐったいわね",,,
Jump,"*confluence 200405-1",,,,,,,,,,
"*confluence 200405-1",,,,,,,,,,,
CharacterOff,,,,,,,,,,,
,大人ネプテューヌ,通常,キャラ左,,,,Add,,,,
,クロワール,真剣,キャラ右,,,,,,,,
,クロワール,真剣,キャラ右,,,,,挨拶は後だ！　とにかくそいつを捕まえてくれ！,,,
CharacterOff,,,,,,,,,,,
,リトル・スノー,通常,キャラ中央,,,,,捕まえる？　,Next,,
Wait,,,,,,.3,,,,,
,リトル・スノー,目閉じ,キャラ中央,,,.2,,……そうねぇ,,,
,リトル・スノー,笑い,キャラ中央,,,.2,,ふふっ……えい♪,,,
StopBgm,,,,,,.5,,,,,
CaptureImage,キャプチャイメージ,SpriteCamera,キャプチャ画像レイヤー,,,,,,,,
CharacterOff,,,,,,0,,,,,
Bg,背景(黒),,,,,,,,,,
RuleFadeOut,キャプチャイメージ,FadeCircle,,,,0,,,,,
Wait,,,,,,.2,,,,,
Se,衝撃音2,,,,,,,,,,
Shake,Camera,,"y=5 time=4",,,,NoWait,,,,
Sprite,亀裂小,,,,,,,,,,
Wait,,,,,,.8,,,,,
SpriteOff,亀裂小,,,,,,,,,,
Sprite,亀裂中,,,,,,,,,,
Wait,,,,,,.8,,,,,
SpriteOff,亀裂中,,,,,,,,,,
Sprite,亀裂大,,,,,,,,,,
Wait,,,,,,.8,,,,,
FadeOut,white,,,,,1,,,,,
Bg,背景(森：昼),,,,,0,,,,,
SpriteOff,亀裂大,,,,,,,,,,
Wait,,,,,,.1,,,,,
FadeIn,white,,,,,1.5,,,,,
Bgm,コミカル,,,,,.5,,,,,
,リトル・スノー,笑い,キャラ中央,,,,,さあ、ここから飛び込めば逃げられるわよ,,,
CharacterOff,,,,,,,,,,,
,クロワール,固有,キャラ中央,,,,,なにいいいい！？,,,
CharacterOff,,,,,,,,,,,
,リトル・スノー,笑い,キャラ左,,,,Add,,,,
,エフコムシ,照れ,キャラ右,,,,,,,,
,リトル・スノー,笑い,キャラ左,,,,,仲間を集めているんでしょう？,,,
,エフコムシ,照れ,キャラ右,,,,,は、はいっ、我が軍の武将を集めておりますですます,,,
Tween,リトル・スノー,MoveAdd,"x=450 y=0 time=1.5",easeOutQuad,,,,,,,
Wait,,,,,,.2,,,,,
,リトル・スノー,笑い,,,,,,頑張って。応援しているわ,,,
Tween,エフコムシ,ShakePosition,"x=10 islocal=true time=.3",,,,Add,,,,
,エフコムシ,通常,キャラ右,,,.2,,スノー様に触られちゃった～～～！,,,
Se,次元転移音,,,,,,,,,,
FadeOut,white,,,,,1,,,,,
CharacterOff,エフコムシ,,,,,0,,,,,
FadeIn,white,,,,,1,,,,,
CharacterOff,,,,,,,,,,,
,リトル・スノー,真剣,キャラ左,,,,Add,,,,
,クロワール,通常,キャラ右,,,,,,,,
,クロワール,真剣,キャラ右,,,,,"おい、リトル・スノー！
なんてことしてくれたんだ！",,,
,リトル・スノー,通常,キャラ左,,,,,たまにはこういうのも、いいんじゃないかなぁって,,,
,クロワール,固有,キャラ右,,,.2,,なんだそりゃ……,,,
,リトル・スノー,笑い,キャラ左,,,.2,,"あとは、<param=player_name>のために頑張る子を、
応援したくなったからかしら",Input,,
Selection,"*select 200405-3",,,,0,350,,「楽しそうだね」,,,
Selection,"*select 200405-4",,,,0,200,,「変わったね」,,,
"*select 200405-3",,,,,,,,,,,
,リトル・スノー,通常,キャラ左,,,.2,,"楽しい……ええ、そうね。
こんなイタズラをしたの、あちらの世界にいた頃以来かも",,,
Jump,"*confluence 200405-2",,,,,,,,,,
"*select 200405-4",,,,,,,,,,,
,リトル・スノー,通常,キャラ左,,,.2,,"もしかすると、昔の自分を思い出しただけなのかも
ただの小雪だったあの頃を……",,,
Jump,"*confluence 200405-2",,,,,,,,,,
"*confluence 200405-2",,,,,,,,,,,
,クロワール,悲しみ,キャラ右,,,.2,,相変わらず、よく分かんねぇな,,,
,リトル・スノー,通常,キャラ左,,,,,"ふふ……ごめんなさい。
でも、あの子のこともう少し自由にさせてあげて",,,
CharacterOff,,,,,,,,,,,
,大人ネプテューヌ,悲しみ,キャラ中央,,,.2,,<param=player_name>のために？,,,
CharacterOff,,,,,,,,,,,
,リトル・スノー,通常,キャラ中央,,,.2,,"ここから先の出会いは、
何かしら影響をもたらしてくれるかもしれない",,,
,リトル・スノー,笑い,キャラ中央,,,.2,,さあ、３人とも行ってらっしゃい,,,
CharacterOff,,,,,,,,,,,
,大人ネプテューヌ,通常,キャラ左,,,,Add,,,,
,クロワール,通常,キャラ右,,,,,,,,
,クロワール,通常,キャラ右,,,,,"なんでもお見通しって感じが気に入らねぇが、
行くしかないか",Input,,
Selection,"*select 200405-5",,,,0,350,,「行こう！」,,,
Selection,"*select 200405-6",,,,0,200,,「次元の向こうへ！」,,,
"*select 200405-5",,,,,,,,,,,
Jump,"*confluence 200405-3",,,,,,,,,,
"*select 200405-6",,,,,,,,,,,
Jump,"*confluence 200405-3",,,,,,,,,,
"*confluence 200405-3",,,,,,,,,,,
,大人ネプテューヌ,笑い,キャラ左,,,.2,,しゅっぱーつ！,,,
FadeOut,black,,,,,1,,,,,
Wait,,,,,,.3,,,,,
EndScenario,,,,,,,,,,,
